ERROR - 2020-03-11 09:17:27 --> Severity: Notice --> Undefined variable: data_role D:\htdocs\payment_request\application\views\access_menu\detail_access_menu.php 23
ERROR - 2020-03-11 09:17:27 --> Severity: Notice --> Trying to get property 'id' of non-object D:\htdocs\payment_request\application\views\access_menu\detail_access_menu.php 23
ERROR - 2020-03-11 09:17:27 --> Severity: Notice --> Undefined variable: data_role D:\htdocs\payment_request\application\views\access_menu\detail_access_menu.php 38
ERROR - 2020-03-11 09:17:27 --> Severity: Notice --> Trying to get property 'role_code' of non-object D:\htdocs\payment_request\application\views\access_menu\detail_access_menu.php 38
ERROR - 2020-03-11 09:17:27 --> Severity: Notice --> Undefined variable: data_role D:\htdocs\payment_request\application\views\access_menu\detail_access_menu.php 62
ERROR - 2020-03-11 09:17:27 --> Severity: Notice --> Trying to get property 'role_name' of non-object D:\htdocs\payment_request\application\views\access_menu\detail_access_menu.php 62
ERROR - 2020-03-11 09:20:07 --> Severity: Notice --> Undefined variable: data_role D:\htdocs\payment_request\application\views\access_menu\detail_access_menu.php 23
ERROR - 2020-03-11 09:20:07 --> Severity: Notice --> Trying to get property 'id' of non-object D:\htdocs\payment_request\application\views\access_menu\detail_access_menu.php 23
ERROR - 2020-03-11 09:20:07 --> Severity: Notice --> Undefined variable: data_role D:\htdocs\payment_request\application\views\access_menu\detail_access_menu.php 38
ERROR - 2020-03-11 09:20:07 --> Severity: Notice --> Trying to get property 'role_code' of non-object D:\htdocs\payment_request\application\views\access_menu\detail_access_menu.php 38
ERROR - 2020-03-11 09:20:07 --> Severity: Notice --> Undefined variable: data_role D:\htdocs\payment_request\application\views\access_menu\detail_access_menu.php 62
ERROR - 2020-03-11 09:20:07 --> Severity: Notice --> Trying to get property 'role_name' of non-object D:\htdocs\payment_request\application\views\access_menu\detail_access_menu.php 62
ERROR - 2020-03-11 09:20:23 --> Severity: Notice --> Undefined variable: data_role D:\htdocs\payment_request\application\views\access_menu\detail_access_menu.php 38
ERROR - 2020-03-11 09:20:23 --> Severity: Notice --> Trying to get property 'role_code' of non-object D:\htdocs\payment_request\application\views\access_menu\detail_access_menu.php 38
ERROR - 2020-03-11 09:20:23 --> Severity: Notice --> Undefined variable: data_role D:\htdocs\payment_request\application\views\access_menu\detail_access_menu.php 62
ERROR - 2020-03-11 09:20:23 --> Severity: Notice --> Trying to get property 'role_name' of non-object D:\htdocs\payment_request\application\views\access_menu\detail_access_menu.php 62
ERROR - 2020-03-11 09:22:42 --> Severity: Notice --> Undefined variable: data_role D:\htdocs\payment_request\application\views\access_menu\detail_access_menu.php 38
ERROR - 2020-03-11 09:22:42 --> Severity: Notice --> Trying to get property 'role_code' of non-object D:\htdocs\payment_request\application\views\access_menu\detail_access_menu.php 38
ERROR - 2020-03-11 09:22:42 --> Severity: Notice --> Undefined variable: data_role D:\htdocs\payment_request\application\views\access_menu\detail_access_menu.php 62
ERROR - 2020-03-11 09:22:42 --> Severity: Notice --> Trying to get property 'role_name' of non-object D:\htdocs\payment_request\application\views\access_menu\detail_access_menu.php 62
ERROR - 2020-03-11 09:39:44 --> Severity: Notice --> Undefined property: Access_Menu::$role D:\htdocs\payment_request\application\controllers\Access_Menu.php 205
ERROR - 2020-03-11 09:39:44 --> Severity: error --> Exception: Call to a member function getDetailRole() on null D:\htdocs\payment_request\application\controllers\Access_Menu.php 205
ERROR - 2020-03-11 03:52:56 --> Severity: error --> Exception: syntax error, unexpected ';', expecting ']' D:\htdocs\payment_request\application\controllers\Access_Menu.php 208
ERROR - 2020-03-11 04:22:05 --> 404 Page Not Found: Assets/js
ERROR - 2020-03-11 10:22:08 --> Query error: Unknown column 'pr.role_id' in 'field list' - Invalid query: SELECT `p`.`id`, `p`.`menu_name`, ( SELECT pr.role_id FROM pr_payment_menu_role WHERE menu_id = p.id AND role_id =  '2' ) role_id
FROM `pr_payment_menu` `p`
ERROR - 2020-03-11 10:33:02 --> Severity: Notice --> Undefined variable: menu_role D:\htdocs\payment_request\application\views\access_menu\detail_access_menu.php 51
ERROR - 2020-03-11 10:33:02 --> Severity: Warning --> Invalid argument supplied for foreach() D:\htdocs\payment_request\application\views\access_menu\detail_access_menu.php 51
ERROR - 2020-03-11 04:48:34 --> 404 Page Not Found: Assets/js
ERROR - 2020-03-11 04:48:39 --> 404 Page Not Found: Assets/js
ERROR - 2020-03-11 04:49:07 --> 404 Page Not Found: Assets/js
ERROR - 2020-03-11 04:50:01 --> 404 Page Not Found: Assets/js
ERROR - 2020-03-11 04:50:27 --> 404 Page Not Found: Assets/js
ERROR - 2020-03-11 04:50:48 --> 404 Page Not Found: Assets/js
ERROR - 2020-03-11 04:50:56 --> 404 Page Not Found: Assets/js
ERROR - 2020-03-11 04:50:59 --> 404 Page Not Found: Assets/js
ERROR - 2020-03-11 04:51:41 --> 404 Page Not Found: Assets/js
ERROR - 2020-03-11 04:51:50 --> 404 Page Not Found: Assets/js
ERROR - 2020-03-11 04:52:18 --> 404 Page Not Found: Css_app/list_access_menu_role.css
ERROR - 2020-03-11 04:52:18 --> 404 Page Not Found: Assets/js
ERROR - 2020-03-11 04:52:18 --> 404 Page Not Found: Css_app/list_access_menu_role.css
ERROR - 2020-03-11 04:54:16 --> 404 Page Not Found: Css_app/list_access_menu_role.css
ERROR - 2020-03-11 04:54:16 --> 404 Page Not Found: Assets/js
ERROR - 2020-03-11 04:54:16 --> 404 Page Not Found: Css_app/list_access_menu_role.css
ERROR - 2020-03-11 04:54:28 --> 404 Page Not Found: Css_app/list_access_menu_role.css
ERROR - 2020-03-11 04:54:28 --> 404 Page Not Found: Assets/js
ERROR - 2020-03-11 04:54:28 --> 404 Page Not Found: Css_app/list_access_menu_role.css
ERROR - 2020-03-11 04:54:35 --> 404 Page Not Found: Css_app/list_access_menu_role.css
ERROR - 2020-03-11 04:54:35 --> 404 Page Not Found: Assets/js
ERROR - 2020-03-11 04:54:35 --> 404 Page Not Found: Css_app/list_access_menu_role.css
ERROR - 2020-03-11 04:55:38 --> 404 Page Not Found: Css_app/list_access_menu_role.css
ERROR - 2020-03-11 04:55:38 --> 404 Page Not Found: Assets/js
ERROR - 2020-03-11 04:55:38 --> 404 Page Not Found: Css_app/list_access_menu_role.css
ERROR - 2020-03-11 04:55:48 --> 404 Page Not Found: Css_app/list_access_menu_role.css
ERROR - 2020-03-11 04:55:48 --> 404 Page Not Found: Assets/js
ERROR - 2020-03-11 04:55:48 --> 404 Page Not Found: Css_app/list_access_menu_role.css
ERROR - 2020-03-11 04:58:37 --> 404 Page Not Found: Css_app/list_access_menu_role.css
ERROR - 2020-03-11 04:58:37 --> 404 Page Not Found: Assets/js
ERROR - 2020-03-11 04:58:37 --> 404 Page Not Found: Css_app/list_access_menu_role.css
ERROR - 2020-03-11 04:59:43 --> 404 Page Not Found: Css_app/list_access_menu_role.css
ERROR - 2020-03-11 04:59:43 --> 404 Page Not Found: Assets/js
ERROR - 2020-03-11 04:59:43 --> 404 Page Not Found: Css_app/list_access_menu_role.css
ERROR - 2020-03-11 04:59:58 --> 404 Page Not Found: Css_app/list_access_menu_role.css
ERROR - 2020-03-11 04:59:58 --> 404 Page Not Found: Assets/js
ERROR - 2020-03-11 04:59:58 --> 404 Page Not Found: Css_app/list_access_menu_role.css
ERROR - 2020-03-11 05:01:05 --> 404 Page Not Found: Assets/js
ERROR - 2020-03-11 05:01:26 --> 404 Page Not Found: Assets/js
ERROR - 2020-03-11 05:03:03 --> 404 Page Not Found: Assets/js
ERROR - 2020-03-11 05:04:50 --> 404 Page Not Found: Assets/js
ERROR - 2020-03-11 05:04:51 --> 404 Page Not Found: Assets/js
ERROR - 2020-03-11 05:05:46 --> 404 Page Not Found: Assets/js
ERROR - 2020-03-11 05:06:20 --> 404 Page Not Found: Assets/js
ERROR - 2020-03-11 05:06:46 --> 404 Page Not Found: Assets/js
ERROR - 2020-03-11 05:06:48 --> 404 Page Not Found: Assets/js
ERROR - 2020-03-11 05:07:15 --> 404 Page Not Found: Assets/js
ERROR - 2020-03-11 05:07:16 --> 404 Page Not Found: Assets/js
ERROR - 2020-03-11 05:07:18 --> 404 Page Not Found: Assets/js
ERROR - 2020-03-11 05:07:20 --> 404 Page Not Found: Assets/js
ERROR - 2020-03-11 05:08:55 --> 404 Page Not Found: Assets/js
ERROR - 2020-03-11 05:10:49 --> 404 Page Not Found: Assets/js
ERROR - 2020-03-11 05:11:37 --> 404 Page Not Found: Assets/js
ERROR - 2020-03-11 05:11:39 --> 404 Page Not Found: Assets/js
ERROR - 2020-03-11 05:11:52 --> 404 Page Not Found: Assets/js
ERROR - 2020-03-11 05:11:55 --> 404 Page Not Found: Assets/js
ERROR - 2020-03-11 05:12:13 --> 404 Page Not Found: Assets/js
ERROR - 2020-03-11 05:12:15 --> 404 Page Not Found: Assets/js
ERROR - 2020-03-11 05:12:51 --> 404 Page Not Found: Assets/js
ERROR - 2020-03-11 05:13:20 --> 404 Page Not Found: Assets/js
ERROR - 2020-03-11 05:13:28 --> 404 Page Not Found: Assets/js
ERROR - 2020-03-11 05:13:37 --> 404 Page Not Found: Assets/js
ERROR - 2020-03-11 05:13:39 --> 404 Page Not Found: Assets/js
ERROR - 2020-03-11 05:13:44 --> 404 Page Not Found: Assets/js
ERROR - 2020-03-11 05:13:46 --> 404 Page Not Found: Assets/js
ERROR - 2020-03-11 05:13:51 --> 404 Page Not Found: Assets/js
ERROR - 2020-03-11 05:13:53 --> 404 Page Not Found: Assets/js
ERROR - 2020-03-11 05:14:10 --> 404 Page Not Found: Assets/js
ERROR - 2020-03-11 05:15:01 --> 404 Page Not Found: Assets/js
ERROR - 2020-03-11 05:15:31 --> 404 Page Not Found: Assets/js
ERROR - 2020-03-11 05:15:54 --> 404 Page Not Found: Assets/js
ERROR - 2020-03-11 05:16:00 --> 404 Page Not Found: Assets/js
ERROR - 2020-03-11 05:16:18 --> 404 Page Not Found: Assets/js
ERROR - 2020-03-11 05:16:37 --> 404 Page Not Found: Assets/js
ERROR - 2020-03-11 05:16:55 --> 404 Page Not Found: Assets/js
ERROR - 2020-03-11 05:17:22 --> 404 Page Not Found: Assets/js
ERROR - 2020-03-11 05:17:34 --> 404 Page Not Found: Assets/js
ERROR - 2020-03-11 05:17:43 --> 404 Page Not Found: Assets/js
ERROR - 2020-03-11 05:17:58 --> 404 Page Not Found: Assets/js
ERROR - 2020-03-11 05:18:15 --> 404 Page Not Found: Assets/js
ERROR - 2020-03-11 05:19:14 --> 404 Page Not Found: Assets/js
ERROR - 2020-03-11 05:19:34 --> 404 Page Not Found: Assets/js
ERROR - 2020-03-11 11:20:05 --> Severity: error --> Exception: syntax error, unexpected '}', expecting ',' or ';' D:\htdocs\payment_request\application\views\access_menu\detail_access_menu.php 63
ERROR - 2020-03-11 05:20:14 --> 404 Page Not Found: Assets/js
ERROR - 2020-03-11 05:20:30 --> 404 Page Not Found: Assets/js
ERROR - 2020-03-11 05:21:06 --> 404 Page Not Found: Assets/js
ERROR - 2020-03-11 05:21:58 --> 404 Page Not Found: Assets/js
ERROR - 2020-03-11 05:24:56 --> 404 Page Not Found: Assets/js
ERROR - 2020-03-11 05:26:45 --> 404 Page Not Found: Assets/js
ERROR - 2020-03-11 05:27:37 --> 404 Page Not Found: Assets/js
ERROR - 2020-03-11 05:27:38 --> 404 Page Not Found: Assets/js
ERROR - 2020-03-11 05:28:10 --> 404 Page Not Found: Faviconico/index
ERROR - 2020-03-11 05:29:24 --> 404 Page Not Found: Assets/js
ERROR - 2020-03-11 05:29:33 --> 404 Page Not Found: Assets/js
ERROR - 2020-03-11 05:29:34 --> 404 Page Not Found: Assets/js
ERROR - 2020-03-11 05:29:36 --> 404 Page Not Found: Assets/js
ERROR - 2020-03-11 11:30:44 --> Severity: Notice --> Trying to get property 'role_name' of non-object D:\htdocs\payment_request\application\views\access_menu\detail_access_menu.php 31
ERROR - 2020-03-11 05:30:44 --> 404 Page Not Found: Assets/js
ERROR - 2020-03-11 05:31:04 --> 404 Page Not Found: Assets/js
ERROR - 2020-03-11 05:31:34 --> 404 Page Not Found: Assets/js
ERROR - 2020-03-11 05:32:29 --> 404 Page Not Found: Assets/js
ERROR - 2020-03-11 05:32:44 --> 404 Page Not Found: Assets/js
ERROR - 2020-03-11 05:33:12 --> 404 Page Not Found: Assets/js
ERROR - 2020-03-11 05:33:35 --> 404 Page Not Found: Assets/js
ERROR - 2020-03-11 05:34:11 --> 404 Page Not Found: Assets/js
ERROR - 2020-03-11 07:43:49 --> 404 Page Not Found: Assets/vendors
ERROR - 2020-03-11 07:43:49 --> 404 Page Not Found: Assets/vendors
ERROR - 2020-03-11 07:43:49 --> 404 Page Not Found: Assets/vendors
ERROR - 2020-03-11 07:43:49 --> 404 Page Not Found: Assets/vendors
ERROR - 2020-03-11 07:43:49 --> 404 Page Not Found: Assets/vendors
ERROR - 2020-03-11 07:43:49 --> 404 Page Not Found: Assets/vendors
ERROR - 2020-03-11 07:43:49 --> 404 Page Not Found: Assets/vendors
ERROR - 2020-03-11 07:43:49 --> 404 Page Not Found: Assets/vendors
ERROR - 2020-03-11 07:44:02 --> 404 Page Not Found: Assets/js
ERROR - 2020-03-11 07:44:04 --> 404 Page Not Found: Assets/js
ERROR - 2020-03-11 07:44:07 --> 404 Page Not Found: Assets/js
ERROR - 2020-03-11 07:47:48 --> 404 Page Not Found: Assets/js
ERROR - 2020-03-11 07:47:55 --> 404 Page Not Found: Assets/js
ERROR - 2020-03-11 07:48:57 --> 404 Page Not Found: Assets/js
ERROR - 2020-03-11 07:49:03 --> 404 Page Not Found: Assets/js
ERROR - 2020-03-11 07:52:08 --> 404 Page Not Found: Assets/js
ERROR - 2020-03-11 07:52:11 --> 404 Page Not Found: Assets/js
ERROR - 2020-03-11 07:52:28 --> 404 Page Not Found: Assets/js
ERROR - 2020-03-11 08:11:18 --> 404 Page Not Found: Assets/js
ERROR - 2020-03-11 08:12:44 --> 404 Page Not Found: Assets/js
ERROR - 2020-03-11 14:12:45 --> Severity: Notice --> Undefined property: CI_DB_mysqli_driver::$input D:\htdocs\payment_request\application\controllers\Access_Menu.php 185
ERROR - 2020-03-11 14:12:45 --> Severity: error --> Exception: Call to a member function post() on null D:\htdocs\payment_request\application\controllers\Access_Menu.php 185
ERROR - 2020-03-11 08:12:52 --> 404 Page Not Found: Assets/js
ERROR - 2020-03-11 14:12:53 --> Severity: Notice --> Undefined property: CI_DB_mysqli_driver::$input D:\htdocs\payment_request\application\controllers\Access_Menu.php 185
ERROR - 2020-03-11 14:12:53 --> Severity: error --> Exception: Call to a member function post() on null D:\htdocs\payment_request\application\controllers\Access_Menu.php 185
ERROR - 2020-03-11 14:13:27 --> Severity: Notice --> Undefined property: CI_DB_mysqli_driver::$input D:\htdocs\payment_request\application\controllers\Access_Menu.php 185
ERROR - 2020-03-11 14:13:27 --> Severity: error --> Exception: Call to a member function post() on null D:\htdocs\payment_request\application\controllers\Access_Menu.php 185
ERROR - 2020-03-11 08:23:58 --> 404 Page Not Found: Assets/js
ERROR - 2020-03-11 14:24:00 --> Severity: Notice --> Undefined property: CI_DB_mysqli_driver::$input D:\htdocs\payment_request\application\controllers\Access_Menu.php 185
ERROR - 2020-03-11 14:24:00 --> Severity: error --> Exception: Call to a member function post() on null D:\htdocs\payment_request\application\controllers\Access_Menu.php 185
ERROR - 2020-03-11 08:24:44 --> 404 Page Not Found: Assets/js
ERROR - 2020-03-11 14:24:46 --> Severity: Notice --> Undefined property: CI_DB_mysqli_driver::$input D:\htdocs\payment_request\application\controllers\Access_Menu.php 185
ERROR - 2020-03-11 14:24:46 --> Severity: error --> Exception: Call to a member function post() on null D:\htdocs\payment_request\application\controllers\Access_Menu.php 185
ERROR - 2020-03-11 08:39:43 --> 404 Page Not Found: Assets/vendors
ERROR - 2020-03-11 08:39:43 --> 404 Page Not Found: Assets/vendors
ERROR - 2020-03-11 08:39:43 --> 404 Page Not Found: Assets/vendors
ERROR - 2020-03-11 08:39:43 --> 404 Page Not Found: Assets/vendors
ERROR - 2020-03-11 08:39:43 --> 404 Page Not Found: Assets/vendors
ERROR - 2020-03-11 08:39:43 --> 404 Page Not Found: Assets/vendors
ERROR - 2020-03-11 08:49:07 --> Severity: error --> Exception: syntax error, unexpected '(' D:\htdocs\payment_request\application\controllers\Access_Menu.php 215
ERROR - 2020-03-11 08:49:09 --> Severity: error --> Exception: syntax error, unexpected '(' D:\htdocs\payment_request\application\controllers\Access_Menu.php 215
ERROR - 2020-03-11 08:50:08 --> 404 Page Not Found: Assets/js
ERROR - 2020-03-11 08:50:10 --> 404 Page Not Found: Assets/js
ERROR - 2020-03-11 08:50:12 --> 404 Page Not Found: Assets/js
ERROR - 2020-03-11 08:50:37 --> 404 Page Not Found: Assets/js
ERROR - 2020-03-11 08:50:38 --> 404 Page Not Found: Assets/js
ERROR - 2020-03-11 08:50:40 --> 404 Page Not Found: Assets/js
ERROR - 2020-03-11 08:55:43 --> 404 Page Not Found: Assets/js
ERROR - 2020-03-11 08:56:13 --> 404 Page Not Found: Assets/js
ERROR - 2020-03-11 08:56:50 --> 404 Page Not Found: Assets/js
ERROR - 2020-03-11 08:57:09 --> 404 Page Not Found: Assets/js
ERROR - 2020-03-11 08:57:41 --> 404 Page Not Found: Assets/js
ERROR - 2020-03-11 08:58:01 --> 404 Page Not Found: Assets/js
ERROR - 2020-03-11 08:58:21 --> 404 Page Not Found: Assets/js
ERROR - 2020-03-11 08:58:24 --> 404 Page Not Found: Assets/js
ERROR - 2020-03-11 08:58:53 --> 404 Page Not Found: Assets/js
ERROR - 2020-03-11 08:58:54 --> 404 Page Not Found: Assets/js
ERROR - 2020-03-11 08:58:56 --> 404 Page Not Found: Assets/js
ERROR - 2020-03-11 08:59:28 --> 404 Page Not Found: Assets/js
ERROR - 2020-03-11 08:59:31 --> 404 Page Not Found: Assets/js
ERROR - 2020-03-11 08:59:41 --> 404 Page Not Found: Assets/js
ERROR - 2020-03-11 08:59:56 --> 404 Page Not Found: Assets/js
ERROR - 2020-03-11 09:00:02 --> 404 Page Not Found: Assets/js
ERROR - 2020-03-11 09:00:05 --> 404 Page Not Found: Assets/js
ERROR - 2020-03-11 09:00:10 --> 404 Page Not Found: Assets/js
ERROR - 2020-03-11 09:00:16 --> 404 Page Not Found: Assets/js
ERROR - 2020-03-11 09:00:21 --> 404 Page Not Found: Assets/js
ERROR - 2020-03-11 09:01:48 --> 404 Page Not Found: Assets/js
ERROR - 2020-03-11 09:01:50 --> 404 Page Not Found: Assets/js
ERROR - 2020-03-11 09:01:53 --> 404 Page Not Found: Assets/js
ERROR - 2020-03-11 09:01:56 --> 404 Page Not Found: Assets/js
ERROR - 2020-03-11 09:02:03 --> 404 Page Not Found: Assets/js
ERROR - 2020-03-11 09:02:05 --> 404 Page Not Found: Assets/js
ERROR - 2020-03-11 09:02:52 --> 404 Page Not Found: Assets/js
ERROR - 2020-03-11 09:03:07 --> 404 Page Not Found: Assets/js
ERROR - 2020-03-11 09:15:28 --> 404 Page Not Found: Assets/js
ERROR - 2020-03-11 09:40:04 --> 404 Page Not Found: Assets/js
ERROR - 2020-03-11 09:40:08 --> 404 Page Not Found: Assets/js
ERROR - 2020-03-11 09:40:11 --> 404 Page Not Found: Assets/js
ERROR - 2020-03-11 09:40:21 --> 404 Page Not Found: Assets/js
ERROR - 2020-03-11 09:40:23 --> 404 Page Not Found: Assets/js
ERROR - 2020-03-11 09:40:33 --> 404 Page Not Found: Assets/js
ERROR - 2020-03-11 09:40:34 --> 404 Page Not Found: Assets/js
ERROR - 2020-03-11 09:40:48 --> 404 Page Not Found: Assets/js
ERROR - 2020-03-11 09:41:32 --> 404 Page Not Found: Assets/vendors
ERROR - 2020-03-11 09:41:32 --> 404 Page Not Found: Assets/vendors
ERROR - 2020-03-11 09:41:32 --> 404 Page Not Found: Assets/vendors
ERROR - 2020-03-11 09:41:32 --> 404 Page Not Found: Assets/vendors
ERROR - 2020-03-11 09:41:32 --> 404 Page Not Found: Assets/vendors
ERROR - 2020-03-11 09:41:33 --> 404 Page Not Found: Assets/vendors
ERROR - 2020-03-11 09:41:33 --> 404 Page Not Found: Assets/vendors
ERROR - 2020-03-11 09:50:40 --> 404 Page Not Found: Assets/js
ERROR - 2020-03-11 09:51:01 --> 404 Page Not Found: Assets/js
ERROR - 2020-03-11 09:52:48 --> 404 Page Not Found: Assets/js
ERROR - 2020-03-11 09:53:55 --> 404 Page Not Found: Assets/js
ERROR - 2020-03-11 09:54:50 --> 404 Page Not Found: Assets/js
ERROR - 2020-03-11 15:54:50 --> Query error: Unknown column 'pr.is_active' in 'field list' - Invalid query: SELECT `p`.*, `pr`.`is_active`, `pm`.`id` `menu_code`, `pm`.`menu_name`
FROM `pr_payment_role` `p`
 LIMIT 10
ERROR - 2020-03-11 09:55:44 --> 404 Page Not Found: Assets/js
ERROR - 2020-03-11 15:55:44 --> Severity: Notice --> Undefined property: stdClass::$is_active D:\htdocs\payment_request\application\controllers\Access_Menu.php 39
ERROR - 2020-03-11 15:55:44 --> Severity: Notice --> Undefined property: stdClass::$is_active D:\htdocs\payment_request\application\controllers\Access_Menu.php 39
ERROR - 2020-03-11 15:55:44 --> Severity: Notice --> Undefined property: stdClass::$is_active D:\htdocs\payment_request\application\controllers\Access_Menu.php 39
ERROR - 2020-03-11 15:55:44 --> Severity: Notice --> Undefined property: stdClass::$is_active D:\htdocs\payment_request\application\controllers\Access_Menu.php 39
ERROR - 2020-03-11 15:55:44 --> Severity: Notice --> Undefined property: stdClass::$is_active D:\htdocs\payment_request\application\controllers\Access_Menu.php 39
ERROR - 2020-03-11 09:56:16 --> 404 Page Not Found: Assets/js
ERROR - 2020-03-11 09:57:13 --> 404 Page Not Found: Assets/js
