ERROR - 2020-06-16 09:43:27 --> Query error: Unknown column 'created_date' in 'field list' - Invalid query: INSERT INTO `pr_payment_header` (`id`, `pyr_code`, `company_code`, `pemohon`, `is_complete_document`, `created_date`, `doc_complete_date`, `payment_request_date`, `kategori_payment`, `jenis_permintaan`, `budget_code`, `term_sequence`, `vendor_code`, `payment_type`, `is_priority`, `priority_description`, `transaction_type`, `doc_created_date`, `doc_created_by`, `status_approval_payment`, `status_approval_finance`) VALUES (492, 'TCO-PPI-2006-00002', 'TACO', 'C07920581', 1, '2020-06-16 09:43:27', '2020-06-30', '2020-06-17', '1', '2', '40', '1', 'INIT-VLOC-00112', 0, 1, 'Ini adalah reason Urgent', 'internal_payment_request', '2020-06-16 09:43:27', 'C07920581', 0, 0)
ERROR - 2020-06-16 12:46:03 --> Severity: Warning --> Invalid argument supplied for foreach() D:\htdocs\payment_request\application\views\internal_payment_request\ipr_list.php 23
ERROR - 2020-06-16 13:01:11 --> Severity: Notice --> Undefined index: file_fixed_name D:\htdocs\payment_request\application\controllers\Internal_Payment_Request.php 547
ERROR - 2020-06-16 13:02:41 --> Severity: Notice --> Undefined index: message D:\htdocs\payment_request\application\views\internal_payment_request\ipr_list.php 32
ERROR - 2020-06-16 13:02:41 --> Severity: Notice --> Undefined index: line D:\htdocs\payment_request\application\views\internal_payment_request\ipr_list.php 34
ERROR - 2020-06-16 13:02:41 --> Severity: Warning --> Invalid argument supplied for foreach() D:\htdocs\payment_request\application\views\internal_payment_request\ipr_list.php 34
ERROR - 2020-06-16 13:04:21 --> Severity: Notice --> Undefined index: pemohon D:\htdocs\payment_request\application\controllers\Internal_Payment_Request.php 462
ERROR - 2020-06-16 13:04:21 --> Severity: Notice --> Undefined index: budget_code D:\htdocs\payment_request\application\controllers\Internal_Payment_Request.php 463
ERROR - 2020-06-16 13:04:21 --> Severity: Notice --> Undefined index: vendor_code D:\htdocs\payment_request\application\controllers\Internal_Payment_Request.php 464
ERROR - 2020-06-16 13:04:55 --> Severity: Notice --> Undefined index: gl_code D:\htdocs\payment_request\application\controllers\Internal_Payment_Request.php 465
ERROR - 2020-06-16 13:06:41 --> Severity: Notice --> Undefined index: gl_code D:\htdocs\payment_request\application\controllers\Internal_Payment_Request.php 465
ERROR - 2020-06-16 13:15:20 --> Severity: Notice --> Undefined property: stdClass::$user_ir D:\htdocs\payment_request\application\controllers\Internal_Payment_Request.php 74
ERROR - 2020-06-16 13:15:20 --> Severity: Notice --> Undefined property: stdClass::$user_ir D:\htdocs\payment_request\application\controllers\Internal_Payment_Request.php 110
ERROR - 2020-06-16 13:15:20 --> Severity: Notice --> Undefined property: stdClass::$Vendor_name D:\htdocs\payment_request\application\controllers\Internal_Payment_Request.php 111
ERROR - 2020-06-16 13:15:20 --> Severity: Notice --> Undefined property: stdClass::$pending_on D:\htdocs\payment_request\application\controllers\Internal_Payment_Request.php 120
ERROR - 2020-06-16 13:15:20 --> Severity: Notice --> Undefined property: stdClass::$user_ir D:\htdocs\payment_request\application\controllers\Internal_Payment_Request.php 74
ERROR - 2020-06-16 13:15:20 --> Severity: Notice --> Undefined property: stdClass::$user_ir D:\htdocs\payment_request\application\controllers\Internal_Payment_Request.php 110
ERROR - 2020-06-16 13:15:20 --> Severity: Notice --> Undefined property: stdClass::$Vendor_name D:\htdocs\payment_request\application\controllers\Internal_Payment_Request.php 111
ERROR - 2020-06-16 13:15:20 --> Severity: Notice --> Undefined property: stdClass::$pending_on D:\htdocs\payment_request\application\controllers\Internal_Payment_Request.php 120
ERROR - 2020-06-16 13:15:20 --> Severity: Notice --> Undefined property: stdClass::$user_ir D:\htdocs\payment_request\application\controllers\Internal_Payment_Request.php 74
ERROR - 2020-06-16 13:15:20 --> Severity: Notice --> Undefined property: stdClass::$user_ir D:\htdocs\payment_request\application\controllers\Internal_Payment_Request.php 110
ERROR - 2020-06-16 13:15:20 --> Severity: Notice --> Undefined property: stdClass::$Vendor_name D:\htdocs\payment_request\application\controllers\Internal_Payment_Request.php 111
ERROR - 2020-06-16 13:15:20 --> Severity: Notice --> Undefined property: stdClass::$pending_on D:\htdocs\payment_request\application\controllers\Internal_Payment_Request.php 120
ERROR - 2020-06-16 13:15:20 --> Severity: Notice --> Undefined property: stdClass::$user_ir D:\htdocs\payment_request\application\controllers\Internal_Payment_Request.php 74
ERROR - 2020-06-16 13:15:20 --> Severity: Notice --> Undefined property: stdClass::$user_ir D:\htdocs\payment_request\application\controllers\Internal_Payment_Request.php 110
ERROR - 2020-06-16 13:15:20 --> Severity: Notice --> Undefined property: stdClass::$Vendor_name D:\htdocs\payment_request\application\controllers\Internal_Payment_Request.php 111
ERROR - 2020-06-16 13:15:20 --> Severity: Notice --> Undefined property: stdClass::$pending_on D:\htdocs\payment_request\application\controllers\Internal_Payment_Request.php 120
ERROR - 2020-06-16 13:15:20 --> Severity: Notice --> Undefined property: stdClass::$user_ir D:\htdocs\payment_request\application\controllers\Internal_Payment_Request.php 74
ERROR - 2020-06-16 13:15:20 --> Severity: Notice --> Undefined property: stdClass::$user_ir D:\htdocs\payment_request\application\controllers\Internal_Payment_Request.php 110
ERROR - 2020-06-16 13:15:20 --> Severity: Notice --> Undefined property: stdClass::$Vendor_name D:\htdocs\payment_request\application\controllers\Internal_Payment_Request.php 111
ERROR - 2020-06-16 13:15:20 --> Severity: Notice --> Undefined property: stdClass::$pending_on D:\htdocs\payment_request\application\controllers\Internal_Payment_Request.php 120
ERROR - 2020-06-16 13:15:20 --> Severity: Notice --> Undefined property: stdClass::$user_ir D:\htdocs\payment_request\application\controllers\Internal_Payment_Request.php 74
ERROR - 2020-06-16 13:15:20 --> Severity: Notice --> Undefined property: stdClass::$user_ir D:\htdocs\payment_request\application\controllers\Internal_Payment_Request.php 110
ERROR - 2020-06-16 13:15:20 --> Severity: Notice --> Undefined property: stdClass::$Vendor_name D:\htdocs\payment_request\application\controllers\Internal_Payment_Request.php 111
ERROR - 2020-06-16 13:15:20 --> Severity: Notice --> Undefined property: stdClass::$pending_on D:\htdocs\payment_request\application\controllers\Internal_Payment_Request.php 120
ERROR - 2020-06-16 13:15:20 --> Severity: Notice --> Undefined property: stdClass::$user_ir D:\htdocs\payment_request\application\controllers\Internal_Payment_Request.php 74
ERROR - 2020-06-16 13:15:20 --> Severity: Notice --> Undefined property: stdClass::$user_ir D:\htdocs\payment_request\application\controllers\Internal_Payment_Request.php 110
ERROR - 2020-06-16 13:15:20 --> Severity: Notice --> Undefined property: stdClass::$Vendor_name D:\htdocs\payment_request\application\controllers\Internal_Payment_Request.php 111
ERROR - 2020-06-16 13:15:20 --> Severity: Notice --> Undefined property: stdClass::$pending_on D:\htdocs\payment_request\application\controllers\Internal_Payment_Request.php 120
ERROR - 2020-06-16 13:15:20 --> Severity: Notice --> Undefined property: stdClass::$user_ir D:\htdocs\payment_request\application\controllers\Internal_Payment_Request.php 74
ERROR - 2020-06-16 13:15:20 --> Severity: Notice --> Undefined property: stdClass::$user_ir D:\htdocs\payment_request\application\controllers\Internal_Payment_Request.php 110
ERROR - 2020-06-16 13:15:20 --> Severity: Notice --> Undefined property: stdClass::$Vendor_name D:\htdocs\payment_request\application\controllers\Internal_Payment_Request.php 111
ERROR - 2020-06-16 13:15:20 --> Severity: Notice --> Undefined property: stdClass::$pending_on D:\htdocs\payment_request\application\controllers\Internal_Payment_Request.php 120
ERROR - 2020-06-16 13:15:20 --> Severity: Notice --> Undefined property: stdClass::$user_ir D:\htdocs\payment_request\application\controllers\Internal_Payment_Request.php 74
ERROR - 2020-06-16 13:15:20 --> Severity: Notice --> Undefined property: stdClass::$user_ir D:\htdocs\payment_request\application\controllers\Internal_Payment_Request.php 110
ERROR - 2020-06-16 13:15:20 --> Severity: Notice --> Undefined property: stdClass::$Vendor_name D:\htdocs\payment_request\application\controllers\Internal_Payment_Request.php 111
ERROR - 2020-06-16 13:15:20 --> Severity: Notice --> Undefined property: stdClass::$pending_on D:\htdocs\payment_request\application\controllers\Internal_Payment_Request.php 120
ERROR - 2020-06-16 13:15:30 --> Severity: Notice --> Undefined property: stdClass::$user_ir D:\htdocs\payment_request\application\controllers\Internal_Payment_Request.php 74
ERROR - 2020-06-16 13:15:30 --> Severity: Notice --> Undefined property: stdClass::$user_ir D:\htdocs\payment_request\application\controllers\Internal_Payment_Request.php 110
ERROR - 2020-06-16 13:15:30 --> Severity: Notice --> Undefined property: stdClass::$Vendor_name D:\htdocs\payment_request\application\controllers\Internal_Payment_Request.php 111
ERROR - 2020-06-16 13:15:30 --> Severity: Notice --> Undefined property: stdClass::$pending_on D:\htdocs\payment_request\application\controllers\Internal_Payment_Request.php 120
ERROR - 2020-06-16 13:15:30 --> Severity: Notice --> Undefined property: stdClass::$user_ir D:\htdocs\payment_request\application\controllers\Internal_Payment_Request.php 74
ERROR - 2020-06-16 13:15:30 --> Severity: Notice --> Undefined property: stdClass::$user_ir D:\htdocs\payment_request\application\controllers\Internal_Payment_Request.php 110
ERROR - 2020-06-16 13:15:30 --> Severity: Notice --> Undefined property: stdClass::$Vendor_name D:\htdocs\payment_request\application\controllers\Internal_Payment_Request.php 111
ERROR - 2020-06-16 13:15:30 --> Severity: Notice --> Undefined property: stdClass::$pending_on D:\htdocs\payment_request\application\controllers\Internal_Payment_Request.php 120
ERROR - 2020-06-16 13:15:30 --> Severity: Notice --> Undefined property: stdClass::$user_ir D:\htdocs\payment_request\application\controllers\Internal_Payment_Request.php 74
ERROR - 2020-06-16 13:15:30 --> Severity: Notice --> Undefined property: stdClass::$user_ir D:\htdocs\payment_request\application\controllers\Internal_Payment_Request.php 110
ERROR - 2020-06-16 13:15:30 --> Severity: Notice --> Undefined property: stdClass::$Vendor_name D:\htdocs\payment_request\application\controllers\Internal_Payment_Request.php 111
ERROR - 2020-06-16 13:15:30 --> Severity: Notice --> Undefined property: stdClass::$pending_on D:\htdocs\payment_request\application\controllers\Internal_Payment_Request.php 120
ERROR - 2020-06-16 13:15:30 --> Severity: Notice --> Undefined property: stdClass::$user_ir D:\htdocs\payment_request\application\controllers\Internal_Payment_Request.php 74
ERROR - 2020-06-16 13:15:30 --> Severity: Notice --> Undefined property: stdClass::$user_ir D:\htdocs\payment_request\application\controllers\Internal_Payment_Request.php 110
ERROR - 2020-06-16 13:15:30 --> Severity: Notice --> Undefined property: stdClass::$Vendor_name D:\htdocs\payment_request\application\controllers\Internal_Payment_Request.php 111
ERROR - 2020-06-16 13:15:30 --> Severity: Notice --> Undefined property: stdClass::$pending_on D:\htdocs\payment_request\application\controllers\Internal_Payment_Request.php 120
ERROR - 2020-06-16 13:15:30 --> Severity: Notice --> Undefined property: stdClass::$user_ir D:\htdocs\payment_request\application\controllers\Internal_Payment_Request.php 74
ERROR - 2020-06-16 13:15:30 --> Severity: Notice --> Undefined property: stdClass::$user_ir D:\htdocs\payment_request\application\controllers\Internal_Payment_Request.php 110
ERROR - 2020-06-16 13:15:30 --> Severity: Notice --> Undefined property: stdClass::$Vendor_name D:\htdocs\payment_request\application\controllers\Internal_Payment_Request.php 111
ERROR - 2020-06-16 13:15:30 --> Severity: Notice --> Undefined property: stdClass::$pending_on D:\htdocs\payment_request\application\controllers\Internal_Payment_Request.php 120
ERROR - 2020-06-16 13:15:30 --> Severity: Notice --> Undefined property: stdClass::$user_ir D:\htdocs\payment_request\application\controllers\Internal_Payment_Request.php 74
ERROR - 2020-06-16 13:15:30 --> Severity: Notice --> Undefined property: stdClass::$user_ir D:\htdocs\payment_request\application\controllers\Internal_Payment_Request.php 110
ERROR - 2020-06-16 13:15:30 --> Severity: Notice --> Undefined property: stdClass::$Vendor_name D:\htdocs\payment_request\application\controllers\Internal_Payment_Request.php 111
ERROR - 2020-06-16 13:15:30 --> Severity: Notice --> Undefined property: stdClass::$pending_on D:\htdocs\payment_request\application\controllers\Internal_Payment_Request.php 120
ERROR - 2020-06-16 13:15:30 --> Severity: Notice --> Undefined property: stdClass::$user_ir D:\htdocs\payment_request\application\controllers\Internal_Payment_Request.php 74
ERROR - 2020-06-16 13:15:30 --> Severity: Notice --> Undefined property: stdClass::$user_ir D:\htdocs\payment_request\application\controllers\Internal_Payment_Request.php 110
ERROR - 2020-06-16 13:15:30 --> Severity: Notice --> Undefined property: stdClass::$Vendor_name D:\htdocs\payment_request\application\controllers\Internal_Payment_Request.php 111
ERROR - 2020-06-16 13:15:30 --> Severity: Notice --> Undefined property: stdClass::$pending_on D:\htdocs\payment_request\application\controllers\Internal_Payment_Request.php 120
ERROR - 2020-06-16 13:15:30 --> Severity: Notice --> Undefined property: stdClass::$user_ir D:\htdocs\payment_request\application\controllers\Internal_Payment_Request.php 74
ERROR - 2020-06-16 13:15:30 --> Severity: Notice --> Undefined property: stdClass::$user_ir D:\htdocs\payment_request\application\controllers\Internal_Payment_Request.php 110
ERROR - 2020-06-16 13:15:30 --> Severity: Notice --> Undefined property: stdClass::$Vendor_name D:\htdocs\payment_request\application\controllers\Internal_Payment_Request.php 111
ERROR - 2020-06-16 13:15:30 --> Severity: Notice --> Undefined property: stdClass::$pending_on D:\htdocs\payment_request\application\controllers\Internal_Payment_Request.php 120
ERROR - 2020-06-16 13:15:30 --> Severity: Notice --> Undefined property: stdClass::$user_ir D:\htdocs\payment_request\application\controllers\Internal_Payment_Request.php 74
ERROR - 2020-06-16 13:15:30 --> Severity: Notice --> Undefined property: stdClass::$user_ir D:\htdocs\payment_request\application\controllers\Internal_Payment_Request.php 110
ERROR - 2020-06-16 13:15:30 --> Severity: Notice --> Undefined property: stdClass::$Vendor_name D:\htdocs\payment_request\application\controllers\Internal_Payment_Request.php 111
ERROR - 2020-06-16 13:15:30 --> Severity: Notice --> Undefined property: stdClass::$pending_on D:\htdocs\payment_request\application\controllers\Internal_Payment_Request.php 120
ERROR - 2020-06-16 13:17:34 --> Severity: Notice --> Undefined property: stdClass::$user_ir D:\htdocs\payment_request\application\controllers\Internal_Payment_Request.php 74
ERROR - 2020-06-16 13:17:34 --> Severity: Notice --> Undefined property: stdClass::$user_ir D:\htdocs\payment_request\application\controllers\Internal_Payment_Request.php 74
ERROR - 2020-06-16 13:17:34 --> Severity: Notice --> Undefined property: stdClass::$user_ir D:\htdocs\payment_request\application\controllers\Internal_Payment_Request.php 74
ERROR - 2020-06-16 13:17:34 --> Severity: Notice --> Undefined property: stdClass::$user_ir D:\htdocs\payment_request\application\controllers\Internal_Payment_Request.php 74
ERROR - 2020-06-16 13:17:34 --> Severity: Notice --> Undefined property: stdClass::$user_ir D:\htdocs\payment_request\application\controllers\Internal_Payment_Request.php 74
ERROR - 2020-06-16 13:17:34 --> Severity: Notice --> Undefined property: stdClass::$user_ir D:\htdocs\payment_request\application\controllers\Internal_Payment_Request.php 74
ERROR - 2020-06-16 13:17:34 --> Severity: Notice --> Undefined property: stdClass::$user_ir D:\htdocs\payment_request\application\controllers\Internal_Payment_Request.php 74
ERROR - 2020-06-16 13:17:34 --> Severity: Notice --> Undefined property: stdClass::$user_ir D:\htdocs\payment_request\application\controllers\Internal_Payment_Request.php 74
ERROR - 2020-06-16 13:17:34 --> Severity: Notice --> Undefined property: stdClass::$user_ir D:\htdocs\payment_request\application\controllers\Internal_Payment_Request.php 74
ERROR - 2020-06-16 13:30:46 --> Severity: Notice --> Undefined property: stdClass::$id D:\htdocs\payment_request\application\controllers\Internal_Payment_Request.php 54
ERROR - 2020-06-16 13:30:46 --> Severity: Notice --> Undefined property: stdClass::$id D:\htdocs\payment_request\application\controllers\Internal_Payment_Request.php 60
ERROR - 2020-06-16 13:30:46 --> Severity: Notice --> Undefined property: stdClass::$id D:\htdocs\payment_request\application\controllers\Internal_Payment_Request.php 65
ERROR - 2020-06-16 13:30:46 --> Severity: Notice --> Undefined property: stdClass::$id D:\htdocs\payment_request\application\controllers\Internal_Payment_Request.php 80
ERROR - 2020-06-16 13:30:46 --> Severity: Notice --> Undefined property: stdClass::$id D:\htdocs\payment_request\application\controllers\Internal_Payment_Request.php 54
ERROR - 2020-06-16 13:30:46 --> Severity: Notice --> Undefined property: stdClass::$id D:\htdocs\payment_request\application\controllers\Internal_Payment_Request.php 60
ERROR - 2020-06-16 13:30:46 --> Severity: Notice --> Undefined property: stdClass::$id D:\htdocs\payment_request\application\controllers\Internal_Payment_Request.php 65
ERROR - 2020-06-16 13:30:46 --> Severity: Notice --> Undefined property: stdClass::$id D:\htdocs\payment_request\application\controllers\Internal_Payment_Request.php 80
ERROR - 2020-06-16 13:30:46 --> Severity: Notice --> Undefined property: stdClass::$id D:\htdocs\payment_request\application\controllers\Internal_Payment_Request.php 54
ERROR - 2020-06-16 13:30:46 --> Severity: Notice --> Undefined property: stdClass::$id D:\htdocs\payment_request\application\controllers\Internal_Payment_Request.php 60
ERROR - 2020-06-16 13:30:46 --> Severity: Notice --> Undefined property: stdClass::$id D:\htdocs\payment_request\application\controllers\Internal_Payment_Request.php 65
ERROR - 2020-06-16 13:30:46 --> Severity: Notice --> Undefined property: stdClass::$id D:\htdocs\payment_request\application\controllers\Internal_Payment_Request.php 80
ERROR - 2020-06-16 13:30:46 --> Severity: Notice --> Undefined property: stdClass::$id D:\htdocs\payment_request\application\controllers\Internal_Payment_Request.php 54
ERROR - 2020-06-16 13:30:46 --> Severity: Notice --> Undefined property: stdClass::$id D:\htdocs\payment_request\application\controllers\Internal_Payment_Request.php 60
ERROR - 2020-06-16 13:30:46 --> Severity: Notice --> Undefined property: stdClass::$id D:\htdocs\payment_request\application\controllers\Internal_Payment_Request.php 65
ERROR - 2020-06-16 13:30:46 --> Severity: Notice --> Undefined property: stdClass::$id D:\htdocs\payment_request\application\controllers\Internal_Payment_Request.php 80
ERROR - 2020-06-16 13:30:46 --> Severity: Notice --> Undefined property: stdClass::$id D:\htdocs\payment_request\application\controllers\Internal_Payment_Request.php 54
ERROR - 2020-06-16 13:30:46 --> Severity: Notice --> Undefined property: stdClass::$id D:\htdocs\payment_request\application\controllers\Internal_Payment_Request.php 60
ERROR - 2020-06-16 13:30:46 --> Severity: Notice --> Undefined property: stdClass::$id D:\htdocs\payment_request\application\controllers\Internal_Payment_Request.php 65
ERROR - 2020-06-16 13:30:46 --> Severity: Notice --> Undefined property: stdClass::$id D:\htdocs\payment_request\application\controllers\Internal_Payment_Request.php 80
ERROR - 2020-06-16 13:30:46 --> Severity: Notice --> Undefined property: stdClass::$id D:\htdocs\payment_request\application\controllers\Internal_Payment_Request.php 54
ERROR - 2020-06-16 13:30:46 --> Severity: Notice --> Undefined property: stdClass::$id D:\htdocs\payment_request\application\controllers\Internal_Payment_Request.php 60
ERROR - 2020-06-16 13:30:46 --> Severity: Notice --> Undefined property: stdClass::$id D:\htdocs\payment_request\application\controllers\Internal_Payment_Request.php 65
ERROR - 2020-06-16 13:30:46 --> Severity: Notice --> Undefined property: stdClass::$id D:\htdocs\payment_request\application\controllers\Internal_Payment_Request.php 80
ERROR - 2020-06-16 13:30:46 --> Severity: Notice --> Undefined property: stdClass::$id D:\htdocs\payment_request\application\controllers\Internal_Payment_Request.php 54
ERROR - 2020-06-16 13:30:46 --> Severity: Notice --> Undefined property: stdClass::$id D:\htdocs\payment_request\application\controllers\Internal_Payment_Request.php 60
ERROR - 2020-06-16 13:30:46 --> Severity: Notice --> Undefined property: stdClass::$id D:\htdocs\payment_request\application\controllers\Internal_Payment_Request.php 65
ERROR - 2020-06-16 13:30:46 --> Severity: Notice --> Undefined property: stdClass::$id D:\htdocs\payment_request\application\controllers\Internal_Payment_Request.php 80
ERROR - 2020-06-16 13:30:46 --> Severity: Notice --> Undefined property: stdClass::$id D:\htdocs\payment_request\application\controllers\Internal_Payment_Request.php 54
ERROR - 2020-06-16 13:30:46 --> Severity: Notice --> Undefined property: stdClass::$id D:\htdocs\payment_request\application\controllers\Internal_Payment_Request.php 60
ERROR - 2020-06-16 13:30:46 --> Severity: Notice --> Undefined property: stdClass::$id D:\htdocs\payment_request\application\controllers\Internal_Payment_Request.php 65
ERROR - 2020-06-16 13:30:46 --> Severity: Notice --> Undefined property: stdClass::$id D:\htdocs\payment_request\application\controllers\Internal_Payment_Request.php 80
ERROR - 2020-06-16 13:30:46 --> Severity: Notice --> Undefined property: stdClass::$id D:\htdocs\payment_request\application\controllers\Internal_Payment_Request.php 54
ERROR - 2020-06-16 13:30:46 --> Severity: Notice --> Undefined property: stdClass::$id D:\htdocs\payment_request\application\controllers\Internal_Payment_Request.php 60
ERROR - 2020-06-16 13:30:46 --> Severity: Notice --> Undefined property: stdClass::$id D:\htdocs\payment_request\application\controllers\Internal_Payment_Request.php 65
ERROR - 2020-06-16 13:30:46 --> Severity: Notice --> Undefined property: stdClass::$id D:\htdocs\payment_request\application\controllers\Internal_Payment_Request.php 80
ERROR - 2020-06-16 13:42:22 --> Query error: You have an error in your SQL syntax; check the manual that corresponds to your MariaDB server version for the right syntax to use near ') kategori_payment
FROM `pr_payment_header` `p`
LEFT JOIN `employee_view` `e` ON' at line 7 - Invalid query: SELECT `p`.`id`, `p`.`company_code`, `p`.`pyr_code`, `e`.`nik` `nik_pemohon`, `e`.`name` `nama_pemohon`, `p`.`doc_created_date`, `ee`.`nik` `nik_user`, `ee`.`name` `nama_user`, (
                CASE p.kategori_payment     
                    WHEN 1 THEN 'IT'
                    WHEN 2 THEN 'GA'
                    WHEN 3 THEN 'OTHERS'
                ELSE ''
            ) kategori_payment
FROM `pr_payment_header` `p`
LEFT JOIN `employee_view` `e` ON `p`.`pemohon` = `e`.`nik`
LEFT JOIN `employee_view` `ee` ON `p`.`doc_created_by` = `ee`.`nik`
WHERE `p`.`transaction_type` = 'internal_payment_request'
 LIMIT 10
ERROR - 2020-06-16 13:57:11 --> Severity: Notice --> Undefined property: stdClass::$termin D:\htdocs\payment_request\application\controllers\Internal_Payment_Request.php 118
ERROR - 2020-06-16 13:57:11 --> Severity: Notice --> Undefined property: stdClass::$termin D:\htdocs\payment_request\application\controllers\Internal_Payment_Request.php 118
ERROR - 2020-06-16 13:57:11 --> Severity: Notice --> Undefined property: stdClass::$termin D:\htdocs\payment_request\application\controllers\Internal_Payment_Request.php 118
ERROR - 2020-06-16 13:57:11 --> Severity: Notice --> Undefined property: stdClass::$termin D:\htdocs\payment_request\application\controllers\Internal_Payment_Request.php 118
ERROR - 2020-06-16 13:57:11 --> Severity: Notice --> Undefined property: stdClass::$termin D:\htdocs\payment_request\application\controllers\Internal_Payment_Request.php 118
ERROR - 2020-06-16 13:57:11 --> Severity: Notice --> Undefined property: stdClass::$termin D:\htdocs\payment_request\application\controllers\Internal_Payment_Request.php 118
ERROR - 2020-06-16 13:57:11 --> Severity: Notice --> Undefined property: stdClass::$termin D:\htdocs\payment_request\application\controllers\Internal_Payment_Request.php 118
ERROR - 2020-06-16 13:57:11 --> Severity: Notice --> Undefined property: stdClass::$termin D:\htdocs\payment_request\application\controllers\Internal_Payment_Request.php 118
ERROR - 2020-06-16 13:57:11 --> Severity: Notice --> Undefined property: stdClass::$termin D:\htdocs\payment_request\application\controllers\Internal_Payment_Request.php 118
ERROR - 2020-06-16 13:57:40 --> Query error: You have an error in your SQL syntax; check the manual that corresponds to your MariaDB server version for the right syntax to use near '.`term`
FROM `pr_payment_header` `p`
LEFT JOIN `employee_view` `e` ON `p`.`pemoh' at line 14 - Invalid query: SELECT `p`.`id`, `p`.`company_code`, `p`.`pyr_code`, `e`.`nik` `nik_pemohon`, `e`.`name` `nama_pemohon`, `p`.`doc_created_date`, `ee`.`nik` `nik_user`, `ee`.`name` `nama_user`, (
                CASE p.kategori_payment     
                    WHEN 1 THEN 'IT'
                    WHEN 2 THEN 'GA'
                    WHEN 3 THEN 'OTHERS'
                    ELSE ''
                END
            ) kategori_payment, (
                CASE p.jenis_permintaan     
                    WHEN 1 THEN 'CAPEX'
                    WHEN 2 THEN 'OPEX'
                    ELSE ''
                END
            ) jenis_permintaan, `b`.`description` `p`.`term`
FROM `pr_payment_header` `p`
LEFT JOIN `employee_view` `e` ON `p`.`pemohon` = `e`.`nik`
LEFT JOIN `employee_view` `ee` ON `p`.`doc_created_by` = `ee`.`nik`
LEFT JOIN `budget` `b` ON `p`.`budget_code` = `b`.`id`
WHERE `p`.`transaction_type` = 'internal_payment_request'
 LIMIT 10
ERROR - 2020-06-16 14:28:12 --> Severity: Notice --> Undefined offset: 7 D:\htdocs\payment_request\application\models\Internal_Payment_Request_Model.php 538
ERROR - 2020-06-16 14:28:12 --> Severity: Notice --> Undefined offset: 7 D:\htdocs\payment_request\application\models\Internal_Payment_Request_Model.php 538
ERROR - 2020-06-16 14:28:14 --> Severity: Notice --> Undefined offset: 7 D:\htdocs\payment_request\application\models\Internal_Payment_Request_Model.php 538
ERROR - 2020-06-16 14:28:14 --> Severity: Notice --> Undefined offset: 7 D:\htdocs\payment_request\application\models\Internal_Payment_Request_Model.php 538
ERROR - 2020-06-16 14:30:28 --> Severity: Notice --> Undefined offset: 3 D:\htdocs\payment_request\application\models\Internal_Payment_Request_Model.php 538
ERROR - 2020-06-16 14:30:28 --> Severity: Notice --> Undefined offset: 3 D:\htdocs\payment_request\application\models\Internal_Payment_Request_Model.php 538
ERROR - 2020-06-16 14:34:15 --> Severity: Notice --> Undefined offset: 3 D:\htdocs\payment_request\application\models\Internal_Payment_Request_Model.php 538
ERROR - 2020-06-16 14:34:15 --> Severity: Notice --> Undefined offset: 3 D:\htdocs\payment_request\application\models\Internal_Payment_Request_Model.php 538
ERROR - 2020-06-16 15:16:22 --> Query error: You have an error in your SQL syntax; check the manual that corresponds to your MariaDB server version for the right syntax to use near '`LIKE` '%1%' ESCAPE '!' 
OR  `p`.`jenis_permintaan` != `NOT` `LIKE` '%2%' ESCAPE' at line 21 - Invalid query: SELECT `p`.`id`, `p`.`company_code`, `p`.`pyr_code`, `e`.`nik` `nik_pemohon`, `e`.`name` `nama_pemohon`, `p`.`doc_created_date`, `ee`.`nik` `nik_user`, `ee`.`name` `nama_user`, (
                CASE p.kategori_payment     
                    WHEN 1 THEN 'IT'
                    WHEN 2 THEN 'GA'
                    WHEN 3 THEN 'OTHERS'
                    ELSE ''
                END
            ) kategori_payment, (
                CASE p.jenis_permintaan     
                    WHEN 1 THEN 'CAPEX'
                    WHEN 2 THEN 'OPEX'
                    ELSE ''
                END
            ) jenis_permintaan, `b`.`description`, `p`.`term_sequence`, `p`.`doc_complete_date`, `v`.`Vendor_name`
FROM `pr_payment_header` `p`
LEFT JOIN `employee_view` `e` ON `p`.`pemohon` = `e`.`nik`
LEFT JOIN `employee_view` `ee` ON `p`.`doc_created_by` = `ee`.`nik`
LEFT JOIN `budget` `b` ON `p`.`budget_code` = `b`.`id`
LEFT JOIN `pr_ms_vendor` `v` ON `p`.`vendor_code` = `v`.`vendor_code` AND `p`.`company_code` = `v`.`company_code`
WHERE `p`.`transaction_type` = 'internal_payment_request'
OR  `p`.`jenis_permintaan` != `NOT` `LIKE` '%1%' ESCAPE '!' 
OR  `p`.`jenis_permintaan` != `NOT` `LIKE` '%2%' ESCAPE '!' 
 LIMIT 10
ERROR - 2020-06-16 15:16:34 --> Query error: You have an error in your SQL syntax; check the manual that corresponds to your MariaDB server version for the right syntax to use near '`LIKE` '%2%' ESCAPE '!' 
 LIMIT 10' at line 22 - Invalid query: SELECT `p`.`id`, `p`.`company_code`, `p`.`pyr_code`, `e`.`nik` `nik_pemohon`, `e`.`name` `nama_pemohon`, `p`.`doc_created_date`, `ee`.`nik` `nik_user`, `ee`.`name` `nama_user`, (
                CASE p.kategori_payment     
                    WHEN 1 THEN 'IT'
                    WHEN 2 THEN 'GA'
                    WHEN 3 THEN 'OTHERS'
                    ELSE ''
                END
            ) kategori_payment, (
                CASE p.jenis_permintaan     
                    WHEN 1 THEN 'CAPEX'
                    WHEN 2 THEN 'OPEX'
                    ELSE ''
                END
            ) jenis_permintaan, `b`.`description`, `p`.`term_sequence`, `p`.`doc_complete_date`, `v`.`Vendor_name`
FROM `pr_payment_header` `p`
LEFT JOIN `employee_view` `e` ON `p`.`pemohon` = `e`.`nik`
LEFT JOIN `employee_view` `ee` ON `p`.`doc_created_by` = `ee`.`nik`
LEFT JOIN `budget` `b` ON `p`.`budget_code` = `b`.`id`
LEFT JOIN `pr_ms_vendor` `v` ON `p`.`vendor_code` = `v`.`vendor_code` AND `p`.`company_code` = `v`.`company_code`
WHERE `p`.`transaction_type` = 'internal_payment_request'
OR  p.jenis_permintaan  LIKE '%1%' ESCAPE '!' 
AND  `p`.`jenis_permintaan` != `NOT` `LIKE` '%2%' ESCAPE '!' 
 LIMIT 10
ERROR - 2020-06-16 15:16:37 --> Query error: You have an error in your SQL syntax; check the manual that corresponds to your MariaDB server version for the right syntax to use near '`LIKE` '%2%' ESCAPE '!' 
 LIMIT 10' at line 22 - Invalid query: SELECT `p`.`id`, `p`.`company_code`, `p`.`pyr_code`, `e`.`nik` `nik_pemohon`, `e`.`name` `nama_pemohon`, `p`.`doc_created_date`, `ee`.`nik` `nik_user`, `ee`.`name` `nama_user`, (
                CASE p.kategori_payment     
                    WHEN 1 THEN 'IT'
                    WHEN 2 THEN 'GA'
                    WHEN 3 THEN 'OTHERS'
                    ELSE ''
                END
            ) kategori_payment, (
                CASE p.jenis_permintaan     
                    WHEN 1 THEN 'CAPEX'
                    WHEN 2 THEN 'OPEX'
                    ELSE ''
                END
            ) jenis_permintaan, `b`.`description`, `p`.`term_sequence`, `p`.`doc_complete_date`, `v`.`Vendor_name`
FROM `pr_payment_header` `p`
LEFT JOIN `employee_view` `e` ON `p`.`pemohon` = `e`.`nik`
LEFT JOIN `employee_view` `ee` ON `p`.`doc_created_by` = `ee`.`nik`
LEFT JOIN `budget` `b` ON `p`.`budget_code` = `b`.`id`
LEFT JOIN `pr_ms_vendor` `v` ON `p`.`vendor_code` = `v`.`vendor_code` AND `p`.`company_code` = `v`.`company_code`
WHERE `p`.`transaction_type` = 'internal_payment_request'
OR  p.jenis_permintaan  LIKE '%1%' ESCAPE '!' 
AND  `p`.`jenis_permintaan` != `NOT` `LIKE` '%2%' ESCAPE '!' 
 LIMIT 10
ERROR - 2020-06-16 15:16:45 --> Query error: You have an error in your SQL syntax; check the manual that corresponds to your MariaDB server version for the right syntax to use near '`LIKE` '%1%' ESCAPE '!' 
AND  `p`.`jenis_permintaan` != `NOT` `LIKE` '%2%' ESCAP' at line 21 - Invalid query: SELECT `p`.`id`, `p`.`company_code`, `p`.`pyr_code`, `e`.`nik` `nik_pemohon`, `e`.`name` `nama_pemohon`, `p`.`doc_created_date`, `ee`.`nik` `nik_user`, `ee`.`name` `nama_user`, (
                CASE p.kategori_payment     
                    WHEN 1 THEN 'IT'
                    WHEN 2 THEN 'GA'
                    WHEN 3 THEN 'OTHERS'
                    ELSE ''
                END
            ) kategori_payment, (
                CASE p.jenis_permintaan     
                    WHEN 1 THEN 'CAPEX'
                    WHEN 2 THEN 'OPEX'
                    ELSE ''
                END
            ) jenis_permintaan, `b`.`description`, `p`.`term_sequence`, `p`.`doc_complete_date`, `v`.`Vendor_name`
FROM `pr_payment_header` `p`
LEFT JOIN `employee_view` `e` ON `p`.`pemohon` = `e`.`nik`
LEFT JOIN `employee_view` `ee` ON `p`.`doc_created_by` = `ee`.`nik`
LEFT JOIN `budget` `b` ON `p`.`budget_code` = `b`.`id`
LEFT JOIN `pr_ms_vendor` `v` ON `p`.`vendor_code` = `v`.`vendor_code` AND `p`.`company_code` = `v`.`company_code`
WHERE `p`.`transaction_type` = 'internal_payment_request'
AND  `p`.`jenis_permintaan` != `NOT` `LIKE` '%1%' ESCAPE '!' 
AND  `p`.`jenis_permintaan` != `NOT` `LIKE` '%2%' ESCAPE '!' 
 LIMIT 10
ERROR - 2020-06-16 15:17:16 --> Query error: You have an error in your SQL syntax; check the manual that corresponds to your MariaDB server version for the right syntax to use near '`LIKE` '%2%' ESCAPE '!' 
 LIMIT 10' at line 22 - Invalid query: SELECT `p`.`id`, `p`.`company_code`, `p`.`pyr_code`, `e`.`nik` `nik_pemohon`, `e`.`name` `nama_pemohon`, `p`.`doc_created_date`, `ee`.`nik` `nik_user`, `ee`.`name` `nama_user`, (
                CASE p.kategori_payment     
                    WHEN 1 THEN 'IT'
                    WHEN 2 THEN 'GA'
                    WHEN 3 THEN 'OTHERS'
                    ELSE ''
                END
            ) kategori_payment, (
                CASE p.jenis_permintaan     
                    WHEN 1 THEN 'CAPEX'
                    WHEN 2 THEN 'OPEX'
                    ELSE ''
                END
            ) jenis_permintaan, `b`.`description`, `p`.`term_sequence`, `p`.`doc_complete_date`, `v`.`Vendor_name`
FROM `pr_payment_header` `p`
LEFT JOIN `employee_view` `e` ON `p`.`pemohon` = `e`.`nik`
LEFT JOIN `employee_view` `ee` ON `p`.`doc_created_by` = `ee`.`nik`
LEFT JOIN `budget` `b` ON `p`.`budget_code` = `b`.`id`
LEFT JOIN `pr_ms_vendor` `v` ON `p`.`vendor_code` = `v`.`vendor_code` AND `p`.`company_code` = `v`.`company_code`
WHERE `p`.`transaction_type` = 'internal_payment_request'
OR  p.jenis_permintaan  LIKE '%1%' ESCAPE '!' 
OR  `p`.`jenis_permintaan` != `NOT` `LIKE` '%2%' ESCAPE '!' 
 LIMIT 10
ERROR - 2020-06-16 15:17:18 --> Query error: You have an error in your SQL syntax; check the manual that corresponds to your MariaDB server version for the right syntax to use near '`LIKE` '%1%' ESCAPE '!' 
OR  `p`.`jenis_permintaan` != `NOT` `LIKE` '%2%' ESCAPE' at line 21 - Invalid query: SELECT `p`.`id`, `p`.`company_code`, `p`.`pyr_code`, `e`.`nik` `nik_pemohon`, `e`.`name` `nama_pemohon`, `p`.`doc_created_date`, `ee`.`nik` `nik_user`, `ee`.`name` `nama_user`, (
                CASE p.kategori_payment     
                    WHEN 1 THEN 'IT'
                    WHEN 2 THEN 'GA'
                    WHEN 3 THEN 'OTHERS'
                    ELSE ''
                END
            ) kategori_payment, (
                CASE p.jenis_permintaan     
                    WHEN 1 THEN 'CAPEX'
                    WHEN 2 THEN 'OPEX'
                    ELSE ''
                END
            ) jenis_permintaan, `b`.`description`, `p`.`term_sequence`, `p`.`doc_complete_date`, `v`.`Vendor_name`
FROM `pr_payment_header` `p`
LEFT JOIN `employee_view` `e` ON `p`.`pemohon` = `e`.`nik`
LEFT JOIN `employee_view` `ee` ON `p`.`doc_created_by` = `ee`.`nik`
LEFT JOIN `budget` `b` ON `p`.`budget_code` = `b`.`id`
LEFT JOIN `pr_ms_vendor` `v` ON `p`.`vendor_code` = `v`.`vendor_code` AND `p`.`company_code` = `v`.`company_code`
WHERE `p`.`transaction_type` = 'internal_payment_request'
OR  `p`.`jenis_permintaan` != `NOT` `LIKE` '%1%' ESCAPE '!' 
OR  `p`.`jenis_permintaan` != `NOT` `LIKE` '%2%' ESCAPE '!' 
 LIMIT 10
ERROR - 2020-06-16 15:24:44 --> Severity: Notice --> Undefined offset: 2 D:\htdocs\payment_request\application\models\Internal_Payment_Request_Model.php 546
ERROR - 2020-06-16 15:24:44 --> Severity: Notice --> Undefined offset: 2 D:\htdocs\payment_request\application\models\Internal_Payment_Request_Model.php 546
ERROR - 2020-06-16 15:24:50 --> Severity: Notice --> Undefined offset: 3 D:\htdocs\payment_request\application\models\Internal_Payment_Request_Model.php 546
ERROR - 2020-06-16 15:24:50 --> Severity: Notice --> Undefined offset: 3 D:\htdocs\payment_request\application\models\Internal_Payment_Request_Model.php 546
ERROR - 2020-06-16 15:29:58 --> Severity: Notice --> Undefined index: filter_is_priority D:\htdocs\payment_request\application\models\Internal_Payment_Request_Model.php 521
ERROR - 2020-06-16 15:29:58 --> Severity: Notice --> Undefined index: filter_is_priority D:\htdocs\payment_request\application\models\Internal_Payment_Request_Model.php 521
ERROR - 2020-06-16 15:49:07 --> Severity: error --> Exception: syntax error, unexpected 'if' (T_IF) D:\htdocs\payment_request\application\models\Internal_Payment_Request_Model.php 497
ERROR - 2020-06-16 15:49:10 --> Severity: error --> Exception: syntax error, unexpected 'if' (T_IF) D:\htdocs\payment_request\application\models\Internal_Payment_Request_Model.php 497
ERROR - 2020-06-16 15:49:13 --> Severity: error --> Exception: syntax error, unexpected 'if' (T_IF) D:\htdocs\payment_request\application\models\Internal_Payment_Request_Model.php 497
ERROR - 2020-06-16 15:49:15 --> Severity: error --> Exception: syntax error, unexpected 'if' (T_IF) D:\htdocs\payment_request\application\models\Internal_Payment_Request_Model.php 497
ERROR - 2020-06-16 15:49:17 --> Severity: error --> Exception: syntax error, unexpected 'if' (T_IF) D:\htdocs\payment_request\application\models\Internal_Payment_Request_Model.php 497
ERROR - 2020-06-16 16:01:40 --> Severity: Notice --> Trying to get property 'spk_attachment' of non-object D:\htdocs\payment_request\application\views\non_purchase_order\non_purchase_order_edit.php 93
ERROR - 2020-06-16 16:01:40 --> Severity: Notice --> Trying to get property 'spk_attachment' of non-object D:\htdocs\payment_request\application\views\non_purchase_order\non_purchase_order_edit.php 96
ERROR - 2020-06-16 16:09:07 --> Severity: Notice --> Undefined variable: response D:\htdocs\payment_request\application\controllers\Internal_Payment_Request.php 788
ERROR - 2020-06-16 16:09:07 --> Severity: Notice --> Undefined variable: data_company D:\htdocs\payment_request\application\views\internal_payment_request\ipr_edit.php 57
ERROR - 2020-06-16 16:09:07 --> Severity: Warning --> Invalid argument supplied for foreach() D:\htdocs\payment_request\application\views\internal_payment_request\ipr_edit.php 57
ERROR - 2020-06-16 16:09:07 --> Severity: Notice --> Undefined variable: jatuh_tempo D:\htdocs\payment_request\application\views\internal_payment_request\ipr_edit.php 154
ERROR - 2020-06-16 16:09:07 --> Severity: Notice --> Undefined variable: jatuh_tempo D:\htdocs\payment_request\application\views\internal_payment_request\ipr_edit.php 174
ERROR - 2020-06-16 16:09:07 --> Severity: Notice --> Undefined variable: data_currency D:\htdocs\payment_request\application\views\internal_payment_request\ipr_edit.php 320
ERROR - 2020-06-16 16:09:07 --> Severity: Warning --> Invalid argument supplied for foreach() D:\htdocs\payment_request\application\views\internal_payment_request\ipr_edit.php 320
ERROR - 2020-06-16 16:09:24 --> Severity: Notice --> Undefined variable: data_company D:\htdocs\payment_request\application\views\internal_payment_request\ipr_edit.php 57
ERROR - 2020-06-16 16:09:24 --> Severity: Warning --> Invalid argument supplied for foreach() D:\htdocs\payment_request\application\views\internal_payment_request\ipr_edit.php 57
ERROR - 2020-06-16 16:09:24 --> Severity: Notice --> Undefined variable: jatuh_tempo D:\htdocs\payment_request\application\views\internal_payment_request\ipr_edit.php 154
ERROR - 2020-06-16 16:09:24 --> Severity: Notice --> Undefined variable: jatuh_tempo D:\htdocs\payment_request\application\views\internal_payment_request\ipr_edit.php 174
ERROR - 2020-06-16 16:09:24 --> Severity: Notice --> Undefined variable: data_currency D:\htdocs\payment_request\application\views\internal_payment_request\ipr_edit.php 320
ERROR - 2020-06-16 16:09:24 --> Severity: Warning --> Invalid argument supplied for foreach() D:\htdocs\payment_request\application\views\internal_payment_request\ipr_edit.php 320
