ERROR - 2019-12-18 14:11:40 --> Severity: error --> Exception: Call to undefined function authKey() D:\htdocs\payment-request\application\controllers\Home.php 10
ERROR - 2019-12-18 14:11:53 --> Severity: error --> Exception: Call to undefined function authKey() D:\htdocs\payment-request\application\controllers\Home.php 10
ERROR - 2019-12-18 14:11:54 --> Severity: error --> Exception: Call to undefined function authKey() D:\htdocs\payment-request\application\controllers\Home.php 10
ERROR - 2019-12-18 14:11:54 --> Severity: error --> Exception: Call to undefined function authKey() D:\htdocs\payment-request\application\controllers\Home.php 10
ERROR - 2019-12-18 14:11:54 --> Severity: error --> Exception: Call to undefined function authKey() D:\htdocs\payment-request\application\controllers\Home.php 10
ERROR - 2019-12-18 14:11:54 --> Severity: error --> Exception: Call to undefined function authKey() D:\htdocs\payment-request\application\controllers\Home.php 10
ERROR - 2019-12-18 14:11:55 --> Severity: error --> Exception: Call to undefined function authKey() D:\htdocs\payment-request\application\controllers\Home.php 10
ERROR - 2019-12-18 14:12:14 --> Severity: error --> Exception: Call to undefined function authKey() D:\htdocs\payment-request\application\controllers\Home.php 10
ERROR - 2019-12-18 14:12:14 --> Severity: error --> Exception: Call to undefined function authKey() D:\htdocs\payment-request\application\controllers\Home.php 10
ERROR - 2019-12-18 14:12:15 --> Severity: error --> Exception: Call to undefined function authKey() D:\htdocs\payment-request\application\controllers\Home.php 10
ERROR - 2019-12-18 14:12:15 --> Severity: error --> Exception: Call to undefined function authKey() D:\htdocs\payment-request\application\controllers\Home.php 10
ERROR - 2019-12-18 14:12:15 --> Severity: error --> Exception: Call to undefined function authKey() D:\htdocs\payment-request\application\controllers\Home.php 10
ERROR - 2019-12-18 14:12:15 --> Severity: error --> Exception: Call to undefined function authKey() D:\htdocs\payment-request\application\controllers\Home.php 10
ERROR - 2019-12-18 14:12:16 --> Severity: error --> Exception: Call to undefined function authKey() D:\htdocs\payment-request\application\controllers\Home.php 10
ERROR - 2019-12-18 14:12:16 --> Severity: error --> Exception: Call to undefined function authKey() D:\htdocs\payment-request\application\controllers\Home.php 10
ERROR - 2019-12-18 14:12:16 --> Severity: error --> Exception: Call to undefined function authKey() D:\htdocs\payment-request\application\controllers\Home.php 10
ERROR - 2019-12-18 14:12:16 --> Severity: error --> Exception: Call to undefined function authKey() D:\htdocs\payment-request\application\controllers\Home.php 10
ERROR - 2019-12-18 14:12:16 --> Severity: error --> Exception: Call to undefined function authKey() D:\htdocs\payment-request\application\controllers\Home.php 10
ERROR - 2019-12-18 14:12:25 --> Severity: error --> Exception: Call to undefined function authKey() D:\htdocs\payment-request\application\controllers\Home.php 10
ERROR - 2019-12-18 14:12:26 --> Severity: error --> Exception: Call to undefined function authKey() D:\htdocs\payment-request\application\controllers\Home.php 10
ERROR - 2019-12-18 14:12:26 --> Severity: error --> Exception: Call to undefined function authKey() D:\htdocs\payment-request\application\controllers\Home.php 10
ERROR - 2019-12-18 14:12:26 --> Severity: error --> Exception: Call to undefined function authKey() D:\htdocs\payment-request\application\controllers\Home.php 10
ERROR - 2019-12-18 14:12:26 --> Severity: error --> Exception: Call to undefined function authKey() D:\htdocs\payment-request\application\controllers\Home.php 10
ERROR - 2019-12-18 14:12:26 --> Severity: error --> Exception: Call to undefined function authKey() D:\htdocs\payment-request\application\controllers\Home.php 10
ERROR - 2019-12-18 14:13:27 --> Severity: error --> Exception: Too few arguments to function CI_Loader::model(), 0 passed in D:\htdocs\payment-request\application\controllers\Home.php on line 12 and at least 1 expected D:\htdocs\payment-request\system\core\Loader.php 234
ERROR - 2019-12-18 08:15:01 --> 404 Page Not Found: Login_view/index
ERROR - 2019-12-18 14:19:52 --> Severity: Notice --> Undefined index: Related_information_email D:\htdocs\payment-request\application\views\reset_password_view.php 60
ERROR - 2019-12-18 08:28:44 --> 404 Page Not Found: Login/a
ERROR - 2019-12-18 08:35:49 --> 404 Page Not Found: Login/forgot_password
ERROR - 2019-12-18 14:38:43 --> Severity: Notice --> Undefined index: Related_information_email D:\htdocs\payment-request\application\views\forgot_password.php 60
ERROR - 2019-12-18 14:39:13 --> Severity: Notice --> Undefined index: Related_information_email D:\htdocs\payment-request\application\views\forgot_password.php 60
ERROR - 2019-12-18 14:39:15 --> Severity: Notice --> Undefined index: Related_information_email D:\htdocs\payment-request\application\views\forgot_password.php 60
