ERROR - 2020-03-25 00:04:22 --> Severity: Notice --> Undefined variable: path D:\htdocs\payment_request\application\controllers\Spk_Trans.php 316
ERROR - 2020-03-25 00:04:22 --> Severity: Notice --> Undefined variable: pyr_code D:\htdocs\payment_request\application\controllers\Spk_Trans.php 320
ERROR - 2020-03-25 00:04:22 --> Severity: Notice --> Undefined variable: filename D:\htdocs\payment_request\application\controllers\Spk_Trans.php 320
ERROR - 2020-03-25 00:04:22 --> Severity: Notice --> Undefined variable: filename D:\htdocs\payment_request\application\controllers\Spk_Trans.php 323
ERROR - 2020-03-25 00:06:12 --> Severity: Notice --> Undefined variable: pyr_code D:\htdocs\payment_request\application\controllers\Spk_Trans.php 320
ERROR - 2020-03-25 00:06:12 --> Severity: Notice --> Undefined variable: filename D:\htdocs\payment_request\application\controllers\Spk_Trans.php 320
ERROR - 2020-03-25 00:06:12 --> Severity: Notice --> Undefined variable: filename D:\htdocs\payment_request\application\controllers\Spk_Trans.php 323
ERROR - 2020-03-25 00:07:12 --> Severity: Notice --> Undefined variable: pyr_code D:\htdocs\payment_request\application\controllers\Spk_Trans.php 320
ERROR - 2020-03-25 00:07:12 --> Severity: Notice --> Undefined variable: filename D:\htdocs\payment_request\application\controllers\Spk_Trans.php 320
ERROR - 2020-03-25 00:07:12 --> Severity: Notice --> Undefined variable: filename D:\htdocs\payment_request\application\controllers\Spk_Trans.php 323
ERROR - 2020-03-25 00:07:58 --> Severity: Notice --> Undefined variable: filename D:\htdocs\payment_request\application\controllers\Spk_Trans.php 321
ERROR - 2020-03-25 00:07:58 --> Severity: Notice --> Undefined variable: filename D:\htdocs\payment_request\application\controllers\Spk_Trans.php 324
ERROR - 2020-03-25 00:09:50 --> Severity: Notice --> Undefined variable: filename D:\htdocs\payment_request\application\controllers\Spk_Trans.php 326
ERROR - 2020-03-25 00:12:29 --> Severity: Notice --> Undefined variable: filename D:\htdocs\payment_request\application\controllers\Spk_Trans.php 326
ERROR - 2020-03-25 00:49:01 --> Severity: Notice --> Trying to get property 'result_id' of non-object D:\htdocs\payment_request\application\controllers\Spk_Trans.php 332
ERROR - 2020-03-25 00:49:01 --> Severity: Notice --> Trying to get property 'num_rows' of non-object D:\htdocs\payment_request\application\controllers\Spk_Trans.php 332
ERROR - 2020-03-25 01:26:51 --> Severity: Notice --> Undefined variable: condition_form D:\htdocs\payment_request\application\controllers\Spk_Trans.php 339
ERROR - 2020-03-25 01:26:51 --> Severity: Notice --> Undefined variable: data D:\htdocs\payment_request\application\models\Spk_Model.php 199
ERROR - 2020-03-25 01:27:38 --> Severity: Notice --> Undefined variable: data D:\htdocs\payment_request\application\models\Spk_Model.php 199
ERROR - 2020-03-25 02:47:04 --> Severity: error --> Exception: Cannot use object of type stdClass as array D:\htdocs\payment_request\application\views\non_purchase_order\non_purchase_order_edit.php 310
