ERROR - 2020-03-27 04:49:37 --> 404 Page Not Found: Assets/vendors
ERROR - 2020-03-27 04:49:37 --> 404 Page Not Found: Assets/vendors
ERROR - 2020-03-27 04:49:37 --> 404 Page Not Found: Assets/vendors
ERROR - 2020-03-27 04:49:37 --> 404 Page Not Found: Assets/vendors
ERROR - 2020-03-27 04:49:38 --> 404 Page Not Found: Assets/vendors
ERROR - 2020-03-27 04:49:38 --> 404 Page Not Found: Assets/vendors
ERROR - 2020-03-27 04:49:39 --> 404 Page Not Found: Assets/vendors
ERROR - 2020-03-27 04:49:39 --> 404 Page Not Found: Assets/vendors
ERROR - 2020-03-27 04:49:39 --> 404 Page Not Found: Assets/vendors
ERROR - 2020-03-27 12:43:21 --> Severity: error --> Exception: Call to undefined method Spk_Trans::getSubmitValidation() D:\htdocs\payment_request\application\controllers\Spk_Trans.php 640
ERROR - 2020-03-27 12:51:51 --> Severity: error --> Exception: syntax error, unexpected '->' (T_OBJECT_OPERATOR) D:\htdocs\payment_request\application\models\Spk_Model.php 302
ERROR - 2020-03-27 12:52:02 --> Severity: error --> Exception: Call to undefined method Spk_Trans::getSubmitValidation() D:\htdocs\payment_request\application\controllers\Spk_Trans.php 640
ERROR - 2020-03-27 12:57:54 --> Severity: error --> Exception: syntax error, unexpected ',', expecting ';' D:\htdocs\payment_request\application\models\Spk_Model.php 301
ERROR - 2020-03-27 15:38:53 --> Severity: Notice --> Undefined variable: message D:\htdocs\payment_request\application\controllers\Spk_Trans.php 546
ERROR - 2020-03-27 16:36:42 --> Severity: Notice --> Undefined variable: message D:\htdocs\payment_request\application\controllers\Spk_Trans.php 548
ERROR - 2020-03-27 16:40:03 --> Severity: Notice --> Undefined variable: message D:\htdocs\payment_request\application\controllers\Spk_Trans.php 548
ERROR - 2020-03-27 11:54:16 --> Severity: error --> Exception: syntax error, unexpected '}', expecting variable (T_VARIABLE) or '{' or '$' D:\htdocs\payment_request\application\controllers\Spk_Trans.php 546
