ERROR - 2020-06-15 09:44:00 --> Severity: error --> Exception: syntax error, unexpected '=>' (T_DOUBLE_ARROW), expecting ')' D:\htdocs\payment_request\application\models\Budget_Model.php 40
ERROR - 2020-06-15 09:52:00 --> Severity: error --> Exception: Call to undefined method Budget_Model::getSingleBudget() D:\htdocs\payment_request\application\controllers\Internal_Payment_Request.php 414
ERROR - 2020-06-15 09:56:55 --> Severity: Notice --> Undefined property: stdClass::$budget_code D:\htdocs\payment_request\application\views\internal_payment_request\ipr_add_payment.php 228
ERROR - 2020-06-15 10:44:57 --> Severity: error --> Exception: Call to undefined method Budget_Model::getSingleVendor() D:\htdocs\payment_request\application\controllers\Internal_Payment_Request.php 415
ERROR - 2020-06-15 10:57:43 --> Severity: Notice --> Undefined index: gl_code D:\htdocs\payment_request\application\controllers\Internal_Payment_Request.php 448
ERROR - 2020-06-15 13:29:38 --> Severity: Compile Error --> Cannot redeclare GL_Account_Model::getGLbyParam() D:\htdocs\payment_request\application\models\GL_Account_Model.php 25
ERROR - 2020-06-15 13:29:39 --> Severity: Compile Error --> Cannot redeclare GL_Account_Model::getGLbyParam() D:\htdocs\payment_request\application\models\GL_Account_Model.php 25
ERROR - 2020-06-15 13:29:40 --> Severity: Compile Error --> Cannot redeclare GL_Account_Model::getGLbyParam() D:\htdocs\payment_request\application\models\GL_Account_Model.php 25
ERROR - 2020-06-15 13:29:42 --> Severity: Compile Error --> Cannot redeclare GL_Account_Model::getGLbyParam() D:\htdocs\payment_request\application\models\GL_Account_Model.php 25
ERROR - 2020-06-15 13:30:38 --> Severity: error --> Exception: Call to undefined method Vendor_Model::getSingleGL() D:\htdocs\payment_request\application\controllers\Internal_Payment_Request.php 449
ERROR - 2020-06-15 13:37:08 --> Severity: Notice --> Undefined index: gl_code D:\htdocs\payment_request\application\controllers\Internal_Payment_Request.php 449
ERROR - 2020-06-15 13:38:36 --> Severity: Notice --> Undefined index: gl_code D:\htdocs\payment_request\application\controllers\Internal_Payment_Request.php 449
ERROR - 2020-06-15 13:39:15 --> Severity: Notice --> Undefined index: gl_code D:\htdocs\payment_request\application\controllers\Internal_Payment_Request.php 450
ERROR - 2020-06-15 13:39:49 --> Severity: Notice --> Undefined index: gl_code D:\htdocs\payment_request\application\controllers\Internal_Payment_Request.php 450
ERROR - 2020-06-15 13:40:26 --> Severity: Notice --> Undefined index: gl_code D:\htdocs\payment_request\application\controllers\Internal_Payment_Request.php 450
ERROR - 2020-06-15 13:40:35 --> Severity: Notice --> Undefined index: gl_code D:\htdocs\payment_request\application\controllers\Internal_Payment_Request.php 450
ERROR - 2020-06-15 13:44:05 --> Severity: Notice --> Undefined index: gl_code D:\htdocs\payment_request\application\controllers\Internal_Payment_Request.php 450
ERROR - 2020-06-15 14:09:51 --> Severity: Notice --> Undefined index: budget_code D:\htdocs\payment_request\application\controllers\Internal_Payment_Request.php 448
ERROR - 2020-06-15 14:09:51 --> Severity: Notice --> Undefined index: vendor_code D:\htdocs\payment_request\application\controllers\Internal_Payment_Request.php 449
ERROR - 2020-06-15 14:39:16 --> Severity: error --> Exception: Too few arguments to function CI_DB_query_builder::where(), 0 passed in D:\htdocs\payment_request\application\models\Internal_Payment_Request_Model.php on line 337 and at least 1 expected D:\htdocs\payment_request\system\database\DB_query_builder.php 621
ERROR - 2020-06-15 14:39:36 --> Severity: error --> Exception: Too few arguments to function CI_DB_query_builder::where(), 0 passed in D:\htdocs\payment_request\application\models\Internal_Payment_Request_Model.php on line 337 and at least 1 expected D:\htdocs\payment_request\system\database\DB_query_builder.php 621
ERROR - 2020-06-15 14:41:31 --> Severity: Notice --> Undefined variable: invoice_number D:\htdocs\payment_request\application\models\Internal_Payment_Request_Model.php 337
ERROR - 2020-06-15 14:41:53 --> Severity: Notice --> Undefined variable: invoice_number D:\htdocs\payment_request\application\models\Internal_Payment_Request_Model.php 337
ERROR - 2020-06-15 14:44:10 --> Severity: 4096 --> Object of class CI_DB_mysqli_result could not be converted to string D:\htdocs\payment_request\application\controllers\Internal_Payment_Request.php 512
ERROR - 2020-06-15 14:44:38 --> Severity: Notice --> Array to string conversion D:\htdocs\payment_request\application\controllers\Internal_Payment_Request.php 512
ERROR - 2020-06-15 14:45:02 --> Severity: Notice --> Array to string conversion D:\htdocs\payment_request\application\controllers\Internal_Payment_Request.php 513
ERROR - 2020-06-15 14:48:13 --> Severity: error --> Exception: Call to a member function result() on int D:\htdocs\payment_request\application\controllers\Internal_Payment_Request.php 512
ERROR - 2020-06-15 10:08:43 --> Severity: error --> Exception: syntax error, unexpected 'else' (T_ELSE), expecting function (T_FUNCTION) or const (T_CONST) D:\htdocs\payment_request\application\controllers\Internal_Payment_Request.php 656
ERROR - 2020-06-15 10:09:18 --> Severity: error --> Exception: syntax error, unexpected 'else' (T_ELSE), expecting function (T_FUNCTION) or const (T_CONST) D:\htdocs\payment_request\application\controllers\Internal_Payment_Request.php 656
ERROR - 2020-06-15 15:11:27 --> Severity: Notice --> Undefined variable: _FILE D:\htdocs\payment_request\application\controllers\Internal_Payment_Request.php 509
ERROR - 2020-06-15 15:14:50 --> Severity: error --> Exception: Call to undefined function uploadDocument() D:\htdocs\payment_request\application\controllers\Internal_Payment_Request.php 516
ERROR - 2020-06-15 15:15:12 --> Severity: Notice --> Undefined variable: condition_existing D:\htdocs\payment_request\application\controllers\Internal_Payment_Request.php 558
ERROR - 2020-06-15 15:15:12 --> Severity: Notice --> Undefined variable: document_column D:\htdocs\payment_request\application\controllers\Internal_Payment_Request.php 558
ERROR - 2020-06-15 17:26:54 --> 404 Page Not Found: Assets/vendors
ERROR - 2020-06-15 17:26:54 --> 404 Page Not Found: Assets/vendors
ERROR - 2020-06-15 17:26:55 --> 404 Page Not Found: Assets/vendors
ERROR - 2020-06-15 17:26:55 --> 404 Page Not Found: Assets/vendors
ERROR - 2020-06-15 17:26:55 --> 404 Page Not Found: Assets/vendors
ERROR - 2020-06-15 17:26:55 --> 404 Page Not Found: Assets/vendors
ERROR - 2020-06-15 17:26:55 --> 404 Page Not Found: Assets/vendors
ERROR - 2020-06-15 17:26:55 --> 404 Page Not Found: Assets/vendors
ERROR - 2020-06-15 17:26:59 --> 404 Page Not Found: Assets/vendors
ERROR - 2020-06-15 17:26:59 --> 404 Page Not Found: Assets/vendors
ERROR - 2020-06-15 17:26:59 --> 404 Page Not Found: Assets/vendors
ERROR - 2020-06-15 17:26:59 --> 404 Page Not Found: Assets/vendors
ERROR - 2020-06-15 17:26:59 --> 404 Page Not Found: Assets/vendors
ERROR - 2020-06-15 17:26:59 --> 404 Page Not Found: Assets/vendors
ERROR - 2020-06-15 17:26:59 --> 404 Page Not Found: Assets/vendors
