ERROR - 2020-03-09 03:52:49 --> 404 Page Not Found: Assets/vendors
ERROR - 2020-03-09 03:52:49 --> 404 Page Not Found: Assets/vendors
ERROR - 2020-03-09 03:52:49 --> 404 Page Not Found: Assets/vendors
ERROR - 2020-03-09 03:52:49 --> 404 Page Not Found: Assets/vendors
ERROR - 2020-03-09 03:52:49 --> 404 Page Not Found: Assets/vendors
ERROR - 2020-03-09 03:52:49 --> 404 Page Not Found: Assets/vendors
ERROR - 2020-03-09 03:52:49 --> 404 Page Not Found: Assets/vendors
ERROR - 2020-03-09 03:52:49 --> 404 Page Not Found: Assets/vendors
ERROR - 2020-03-09 03:52:53 --> 404 Page Not Found: Assets/vendors
ERROR - 2020-03-09 03:52:53 --> 404 Page Not Found: Assets/vendors
ERROR - 2020-03-09 03:52:53 --> 404 Page Not Found: Assets/vendors
ERROR - 2020-03-09 03:52:53 --> 404 Page Not Found: Assets/vendors
ERROR - 2020-03-09 03:52:53 --> 404 Page Not Found: Assets/vendors
ERROR - 2020-03-09 03:52:53 --> 404 Page Not Found: Assets/vendors
