ERROR - 2020-04-27 04:01:15 --> 404 Page Not Found: Assets/vendors
ERROR - 2020-04-27 04:01:15 --> 404 Page Not Found: Assets/vendors
ERROR - 2020-04-27 04:01:15 --> 404 Page Not Found: Assets/vendors
ERROR - 2020-04-27 04:01:15 --> 404 Page Not Found: Assets/vendors
ERROR - 2020-04-27 04:01:15 --> 404 Page Not Found: Assets/vendors
ERROR - 2020-04-27 04:01:15 --> 404 Page Not Found: Assets/vendors
ERROR - 2020-04-27 04:01:16 --> 404 Page Not Found: Assets/vendors
ERROR - 2020-04-27 04:01:16 --> 404 Page Not Found: Assets/vendors
ERROR - 2020-04-27 04:05:37 --> 404 Page Not Found: Assets/vendors
ERROR - 2020-04-27 04:05:37 --> 404 Page Not Found: Assets/vendors
ERROR - 2020-04-27 04:05:37 --> 404 Page Not Found: Assets/vendors
ERROR - 2020-04-27 04:05:37 --> 404 Page Not Found: Assets/vendors
ERROR - 2020-04-27 04:05:37 --> 404 Page Not Found: Assets/vendors
ERROR - 2020-04-27 04:05:37 --> 404 Page Not Found: Assets/vendors
ERROR - 2020-04-27 04:05:37 --> 404 Page Not Found: Assets/vendors
ERROR - 2020-04-27 09:14:44 --> Severity: Warning --> unlink(assets/document_payment/200427/): Is a directory D:\htdocs\payment_request\application\controllers\Spk_Trans.php 615
ERROR - 2020-04-27 08:36:22 --> 404 Page Not Found: Assets/vendors
ERROR - 2020-04-27 08:36:22 --> 404 Page Not Found: Assets/vendors
ERROR - 2020-04-27 08:36:22 --> 404 Page Not Found: Assets/vendors
ERROR - 2020-04-27 08:36:22 --> 404 Page Not Found: Assets/vendors
ERROR - 2020-04-27 08:36:22 --> 404 Page Not Found: Assets/vendors
ERROR - 2020-04-27 08:36:22 --> 404 Page Not Found: Assets/vendors
ERROR - 2020-04-27 08:36:22 --> 404 Page Not Found: Assets/vendors
ERROR - 2020-04-27 08:36:23 --> 404 Page Not Found: Assets/vendors
ERROR - 2020-04-27 08:41:12 --> 404 Page Not Found: Assets/js
ERROR - 2020-04-27 08:41:18 --> 404 Page Not Found: Css_app/list_non_purchase_order_user.css
ERROR - 2020-04-27 08:41:18 --> 404 Page Not Found: Assets/js
ERROR - 2020-04-27 08:41:19 --> 404 Page Not Found: Css_app/list_non_purchase_order_user.css
ERROR - 2020-04-27 13:45:30 --> Severity: Notice --> Undefined variable: creator D:\htdocs\payment_request\application\models\Payment_Approval_Model.php 65
ERROR - 2020-04-27 08:46:04 --> 404 Page Not Found: Assets/js
ERROR - 2020-04-27 08:46:06 --> 404 Page Not Found: Css_app/list_non_purchase_order_user.css
ERROR - 2020-04-27 08:46:07 --> 404 Page Not Found: Assets/js
ERROR - 2020-04-27 08:46:07 --> 404 Page Not Found: Css_app/list_non_purchase_order_user.css
ERROR - 2020-04-27 13:46:18 --> Severity: Notice --> Undefined variable: creator D:\htdocs\payment_request\application\models\Payment_Approval_Model.php 65
ERROR - 2020-04-27 08:46:40 --> 404 Page Not Found: Assets/js
ERROR - 2020-04-27 08:46:57 --> 404 Page Not Found: Assets/js
ERROR - 2020-04-27 08:46:58 --> 404 Page Not Found: Css_app/list_non_purchase_order_user.css
ERROR - 2020-04-27 08:46:59 --> 404 Page Not Found: Assets/js
ERROR - 2020-04-27 08:46:59 --> 404 Page Not Found: Css_app/list_non_purchase_order_user.css
ERROR - 2020-04-27 13:49:29 --> Severity: Notice --> Undefined variable: creator D:\htdocs\payment_request\application\models\Payment_Approval_Model.php 65
ERROR - 2020-04-27 08:50:50 --> 404 Page Not Found: Css_app/list_non_purchase_order_user.css
ERROR - 2020-04-27 08:50:50 --> 404 Page Not Found: Css_app/list_non_purchase_order_user.css
ERROR - 2020-04-27 08:51:31 --> 404 Page Not Found: Css_app/list_non_purchase_order_user.css
ERROR - 2020-04-27 08:51:31 --> 404 Page Not Found: Css_app/list_non_purchase_order_user.css
ERROR - 2020-04-27 08:52:40 --> 404 Page Not Found: Css_app/list_non_purchase_order_user.css
ERROR - 2020-04-27 08:52:40 --> 404 Page Not Found: Css_app/list_non_purchase_order_user.css
ERROR - 2020-04-27 13:53:00 --> Severity: Notice --> Undefined variable: creator D:\htdocs\payment_request\application\models\Payment_Approval_Model.php 65
ERROR - 2020-04-27 08:54:08 --> 404 Page Not Found: Css_app/list_non_purchase_order_user.css
ERROR - 2020-04-27 08:54:08 --> 404 Page Not Found: Css_app/list_non_purchase_order_user.css
ERROR - 2020-04-27 08:56:21 --> 404 Page Not Found: Assets/vendors
ERROR - 2020-04-27 08:56:21 --> 404 Page Not Found: Assets/vendors
ERROR - 2020-04-27 08:56:21 --> 404 Page Not Found: Assets/vendors
ERROR - 2020-04-27 08:56:21 --> 404 Page Not Found: Assets/vendors
ERROR - 2020-04-27 08:56:21 --> 404 Page Not Found: Assets/vendors
ERROR - 2020-04-27 08:56:21 --> 404 Page Not Found: Assets/vendors
ERROR - 2020-04-27 08:56:21 --> 404 Page Not Found: Assets/vendors
ERROR - 2020-04-27 08:56:21 --> 404 Page Not Found: Assets/vendors
ERROR - 2020-04-27 08:58:30 --> 404 Page Not Found: Css_app/list_non_purchase_order_user.css
ERROR - 2020-04-27 08:58:30 --> 404 Page Not Found: Css_app/list_non_purchase_order_user.css
ERROR - 2020-04-27 09:05:06 --> 404 Page Not Found: Css_app/list_non_purchase_order_user.css
ERROR - 2020-04-27 09:05:06 --> 404 Page Not Found: Css_app/list_non_purchase_order_user.css
ERROR - 2020-04-27 09:05:10 --> 404 Page Not Found: Css_app/list_non_purchase_order_user.css
ERROR - 2020-04-27 09:05:10 --> 404 Page Not Found: Css_app/list_non_purchase_order_user.css
ERROR - 2020-04-27 09:26:04 --> 404 Page Not Found: Assets/vendors
ERROR - 2020-04-27 09:26:04 --> 404 Page Not Found: Assets/vendors
ERROR - 2020-04-27 09:26:04 --> 404 Page Not Found: Assets/vendors
ERROR - 2020-04-27 09:26:04 --> 404 Page Not Found: Assets/vendors
ERROR - 2020-04-27 09:26:04 --> 404 Page Not Found: Assets/vendors
ERROR - 2020-04-27 09:26:04 --> 404 Page Not Found: Assets/vendors
ERROR - 2020-04-27 09:26:04 --> 404 Page Not Found: Assets/vendors
ERROR - 2020-04-27 09:29:58 --> 404 Page Not Found: Assets/vendors
ERROR - 2020-04-27 09:29:58 --> 404 Page Not Found: Assets/vendors
ERROR - 2020-04-27 09:29:58 --> 404 Page Not Found: Assets/vendors
ERROR - 2020-04-27 09:29:58 --> 404 Page Not Found: Assets/vendors
ERROR - 2020-04-27 09:29:58 --> 404 Page Not Found: Assets/vendors
ERROR - 2020-04-27 09:29:58 --> 404 Page Not Found: Assets/vendors
ERROR - 2020-04-27 09:29:58 --> 404 Page Not Found: Assets/vendors
ERROR - 2020-04-27 09:33:26 --> 404 Page Not Found: Assets/vendors
ERROR - 2020-04-27 09:33:26 --> 404 Page Not Found: Assets/vendors
ERROR - 2020-04-27 09:33:26 --> 404 Page Not Found: Assets/vendors
ERROR - 2020-04-27 09:33:26 --> 404 Page Not Found: Assets/vendors
ERROR - 2020-04-27 09:33:26 --> 404 Page Not Found: Assets/vendors
ERROR - 2020-04-27 09:33:26 --> 404 Page Not Found: Assets/vendors
ERROR - 2020-04-27 09:33:26 --> 404 Page Not Found: Assets/vendors
ERROR - 2020-04-27 14:38:40 --> Severity: Warning --> unlink(assets/document_payment/200427/): Is a directory D:\htdocs\payment_request\application\controllers\Spk_Trans.php 615
ERROR - 2020-04-27 14:40:26 --> Severity: Notice --> Undefined variable: creator D:\htdocs\payment_request\application\models\Payment_Approval_Model.php 65
ERROR - 2020-04-27 09:42:46 --> 404 Page Not Found: Css_app/list_non_purchase_order_user.css
ERROR - 2020-04-27 09:42:46 --> 404 Page Not Found: Css_app/list_non_purchase_order_user.css
ERROR - 2020-04-27 09:45:23 --> 404 Page Not Found: Css_app/list_non_purchase_order_user.css
ERROR - 2020-04-27 09:45:23 --> 404 Page Not Found: Css_app/list_non_purchase_order_user.css
ERROR - 2020-04-27 15:11:28 --> Severity: Notice --> Undefined property: Spk_Trans::$sql_srv D:\htdocs\payment_request\system\core\Model.php 73
ERROR - 2020-04-27 15:11:28 --> Severity: error --> Exception: Call to a member function query() on null D:\htdocs\payment_request\application\models\Spk_Model.php 433
ERROR - 2020-04-27 10:24:33 --> 404 Page Not Found: Assets/vendors
ERROR - 2020-04-27 10:24:33 --> 404 Page Not Found: Assets/vendors
ERROR - 2020-04-27 10:24:33 --> 404 Page Not Found: Assets/vendors
ERROR - 2020-04-27 10:24:33 --> 404 Page Not Found: Assets/vendors
ERROR - 2020-04-27 10:24:33 --> 404 Page Not Found: Assets/vendors
ERROR - 2020-04-27 10:24:33 --> 404 Page Not Found: Assets/vendors
ERROR - 2020-04-27 10:25:35 --> 404 Page Not Found: Css_app/list_non_purchase_order_user.css
ERROR - 2020-04-27 10:25:35 --> 404 Page Not Found: Css_app/list_non_purchase_order_user.css
ERROR - 2020-04-27 10:27:43 --> 404 Page Not Found: Css_app/list_non_purchase_order_user.css
ERROR - 2020-04-27 10:28:02 --> 404 Page Not Found: Assets/vendors
ERROR - 2020-04-27 10:28:02 --> 404 Page Not Found: Assets/vendors
ERROR - 2020-04-27 10:28:02 --> 404 Page Not Found: Assets/vendors
ERROR - 2020-04-27 10:28:02 --> 404 Page Not Found: Assets/vendors
ERROR - 2020-04-27 10:28:02 --> 404 Page Not Found: Assets/vendors
ERROR - 2020-04-27 10:28:02 --> 404 Page Not Found: Assets/vendors
ERROR - 2020-04-27 10:28:03 --> 404 Page Not Found: Assets/vendors
ERROR - 2020-04-27 10:28:03 --> 404 Page Not Found: Assets/vendors
ERROR - 2020-04-27 10:31:10 --> 404 Page Not Found: Css_app/list_non_purchase_order_user.css
ERROR - 2020-04-27 10:31:10 --> 404 Page Not Found: Css_app/list_non_purchase_order_user.css
