ERROR - 2019-12-01 17:01:02 --> Severity: Warning --> mysqli::real_connect(): (HY000/2002): A socket operation was attempted to an unreachable host.
 D:\htdocs\payment-request\system\database\drivers\mysqli\mysqli_driver.php 201
ERROR - 2019-12-01 17:01:02 --> Unable to connect to the database
ERROR - 2019-12-01 17:01:09 --> Severity: Warning --> mysqli::real_connect(): (HY000/2002): A socket operation was attempted to an unreachable host.
 D:\htdocs\payment-request\system\database\drivers\mysqli\mysqli_driver.php 201
ERROR - 2019-12-01 17:01:09 --> Unable to connect to the database
ERROR - 2019-12-01 19:46:18 --> Severity: Warning --> mysqli::real_connect(): (HY000/2002): A connection attempt failed because the connected party did not properly respond after a period of time, or established connection failed because connected host has failed to respond.
 D:\htdocs\payment-request\system\database\drivers\mysqli\mysqli_driver.php 201
ERROR - 2019-12-01 19:46:18 --> Unable to connect to the database
