ERROR - 2019-12-16 05:18:18 --> 404 Page Not Found: Faviconico/index
ERROR - 2019-12-16 11:53:23 --> Severity: Notice --> Undefined variable: user D:\htdocs\payment-request\application\controllers\Login.php 18
ERROR - 2019-12-16 11:56:00 --> Severity: Notice --> Undefined variable: user D:\htdocs\payment-request\application\controllers\Login.php 18
