ERROR - 2019-11-29 08:28:30 --> 404 Page Not Found: Faviconico/index
ERROR - 2019-11-29 08:35:07 --> Query error: [Microsoft][ODBC Driver 17 for SQL Server][SQL Server]Named Pipes Provider: Could not open a connection to SQL Server [5].  - Invalid query: 
        select 'SALES' as nama, sum(Amount) as total from [dbo].[vw_sales]
        where [Month] in (11) and  [Year] = 2019 and Region = 'Central'
        UNION
        SELECT 'TARGET' as nama,
        (
        SELECT sum(dbo.vw_targetsales.[Target Sales Amount])
        FROM
        dbo.Sales_Person_Region INNER JOIN
        dbo.vw_targetsales ON dbo.Sales_Person_Region.[Sales Person Code]
        COLLATE Latin1_General_100_CS_AS = dbo.vw_targetsales.[Sales Person Code]
        where dbo.vw_targetsales.Month_  in (11)  and  dbo.vw_targetsales.Year_ = 2019
        and Region_Code = 'Central'
        )
        
ERROR - 2019-11-29 08:35:28 --> Query error: [Microsoft][ODBC Driver 17 for SQL Server][SQL Server]Named Pipes Provider: Could not open a connection to SQL Server [5].  - Invalid query: spGetSalesByMonth_h N'11', N'2019'
ERROR - 2019-11-29 08:40:26 --> Severity: Warning --> include_once(Admin.php): failed to open stream: No such file or directory D:\htdocs\payment_request\application\controllers\Login.php 3
ERROR - 2019-11-29 08:40:26 --> Severity: Warning --> include_once(): Failed opening 'Admin.php' for inclusion (include_path='C:\xampp7\php\PEAR') D:\htdocs\payment_request\application\controllers\Login.php 3
ERROR - 2019-11-29 08:40:26 --> Severity: Error --> Class 'Admin' not found D:\htdocs\payment_request\application\controllers\Login.php 5
ERROR - 2019-11-29 08:40:32 --> Severity: Warning --> include_once(Admin.php): failed to open stream: No such file or directory D:\htdocs\payment_request\application\controllers\Login.php 3
ERROR - 2019-11-29 08:40:32 --> Severity: Warning --> include_once(): Failed opening 'Admin.php' for inclusion (include_path='C:\xampp7\php\PEAR') D:\htdocs\payment_request\application\controllers\Login.php 3
ERROR - 2019-11-29 08:40:32 --> Severity: Error --> Class 'Admin' not found D:\htdocs\payment_request\application\controllers\Login.php 5
ERROR - 2019-11-29 08:40:37 --> Severity: Warning --> include_once(Admin.php): failed to open stream: No such file or directory D:\htdocs\payment_request\application\controllers\Login.php 3
ERROR - 2019-11-29 08:40:37 --> Severity: Warning --> include_once(): Failed opening 'Admin.php' for inclusion (include_path='C:\xampp7\php\PEAR') D:\htdocs\payment_request\application\controllers\Login.php 3
ERROR - 2019-11-29 08:40:37 --> Severity: Error --> Class 'Admin' not found D:\htdocs\payment_request\application\controllers\Login.php 5
ERROR - 2019-11-29 08:43:34 --> Severity: Warning --> include_once(Admin.php): failed to open stream: No such file or directory D:\htdocs\payment_request\application\controllers\Login.php 3
ERROR - 2019-11-29 08:43:34 --> Severity: Warning --> include_once(): Failed opening 'Admin.php' for inclusion (include_path='C:\xampp7\php\PEAR') D:\htdocs\payment_request\application\controllers\Login.php 3
ERROR - 2019-11-29 08:44:24 --> Severity: Warning --> include_once(Admin.php): failed to open stream: No such file or directory D:\htdocs\payment_request\application\controllers\Login.php 3
ERROR - 2019-11-29 08:44:24 --> Severity: Warning --> include_once(): Failed opening 'Admin.php' for inclusion (include_path='C:\xampp7\php\PEAR') D:\htdocs\payment_request\application\controllers\Login.php 3
ERROR - 2019-11-29 08:44:45 --> Severity: Warning --> include_once(Admin.php): failed to open stream: No such file or directory D:\htdocs\payment_request\application\controllers\Login.php 3
ERROR - 2019-11-29 08:44:45 --> Severity: Warning --> include_once(): Failed opening 'Admin.php' for inclusion (include_path='C:\xampp7\php\PEAR') D:\htdocs\payment_request\application\controllers\Login.php 3
ERROR - 2019-11-29 08:57:56 --> Severity: Notice --> Undefined property: Login::$cac_user_model D:\htdocs\payment_request\application\controllers\Login.php 14
ERROR - 2019-11-29 08:57:56 --> Severity: error --> Exception: Call to a member function validate() on null D:\htdocs\payment_request\application\controllers\Login.php 14
ERROR - 2019-11-29 08:57:56 --> Severity: Warning --> include(D:\htdocs\payment_request\application\views\errors\html\error_exception.php): failed to open stream: No such file or directory D:\htdocs\payment_request\system\core\Exceptions.php 219
ERROR - 2019-11-29 08:57:56 --> Severity: Warning --> include(): Failed opening 'D:\htdocs\payment_request\application\views\errors\html\error_exception.php' for inclusion (include_path='C:\xampp7\php\PEAR') D:\htdocs\payment_request\system\core\Exceptions.php 219
ERROR - 2019-11-29 09:07:50 --> Severity: Notice --> Undefined property: Login::$cac_user_model D:\htdocs\payment_request\application\controllers\Login.php 14
ERROR - 2019-11-29 09:07:50 --> Severity: error --> Exception: Call to a member function validate() on null D:\htdocs\payment_request\application\controllers\Login.php 14
ERROR - 2019-11-29 09:07:50 --> Severity: Warning --> include(D:\htdocs\payment_request\application\views\errors\html\error_exception.php): failed to open stream: No such file or directory D:\htdocs\payment_request\system\core\Exceptions.php 219
ERROR - 2019-11-29 09:07:50 --> Severity: Warning --> include(): Failed opening 'D:\htdocs\payment_request\application\views\errors\html\error_exception.php' for inclusion (include_path='C:\xampp7\php\PEAR') D:\htdocs\payment_request\system\core\Exceptions.php 219
ERROR - 2019-11-29 09:12:25 --> 404 Page Not Found: Faviconico/index
ERROR - 2019-11-29 09:12:25 --> Severity: Warning --> include(D:\htdocs\payment-request\application\views\errors\html\error_404.php): failed to open stream: No such file or directory D:\htdocs\payment-request\system\core\Exceptions.php 182
ERROR - 2019-11-29 09:12:25 --> Severity: Warning --> include(): Failed opening 'D:\htdocs\payment-request\application\views\errors\html\error_404.php' for inclusion (include_path='C:\xampp7\php\PEAR') D:\htdocs\payment-request\system\core\Exceptions.php 182
ERROR - 2019-11-29 09:20:19 --> Severity: Notice --> Undefined property: Login::$cac_user_model D:\htdocs\payment-request\application\controllers\Login.php 14
ERROR - 2019-11-29 09:20:19 --> Severity: error --> Exception: Call to a member function validate() on null D:\htdocs\payment-request\application\controllers\Login.php 14
ERROR - 2019-11-29 09:20:19 --> Severity: Warning --> include(D:\htdocs\payment-request\application\views\errors\html\error_exception.php): failed to open stream: No such file or directory D:\htdocs\payment-request\system\core\Exceptions.php 219
ERROR - 2019-11-29 09:20:19 --> Severity: Warning --> include(): Failed opening 'D:\htdocs\payment-request\application\views\errors\html\error_exception.php' for inclusion (include_path='C:\xampp7\php\PEAR') D:\htdocs\payment-request\system\core\Exceptions.php 219
ERROR - 2019-11-29 09:21:26 --> Severity: error --> Exception: Unable to locate the model you have specified: Model_log D:\htdocs\payment-request\system\core\Loader.php 348
ERROR - 2019-11-29 09:21:26 --> Severity: Warning --> include(D:\htdocs\payment-request\application\views\errors\html\error_exception.php): failed to open stream: No such file or directory D:\htdocs\payment-request\system\core\Exceptions.php 219
ERROR - 2019-11-29 09:21:26 --> Severity: Warning --> include(): Failed opening 'D:\htdocs\payment-request\application\views\errors\html\error_exception.php' for inclusion (include_path='C:\xampp7\php\PEAR') D:\htdocs\payment-request\system\core\Exceptions.php 219
ERROR - 2019-11-29 09:22:26 --> Severity: error --> Exception: Unable to locate the model you have specified: Model_log D:\htdocs\payment-request\system\core\Loader.php 348
ERROR - 2019-11-29 09:22:26 --> Severity: Warning --> include(D:\htdocs\payment-request\application\views\errors\html\error_exception.php): failed to open stream: No such file or directory D:\htdocs\payment-request\system\core\Exceptions.php 219
ERROR - 2019-11-29 09:22:26 --> Severity: Warning --> include(): Failed opening 'D:\htdocs\payment-request\application\views\errors\html\error_exception.php' for inclusion (include_path='C:\xampp7\php\PEAR') D:\htdocs\payment-request\system\core\Exceptions.php 219
ERROR - 2019-11-29 09:22:47 --> Severity: error --> Exception: Unable to locate the model you have specified: Model_log D:\htdocs\payment-request\system\core\Loader.php 348
ERROR - 2019-11-29 09:22:47 --> Severity: Warning --> include(D:\htdocs\payment-request\application\views\errors\html\error_exception.php): failed to open stream: No such file or directory D:\htdocs\payment-request\system\core\Exceptions.php 219
ERROR - 2019-11-29 09:22:47 --> Severity: Warning --> include(): Failed opening 'D:\htdocs\payment-request\application\views\errors\html\error_exception.php' for inclusion (include_path='C:\xampp7\php\PEAR') D:\htdocs\payment-request\system\core\Exceptions.php 219
ERROR - 2019-11-29 09:23:20 --> Severity: error --> Exception: Unable to locate the model you have specified: Model_log D:\htdocs\payment-request\system\core\Loader.php 348
ERROR - 2019-11-29 09:23:20 --> Severity: Warning --> include(D:\htdocs\payment-request\application\views\errors\html\error_exception.php): failed to open stream: No such file or directory D:\htdocs\payment-request\system\core\Exceptions.php 219
ERROR - 2019-11-29 09:23:20 --> Severity: Warning --> include(): Failed opening 'D:\htdocs\payment-request\application\views\errors\html\error_exception.php' for inclusion (include_path='C:\xampp7\php\PEAR') D:\htdocs\payment-request\system\core\Exceptions.php 219
ERROR - 2019-11-29 09:23:40 --> Severity: error --> Exception: Unable to locate the model you have specified: Model_log D:\htdocs\payment-request\system\core\Loader.php 348
ERROR - 2019-11-29 09:23:40 --> Severity: Warning --> include(D:\htdocs\payment-request\application\views\errors\html\error_exception.php): failed to open stream: No such file or directory D:\htdocs\payment-request\system\core\Exceptions.php 219
ERROR - 2019-11-29 09:23:40 --> Severity: Warning --> include(): Failed opening 'D:\htdocs\payment-request\application\views\errors\html\error_exception.php' for inclusion (include_path='C:\xampp7\php\PEAR') D:\htdocs\payment-request\system\core\Exceptions.php 219
ERROR - 2019-11-29 09:23:46 --> Severity: error --> Exception: Unable to locate the model you have specified: Model_log D:\htdocs\payment-request\system\core\Loader.php 348
ERROR - 2019-11-29 09:23:46 --> Severity: Warning --> include(D:\htdocs\payment-request\application\views\errors\html\error_exception.php): failed to open stream: No such file or directory D:\htdocs\payment-request\system\core\Exceptions.php 219
ERROR - 2019-11-29 09:23:46 --> Severity: Warning --> include(): Failed opening 'D:\htdocs\payment-request\application\views\errors\html\error_exception.php' for inclusion (include_path='C:\xampp7\php\PEAR') D:\htdocs\payment-request\system\core\Exceptions.php 219
ERROR - 2019-11-29 09:24:09 --> Severity: error --> Exception: Unable to locate the model you have specified: Model_log D:\htdocs\payment-request\system\core\Loader.php 348
ERROR - 2019-11-29 09:24:09 --> Severity: Warning --> include(D:\htdocs\payment-request\application\views\errors\html\error_exception.php): failed to open stream: No such file or directory D:\htdocs\payment-request\system\core\Exceptions.php 219
ERROR - 2019-11-29 09:24:09 --> Severity: Warning --> include(): Failed opening 'D:\htdocs\payment-request\application\views\errors\html\error_exception.php' for inclusion (include_path='C:\xampp7\php\PEAR') D:\htdocs\payment-request\system\core\Exceptions.php 219
ERROR - 2019-11-29 09:24:36 --> Severity: error --> Exception: Unable to locate the model you have specified: Model_log D:\htdocs\payment-request\system\core\Loader.php 348
ERROR - 2019-11-29 09:24:36 --> Severity: Warning --> include(D:\htdocs\payment-request\application\views\errors\html\error_exception.php): failed to open stream: No such file or directory D:\htdocs\payment-request\system\core\Exceptions.php 219
ERROR - 2019-11-29 09:24:36 --> Severity: Warning --> include(): Failed opening 'D:\htdocs\payment-request\application\views\errors\html\error_exception.php' for inclusion (include_path='C:\xampp7\php\PEAR') D:\htdocs\payment-request\system\core\Exceptions.php 219
ERROR - 2019-11-29 09:24:47 --> Severity: error --> Exception: Unable to locate the model you have specified: Model_log D:\htdocs\payment-request\system\core\Loader.php 348
ERROR - 2019-11-29 09:24:47 --> Severity: Warning --> include(D:\htdocs\payment-request\application\views\errors\html\error_exception.php): failed to open stream: No such file or directory D:\htdocs\payment-request\system\core\Exceptions.php 219
ERROR - 2019-11-29 09:24:47 --> Severity: Warning --> include(): Failed opening 'D:\htdocs\payment-request\application\views\errors\html\error_exception.php' for inclusion (include_path='C:\xampp7\php\PEAR') D:\htdocs\payment-request\system\core\Exceptions.php 219
ERROR - 2019-11-29 09:24:53 --> 404 Page Not Found: Index/index
ERROR - 2019-11-29 09:24:53 --> Severity: Warning --> include(D:\htdocs\payment-request\application\views\errors\html\error_404.php): failed to open stream: No such file or directory D:\htdocs\payment-request\system\core\Exceptions.php 182
ERROR - 2019-11-29 09:24:53 --> Severity: Warning --> include(): Failed opening 'D:\htdocs\payment-request\application\views\errors\html\error_404.php' for inclusion (include_path='C:\xampp7\php\PEAR') D:\htdocs\payment-request\system\core\Exceptions.php 182
ERROR - 2019-11-29 09:24:58 --> Severity: error --> Exception: Unable to locate the model you have specified: Model_log D:\htdocs\payment-request\system\core\Loader.php 348
ERROR - 2019-11-29 09:24:58 --> Severity: Warning --> include(D:\htdocs\payment-request\application\views\errors\html\error_exception.php): failed to open stream: No such file or directory D:\htdocs\payment-request\system\core\Exceptions.php 219
ERROR - 2019-11-29 09:24:58 --> Severity: Warning --> include(): Failed opening 'D:\htdocs\payment-request\application\views\errors\html\error_exception.php' for inclusion (include_path='C:\xampp7\php\PEAR') D:\htdocs\payment-request\system\core\Exceptions.php 219
ERROR - 2019-11-29 09:25:26 --> Severity: error --> Exception: Unable to locate the model you have specified: Model_log D:\htdocs\payment-request\system\core\Loader.php 348
ERROR - 2019-11-29 09:25:26 --> Severity: Warning --> include(D:\htdocs\payment-request\application\views\errors\html\error_exception.php): failed to open stream: No such file or directory D:\htdocs\payment-request\system\core\Exceptions.php 219
ERROR - 2019-11-29 09:25:26 --> Severity: Warning --> include(): Failed opening 'D:\htdocs\payment-request\application\views\errors\html\error_exception.php' for inclusion (include_path='C:\xampp7\php\PEAR') D:\htdocs\payment-request\system\core\Exceptions.php 219
ERROR - 2019-11-29 09:25:31 --> Severity: error --> Exception: Unable to locate the model you have specified: Model_log D:\htdocs\payment-request\system\core\Loader.php 348
ERROR - 2019-11-29 09:25:31 --> Severity: Warning --> include(D:\htdocs\payment-request\application\views\errors\html\error_exception.php): failed to open stream: No such file or directory D:\htdocs\payment-request\system\core\Exceptions.php 219
ERROR - 2019-11-29 09:25:31 --> Severity: Warning --> include(): Failed opening 'D:\htdocs\payment-request\application\views\errors\html\error_exception.php' for inclusion (include_path='C:\xampp7\php\PEAR') D:\htdocs\payment-request\system\core\Exceptions.php 219
ERROR - 2019-11-29 09:25:32 --> Severity: error --> Exception: Unable to locate the model you have specified: Model_log D:\htdocs\payment-request\system\core\Loader.php 348
ERROR - 2019-11-29 09:25:32 --> Severity: Warning --> include(D:\htdocs\payment-request\application\views\errors\html\error_exception.php): failed to open stream: No such file or directory D:\htdocs\payment-request\system\core\Exceptions.php 219
ERROR - 2019-11-29 09:25:32 --> Severity: Warning --> include(): Failed opening 'D:\htdocs\payment-request\application\views\errors\html\error_exception.php' for inclusion (include_path='C:\xampp7\php\PEAR') D:\htdocs\payment-request\system\core\Exceptions.php 219
ERROR - 2019-11-29 09:25:35 --> Severity: error --> Exception: Unable to locate the model you have specified: Model_log D:\htdocs\payment-request\system\core\Loader.php 348
ERROR - 2019-11-29 09:25:35 --> Severity: Warning --> include(D:\htdocs\payment-request\application\views\errors\html\error_exception.php): failed to open stream: No such file or directory D:\htdocs\payment-request\system\core\Exceptions.php 219
ERROR - 2019-11-29 09:25:35 --> Severity: Warning --> include(): Failed opening 'D:\htdocs\payment-request\application\views\errors\html\error_exception.php' for inclusion (include_path='C:\xampp7\php\PEAR') D:\htdocs\payment-request\system\core\Exceptions.php 219
ERROR - 2019-11-29 09:25:35 --> Severity: error --> Exception: Unable to locate the model you have specified: Model_log D:\htdocs\payment-request\system\core\Loader.php 348
ERROR - 2019-11-29 09:25:35 --> Severity: Warning --> include(D:\htdocs\payment-request\application\views\errors\html\error_exception.php): failed to open stream: No such file or directory D:\htdocs\payment-request\system\core\Exceptions.php 219
ERROR - 2019-11-29 09:25:35 --> Severity: Warning --> include(): Failed opening 'D:\htdocs\payment-request\application\views\errors\html\error_exception.php' for inclusion (include_path='C:\xampp7\php\PEAR') D:\htdocs\payment-request\system\core\Exceptions.php 219
ERROR - 2019-11-29 09:25:46 --> Severity: error --> Exception: Unable to locate the model you have specified: Model_log D:\htdocs\payment-request\system\core\Loader.php 348
ERROR - 2019-11-29 09:25:46 --> Severity: Warning --> include(D:\htdocs\payment-request\application\views\errors\html\error_exception.php): failed to open stream: No such file or directory D:\htdocs\payment-request\system\core\Exceptions.php 219
ERROR - 2019-11-29 09:25:46 --> Severity: Warning --> include(): Failed opening 'D:\htdocs\payment-request\application\views\errors\html\error_exception.php' for inclusion (include_path='C:\xampp7\php\PEAR') D:\htdocs\payment-request\system\core\Exceptions.php 219
ERROR - 2019-11-29 09:25:51 --> Severity: error --> Exception: Unable to locate the model you have specified: Model_log D:\htdocs\payment-request\system\core\Loader.php 348
ERROR - 2019-11-29 09:25:51 --> Severity: Warning --> include(D:\htdocs\payment-request\application\views\errors\html\error_exception.php): failed to open stream: No such file or directory D:\htdocs\payment-request\system\core\Exceptions.php 219
ERROR - 2019-11-29 09:25:51 --> Severity: Warning --> include(): Failed opening 'D:\htdocs\payment-request\application\views\errors\html\error_exception.php' for inclusion (include_path='C:\xampp7\php\PEAR') D:\htdocs\payment-request\system\core\Exceptions.php 219
ERROR - 2019-11-29 09:26:25 --> Severity: error --> Exception: Unable to locate the model you have specified: Model_log D:\htdocs\payment-request\system\core\Loader.php 348
ERROR - 2019-11-29 09:26:25 --> Severity: Warning --> include(D:\htdocs\payment-request\application\views\errors\html\error_exception.php): failed to open stream: No such file or directory D:\htdocs\payment-request\system\core\Exceptions.php 219
ERROR - 2019-11-29 09:26:25 --> Severity: Warning --> include(): Failed opening 'D:\htdocs\payment-request\application\views\errors\html\error_exception.php' for inclusion (include_path='C:\xampp7\php\PEAR') D:\htdocs\payment-request\system\core\Exceptions.php 219
ERROR - 2019-11-29 09:26:26 --> Severity: error --> Exception: Unable to locate the model you have specified: Model_log D:\htdocs\payment-request\system\core\Loader.php 348
ERROR - 2019-11-29 09:26:26 --> Severity: Warning --> include(D:\htdocs\payment-request\application\views\errors\html\error_exception.php): failed to open stream: No such file or directory D:\htdocs\payment-request\system\core\Exceptions.php 219
ERROR - 2019-11-29 09:26:26 --> Severity: Warning --> include(): Failed opening 'D:\htdocs\payment-request\application\views\errors\html\error_exception.php' for inclusion (include_path='C:\xampp7\php\PEAR') D:\htdocs\payment-request\system\core\Exceptions.php 219
ERROR - 2019-11-29 09:26:27 --> Severity: error --> Exception: Unable to locate the model you have specified: Model_log D:\htdocs\payment-request\system\core\Loader.php 348
ERROR - 2019-11-29 09:26:27 --> Severity: Warning --> include(D:\htdocs\payment-request\application\views\errors\html\error_exception.php): failed to open stream: No such file or directory D:\htdocs\payment-request\system\core\Exceptions.php 219
ERROR - 2019-11-29 09:26:27 --> Severity: Warning --> include(): Failed opening 'D:\htdocs\payment-request\application\views\errors\html\error_exception.php' for inclusion (include_path='C:\xampp7\php\PEAR') D:\htdocs\payment-request\system\core\Exceptions.php 219
ERROR - 2019-11-29 09:28:10 --> Severity: error --> Exception: Unable to locate the model you have specified: Model_log D:\htdocs\payment-request\system\core\Loader.php 348
ERROR - 2019-11-29 09:28:10 --> Severity: Warning --> include(D:\htdocs\payment-request\application\views\errors\html\error_exception.php): failed to open stream: No such file or directory D:\htdocs\payment-request\system\core\Exceptions.php 219
ERROR - 2019-11-29 09:28:10 --> Severity: Warning --> include(): Failed opening 'D:\htdocs\payment-request\application\views\errors\html\error_exception.php' for inclusion (include_path='C:\xampp7\php\PEAR') D:\htdocs\payment-request\system\core\Exceptions.php 219
ERROR - 2019-11-29 09:28:11 --> Severity: error --> Exception: Unable to locate the model you have specified: Model_log D:\htdocs\payment-request\system\core\Loader.php 348
ERROR - 2019-11-29 09:28:11 --> Severity: Warning --> include(D:\htdocs\payment-request\application\views\errors\html\error_exception.php): failed to open stream: No such file or directory D:\htdocs\payment-request\system\core\Exceptions.php 219
ERROR - 2019-11-29 09:28:11 --> Severity: Warning --> include(): Failed opening 'D:\htdocs\payment-request\application\views\errors\html\error_exception.php' for inclusion (include_path='C:\xampp7\php\PEAR') D:\htdocs\payment-request\system\core\Exceptions.php 219
ERROR - 2019-11-29 09:28:32 --> Severity: error --> Exception: Unable to locate the model you have specified: Model_log D:\htdocs\payment-request\system\core\Loader.php 348
ERROR - 2019-11-29 09:28:47 --> Severity: error --> Exception: Unable to locate the model you have specified: Model_log D:\htdocs\payment-request\system\core\Loader.php 348
ERROR - 2019-11-29 09:29:38 --> Severity: error --> Exception: Unable to locate the model you have specified: Model_log D:\htdocs\payment-request\system\core\Loader.php 348
ERROR - 2019-11-29 09:29:39 --> Severity: error --> Exception: Unable to locate the model you have specified: Model_log D:\htdocs\payment-request\system\core\Loader.php 348
ERROR - 2019-11-29 09:29:41 --> Severity: error --> Exception: Unable to locate the model you have specified: Model_log D:\htdocs\payment-request\system\core\Loader.php 348
ERROR - 2019-11-29 09:30:42 --> Severity: error --> Exception: Unable to locate the model you have specified: Model_log D:\htdocs\payment-request\system\core\Loader.php 348
ERROR - 2019-11-29 09:31:01 --> Severity: error --> Exception: Unable to locate the model you have specified: Model_log D:\htdocs\payment-request\system\core\Loader.php 348
ERROR - 2019-11-29 09:31:02 --> Severity: error --> Exception: Unable to locate the model you have specified: Model_log D:\htdocs\payment-request\system\core\Loader.php 348
ERROR - 2019-11-29 09:31:03 --> Severity: error --> Exception: Unable to locate the model you have specified: Model_log D:\htdocs\payment-request\system\core\Loader.php 348
ERROR - 2019-11-29 09:31:03 --> Severity: error --> Exception: Unable to locate the model you have specified: Model_log D:\htdocs\payment-request\system\core\Loader.php 348
ERROR - 2019-11-29 09:31:03 --> Severity: error --> Exception: Unable to locate the model you have specified: Model_log D:\htdocs\payment-request\system\core\Loader.php 348
ERROR - 2019-11-29 09:31:11 --> Severity: error --> Exception: Unable to locate the model you have specified: Model_log D:\htdocs\payment-request\system\core\Loader.php 348
ERROR - 2019-11-29 09:31:12 --> Severity: error --> Exception: Unable to locate the model you have specified: Model_log D:\htdocs\payment-request\system\core\Loader.php 348
ERROR - 2019-11-29 09:31:12 --> Severity: error --> Exception: Unable to locate the model you have specified: Model_log D:\htdocs\payment-request\system\core\Loader.php 348
ERROR - 2019-11-29 09:31:25 --> Severity: error --> Exception: Unable to locate the model you have specified: Model_log D:\htdocs\payment-request\system\core\Loader.php 348
ERROR - 2019-11-29 09:31:25 --> Severity: error --> Exception: Unable to locate the model you have specified: Model_log D:\htdocs\payment-request\system\core\Loader.php 348
ERROR - 2019-11-29 09:31:37 --> Severity: error --> Exception: Unable to locate the model you have specified: Model_log D:\htdocs\payment-request\system\core\Loader.php 348
ERROR - 2019-11-29 09:31:41 --> Severity: error --> Exception: Unable to locate the model you have specified: Model_log D:\htdocs\payment-request\system\core\Loader.php 348
ERROR - 2019-11-29 09:32:40 --> 404 Page Not Found: Faviconico/index
ERROR - 2019-11-29 09:48:24 --> Severity: error --> Exception: syntax error, unexpected ';', expecting ',' or ')' D:\htdocs\payment-request\application\controllers\Login.php 11
ERROR - 2019-11-29 09:48:24 --> Severity: Warning --> include(D:\htdocs\payment-request\application\views\errors\html\error_exception.php): failed to open stream: No such file or directory D:\htdocs\payment-request\system\core\Exceptions.php 219
ERROR - 2019-11-29 09:48:24 --> Severity: Warning --> include(): Failed opening 'D:\htdocs\payment-request\application\views\errors\html\error_exception.php' for inclusion (include_path='C:\xampp7\php\PEAR') D:\htdocs\payment-request\system\core\Exceptions.php 219
ERROR - 2019-11-29 09:48:42 --> Severity: error --> Exception: syntax error, unexpected ';', expecting ',' or ')' D:\htdocs\payment-request\application\controllers\Login.php 11
ERROR - 2019-11-29 09:58:54 --> Severity: error --> Exception: syntax error, unexpected ''message'' (T_CONSTANT_ENCAPSED_STRING), expecting ']' D:\htdocs\payment-request\application\controllers\Login.php 54
ERROR - 2019-11-29 16:43:22 --> Severity: Notice --> Undefined variable: Related_information_email D:\htdocs\payment-request\application\views\reset_password_view.php 62
ERROR - 2019-11-29 16:43:40 --> Severity: Notice --> Undefined variable: Related_information_email D:\htdocs\payment-request\application\views\reset_password_view.php 62
ERROR - 2019-11-29 10:48:19 --> 404 Page Not Found: Login/reset_password
ERROR - 2019-11-29 17:11:46 --> Severity: Notice --> Undefined variable: auth D:\htdocs\payment-request\application\views\reset_password_view.php 60
ERROR - 2019-11-29 17:12:22 --> Severity: Notice --> Undefined index: Related_information_email D:\htdocs\payment-request\application\views\reset_password_view.php 60
ERROR - 2019-11-29 11:12:23 --> 404 Page Not Found: Login/favicon.ico
ERROR - 2019-11-29 17:12:39 --> Severity: Notice --> Undefined variable: auth D:\htdocs\payment-request\application\views\reset_password_view.php 60
ERROR - 2019-11-29 17:14:06 --> Severity: Notice --> Undefined variable: auth D:\htdocs\payment-request\application\views\reset_password_view.php 60
ERROR - 2019-11-29 17:14:11 --> Severity: Notice --> Undefined variable: auth D:\htdocs\payment-request\application\views\reset_password_view.php 60
ERROR - 2019-11-29 17:14:46 --> Severity: Notice --> Undefined variable: auth D:\htdocs\payment-request\application\views\reset_password_view.php 60
ERROR - 2019-11-29 17:15:07 --> Severity: Notice --> Undefined variable: email D:\htdocs\payment-request\application\controllers\Login.php 93
ERROR - 2019-11-29 17:15:07 --> Severity: Notice --> Undefined variable: auth D:\htdocs\payment-request\application\views\reset_password_view.php 60
ERROR - 2019-11-29 17:15:19 --> Severity: Notice --> Undefined variable: email D:\htdocs\payment-request\application\controllers\Login.php 93
ERROR - 2019-11-29 17:15:19 --> Severity: Notice --> Undefined variable: auth D:\htdocs\payment-request\application\views\reset_password_view.php 60
ERROR - 2019-11-29 17:16:01 --> Severity: Notice --> Undefined variable: email D:\htdocs\payment-request\application\controllers\Login.php 93
ERROR - 2019-11-29 17:16:25 --> Severity: Notice --> Undefined variable: email D:\htdocs\payment-request\application\controllers\Login.php 93
ERROR - 2019-11-29 17:16:25 --> Severity: Notice --> Undefined variable: Related_information_email D:\htdocs\payment-request\application\views\reset_password_view.php 60
ERROR - 2019-11-29 17:16:55 --> Severity: Notice --> Undefined variable: email D:\htdocs\payment-request\application\controllers\Login.php 93
ERROR - 2019-11-29 17:17:49 --> Severity: Notice --> Undefined variable: message D:\htdocs\payment-request\application\views\reset_password_view.php 48
ERROR - 2019-11-29 11:32:49 --> Severity: error --> Exception: syntax error, unexpected '@', expecting ')' D:\htdocs\payment-request\application\controllers\Login.php 34
ERROR - 2019-11-29 11:33:01 --> 404 Page Not Found: Login/index
ERROR - 2019-11-29 11:33:05 --> 404 Page Not Found: Login/index
ERROR - 2019-11-29 11:33:09 --> 404 Page Not Found: Login/index
ERROR - 2019-11-29 17:03:10 --> Severity: Warning --> mysqli::real_connect(): (HY000/2002): A socket operation was attempted to an unreachable host.
 D:\htdocs\payment-request\system\database\drivers\mysqli\mysqli_driver.php 201
ERROR - 2019-11-29 17:03:10 --> Unable to connect to the database
ERROR - 2019-11-29 17:21:19 --> Severity: Warning --> mysqli::real_connect(): (HY000/2002): A connection attempt failed because the connected party did not properly respond after a period of time, or established connection failed because connected host has failed to respond.
 D:\htdocs\payment-request\system\database\drivers\mysqli\mysqli_driver.php 201
ERROR - 2019-11-29 17:21:19 --> Unable to connect to the database
ERROR - 2019-11-29 19:42:39 --> Severity: Warning --> mysqli::real_connect(): (HY000/2002): A connection attempt failed because the connected party did not properly respond after a period of time, or established connection failed because connected host has failed to respond.
 D:\htdocs\payment-request\system\database\drivers\mysqli\mysqli_driver.php 201
ERROR - 2019-11-29 19:42:39 --> Unable to connect to the database
