ERROR - 2020-05-04 05:07:27 --> 404 Page Not Found: Assets/vendors
ERROR - 2020-05-04 05:07:27 --> 404 Page Not Found: Assets/vendors
ERROR - 2020-05-04 05:07:27 --> 404 Page Not Found: Assets/vendors
ERROR - 2020-05-04 05:07:27 --> 404 Page Not Found: Assets/vendors
ERROR - 2020-05-04 05:07:27 --> 404 Page Not Found: Assets/vendors
ERROR - 2020-05-04 05:07:28 --> 404 Page Not Found: Assets/vendors
ERROR - 2020-05-04 05:07:28 --> 404 Page Not Found: Assets/vendors
ERROR - 2020-05-04 05:07:28 --> 404 Page Not Found: Assets/vendors
ERROR - 2020-05-04 05:07:28 --> 404 Page Not Found: Faviconico/index
ERROR - 2020-05-04 12:09:29 --> Query error: Unknown column 'pr_code' in 'where clause' - Invalid query: SELECT `pd`.*
FROM `pr_payment_detail` `pd`
WHERE `pr_code` = 'TACO/PYRNPO/20040002'
ERROR - 2020-05-04 12:10:08 --> Query error: Unknown column 'pd.pr_code' in 'where clause' - Invalid query: SELECT `pd`.*
FROM `pr_payment_detail` `pd`
WHERE `pd`.`pr_code` = 'TACO/PYRNPO/20040002'
ERROR - 2020-05-04 12:13:10 --> Unable to connect to the database
ERROR - 2020-05-04 12:13:34 --> Unable to connect to the database
ERROR - 2020-05-04 13:14:59 --> Severity: Warning --> unlink(assets/document_payment/200504/): Is a directory D:\htdocs\payment_request\application\controllers\Spk_Trans.php 615
ERROR - 2020-05-04 13:26:52 --> Severity: Notice --> Trying to get property 'id_lookup' of non-object D:\htdocs\payment_request\application\views\purchase_order\purchase_order_view.php 252
ERROR - 2020-05-04 13:26:52 --> Severity: Notice --> Trying to get property 'id_lookup' of non-object D:\htdocs\payment_request\application\views\purchase_order\purchase_order_view.php 252
ERROR - 2020-05-04 13:26:52 --> Severity: Notice --> Trying to get property 'id_lookup' of non-object D:\htdocs\payment_request\application\views\purchase_order\purchase_order_view.php 252
ERROR - 2020-05-04 13:26:52 --> Severity: Notice --> Trying to get property 'id_lookup' of non-object D:\htdocs\payment_request\application\views\purchase_order\purchase_order_view.php 252
ERROR - 2020-05-04 13:26:52 --> Severity: Notice --> Trying to get property 'id_lookup' of non-object D:\htdocs\payment_request\application\views\purchase_order\purchase_order_view.php 252
ERROR - 2020-05-04 13:26:52 --> Severity: Notice --> Trying to get property 'id_lookup' of non-object D:\htdocs\payment_request\application\views\purchase_order\purchase_order_view.php 252
ERROR - 2020-05-04 13:26:52 --> Severity: Notice --> Trying to get property 'id_lookup' of non-object D:\htdocs\payment_request\application\views\purchase_order\purchase_order_view.php 252
ERROR - 2020-05-04 13:26:52 --> Severity: Notice --> Trying to get property 'id_lookup' of non-object D:\htdocs\payment_request\application\views\purchase_order\purchase_order_view.php 287
ERROR - 2020-05-04 13:26:52 --> Severity: Notice --> Trying to get property 'id_lookup' of non-object D:\htdocs\payment_request\application\views\purchase_order\purchase_order_view.php 287
ERROR - 2020-05-04 13:26:52 --> Severity: Notice --> Trying to get property 'id_lookup' of non-object D:\htdocs\payment_request\application\views\purchase_order\purchase_order_view.php 287
ERROR - 2020-05-04 13:26:52 --> Severity: Notice --> Trying to get property 'id_lookup' of non-object D:\htdocs\payment_request\application\views\purchase_order\purchase_order_view.php 287
ERROR - 2020-05-04 13:26:52 --> Severity: Notice --> Trying to get property 'id_lookup' of non-object D:\htdocs\payment_request\application\views\purchase_order\purchase_order_view.php 287
ERROR - 2020-05-04 13:26:52 --> Severity: Notice --> Trying to get property 'id_lookup' of non-object D:\htdocs\payment_request\application\views\purchase_order\purchase_order_view.php 287
ERROR - 2020-05-04 13:26:52 --> Severity: Notice --> Trying to get property 'id_lookup' of non-object D:\htdocs\payment_request\application\views\purchase_order\purchase_order_view.php 319
ERROR - 2020-05-04 13:26:52 --> Severity: Notice --> Trying to get property 'id_lookup' of non-object D:\htdocs\payment_request\application\views\purchase_order\purchase_order_view.php 319
ERROR - 2020-05-04 13:26:52 --> Severity: Notice --> Trying to get property 'id_lookup' of non-object D:\htdocs\payment_request\application\views\purchase_order\purchase_order_view.php 319
ERROR - 2020-05-04 13:26:52 --> Severity: Notice --> Trying to get property 'id_lookup' of non-object D:\htdocs\payment_request\application\views\purchase_order\purchase_order_view.php 319
ERROR - 2020-05-04 13:26:52 --> Severity: Notice --> Trying to get property 'id_lookup' of non-object D:\htdocs\payment_request\application\views\purchase_order\purchase_order_view.php 351
ERROR - 2020-05-04 13:26:52 --> Severity: Notice --> Trying to get property 'id_lookup' of non-object D:\htdocs\payment_request\application\views\purchase_order\purchase_order_view.php 351
ERROR - 2020-05-04 13:26:52 --> Severity: Notice --> Trying to get property 'id_lookup' of non-object D:\htdocs\payment_request\application\views\purchase_order\purchase_order_view.php 351
ERROR - 2020-05-04 13:26:52 --> Severity: Notice --> Trying to get property 'id_lookup' of non-object D:\htdocs\payment_request\application\views\purchase_order\purchase_order_view.php 351
ERROR - 2020-05-04 13:26:52 --> Severity: Notice --> Trying to get property 'id_lookup' of non-object D:\htdocs\payment_request\application\views\purchase_order\purchase_order_view.php 351
ERROR - 2020-05-04 13:26:52 --> Severity: Notice --> Trying to get property 'id_lookup' of non-object D:\htdocs\payment_request\application\views\purchase_order\purchase_order_view.php 351
ERROR - 2020-05-04 13:26:52 --> Severity: Notice --> Trying to get property 'id_lookup' of non-object D:\htdocs\payment_request\application\views\purchase_order\purchase_order_view.php 351
ERROR - 2020-05-04 13:26:52 --> Severity: Notice --> Trying to get property 'id_lookup' of non-object D:\htdocs\payment_request\application\views\purchase_order\purchase_order_view.php 351
ERROR - 2020-05-04 13:26:52 --> Severity: Notice --> Trying to get property 'id_lookup' of non-object D:\htdocs\payment_request\application\views\purchase_order\purchase_order_view.php 351
ERROR - 2020-05-04 13:45:48 --> Query error: You have an error in your SQL syntax; check the manual that corresponds to your MariaDB server version for the right syntax to use near 'SELECT name FROM employee  WHERE nik = paa.approved_by 
                FROM pr' at line 11 - Invalid query: SELECT `p`.*, `pms`.`Vendor_name`, `ph`.`pic`, `pa`.`status` `status_verification`, (
                SELECT ih.requester_code 
                FROM 
                    pr_detail pd LEFT JOIN 
                    ir_header ih ON pd.ir_code = ih.ir_code
                WHERE 
                    pd.pr_code = p.pr_code
                limit 1
            )   user_ir, `pa`.`approved_by` `approved_by_approval`, (
                SELECT 
                    SELECT name FROM employee  WHERE nik = paa.approved_by 
                FROM pr_payment_approval paa
                WHERE  
                    paa.pyr_code = p.pyr_code AND
                    paa.is_active_approval = '1'
                ORDER BY paa.id DESC LIMIT 1
            ) pending_on
FROM `pr_payment_header` `p`
JOIN `pr_header` `ph` ON `p`.`pr_code` = `ph`.`pr_code`
JOIN `pr_ms_vendor` `pms` ON `p`.`vendor_code` = `pms`.`nav_code` AND `p`.`company_code` = `pms`.`company_code`
LEFT JOIN `pr_payment_approval` `pa` ON `p`.`pyr_code` = `pa`.`pyr_code` AND `pa`.`sequence_name` = "supaya_ga_dapat_relasi"
WHERE `p`.`spk_no` != ''
AND `p`.`po_no` IS NULL
AND `ph`.`status_approval` = '20'
AND `p`.`vendor_code` = 'VLOC-00112'
AND `pms`.`Related_information_email` = 'example@gmail.com'
ORDER BY `p`.`pyr_code` ASC
 LIMIT 10
ERROR - 2020-05-04 13:56:31 --> Severity: Notice --> Undefined offset: 1 D:\htdocs\payment_request\application\controllers\Spk_Trans.php 117
ERROR - 2020-05-04 13:56:31 --> Severity: Notice --> Undefined offset: 1 D:\htdocs\payment_request\application\controllers\Spk_Trans.php 117
ERROR - 2020-05-04 08:56:57 --> 404 Page Not Found: Assets/js
ERROR - 2020-05-04 13:57:01 --> Severity: Notice --> Undefined offset: 1 D:\htdocs\payment_request\application\controllers\Spk_Trans.php 117
ERROR - 2020-05-04 13:57:01 --> Severity: Notice --> Undefined offset: 1 D:\htdocs\payment_request\application\controllers\Spk_Trans.php 117
ERROR - 2020-05-04 08:57:51 --> 404 Page Not Found: Assets/js
ERROR - 2020-05-04 13:57:52 --> Severity: Notice --> Undefined offset: 1 D:\htdocs\payment_request\application\controllers\Spk_Trans.php 117
ERROR - 2020-05-04 13:57:52 --> Severity: Notice --> Undefined offset: 1 D:\htdocs\payment_request\application\controllers\Spk_Trans.php 117
ERROR - 2020-05-04 13:59:31 --> Severity: Notice --> Array to string conversion D:\htdocs\payment_request\application\controllers\Spk_Trans.php 117
ERROR - 2020-05-04 13:59:31 --> Severity: Notice --> Array to string conversion D:\htdocs\payment_request\application\controllers\Spk_Trans.php 117
ERROR - 2020-05-04 13:59:31 --> Severity: Notice --> Array to string conversion D:\htdocs\payment_request\application\controllers\Spk_Trans.php 117
ERROR - 2020-05-04 13:59:44 --> Severity: Notice --> Undefined offset: 1 D:\htdocs\payment_request\application\controllers\Spk_Trans.php 117
ERROR - 2020-05-04 13:59:44 --> Severity: Notice --> Undefined offset: 1 D:\htdocs\payment_request\application\controllers\Spk_Trans.php 117
ERROR - 2020-05-04 14:00:20 --> Severity: Warning --> strtoupper() expects parameter 1 to be string, array given D:\htdocs\payment_request\application\controllers\Spk_Trans.php 117
ERROR - 2020-05-04 14:00:20 --> Severity: Warning --> strtoupper() expects parameter 1 to be string, array given D:\htdocs\payment_request\application\controllers\Spk_Trans.php 117
ERROR - 2020-05-04 14:00:20 --> Severity: Warning --> strtoupper() expects parameter 1 to be string, array given D:\htdocs\payment_request\application\controllers\Spk_Trans.php 117
ERROR - 2020-05-04 14:00:33 --> Severity: Notice --> Undefined offset: 2 D:\htdocs\payment_request\application\controllers\Spk_Trans.php 117
ERROR - 2020-05-04 14:00:33 --> Severity: Notice --> Undefined offset: 2 D:\htdocs\payment_request\application\controllers\Spk_Trans.php 117
ERROR - 2020-05-04 14:00:33 --> Severity: Notice --> Undefined offset: 2 D:\htdocs\payment_request\application\controllers\Spk_Trans.php 117
ERROR - 2020-05-04 14:01:00 --> Severity: Notice --> Undefined offset: 1 D:\htdocs\payment_request\application\controllers\Spk_Trans.php 117
ERROR - 2020-05-04 14:01:00 --> Severity: Notice --> Undefined offset: 1 D:\htdocs\payment_request\application\controllers\Spk_Trans.php 117
ERROR - 2020-05-04 14:01:36 --> Severity: Warning --> strtoupper() expects parameter 1 to be string, array given D:\htdocs\payment_request\application\controllers\Spk_Trans.php 118
ERROR - 2020-05-04 14:01:36 --> Severity: Warning --> strtoupper() expects parameter 1 to be string, array given D:\htdocs\payment_request\application\controllers\Spk_Trans.php 118
ERROR - 2020-05-04 14:01:36 --> Severity: Warning --> strtoupper() expects parameter 1 to be string, array given D:\htdocs\payment_request\application\controllers\Spk_Trans.php 118
ERROR - 2020-05-04 09:48:52 --> 404 Page Not Found: Assets/js
ERROR - 2020-05-04 09:49:00 --> 404 Page Not Found: Assets/vendors
ERROR - 2020-05-04 09:49:00 --> 404 Page Not Found: Assets/vendors
ERROR - 2020-05-04 09:49:00 --> 404 Page Not Found: Assets/vendors
ERROR - 2020-05-04 09:49:00 --> 404 Page Not Found: Assets/vendors
ERROR - 2020-05-04 09:49:01 --> 404 Page Not Found: Assets/vendors
ERROR - 2020-05-04 09:49:01 --> 404 Page Not Found: Assets/vendors
ERROR - 2020-05-04 09:49:01 --> 404 Page Not Found: Assets/vendors
ERROR - 2020-05-04 09:49:01 --> 404 Page Not Found: Assets/vendors
ERROR - 2020-05-04 09:49:24 --> 404 Page Not Found: Assets/js
ERROR - 2020-05-04 09:49:25 --> 404 Page Not Found: Css_app/list_non_purchase_order_user.css
ERROR - 2020-05-04 09:49:25 --> 404 Page Not Found: Assets/js
ERROR - 2020-05-04 09:49:25 --> 404 Page Not Found: Css_app/list_non_purchase_order_user.css
ERROR - 2020-05-04 09:49:47 --> 404 Page Not Found: Assets/js
ERROR - 2020-05-04 09:49:48 --> 404 Page Not Found: Css_app/list_non_purchase_order_user.css
ERROR - 2020-05-04 09:49:48 --> 404 Page Not Found: Assets/js
ERROR - 2020-05-04 09:49:48 --> 404 Page Not Found: Css_app/list_non_purchase_order_user.css
ERROR - 2020-05-04 09:53:21 --> 404 Page Not Found: Assets/js
ERROR - 2020-05-04 09:53:23 --> 404 Page Not Found: Css_app/list_non_purchase_order_user.css
ERROR - 2020-05-04 09:53:24 --> 404 Page Not Found: Assets/js
ERROR - 2020-05-04 09:53:24 --> 404 Page Not Found: Css_app/list_non_purchase_order_user.css
ERROR - 2020-05-04 14:54:05 --> Severity: error --> Exception: syntax error, unexpected '1' (T_LNUMBER), expecting ')' D:\htdocs\payment_request\application\models\Spk_User_Model.php 47
ERROR - 2020-05-04 14:54:24 --> Query error: You have an error in your SQL syntax; check the manual that corresponds to your MariaDB server version for the right syntax to use near '*     paa.pyrcodwe}es~p{w_kouam_emount) from prpaymentee~i{aw|mveqyroem ' at line 1 - Invalid query: SELECT `-*select name` `v~om`, `e}~{oo`, `wxor}rkod}`, `pqouqtwetram_zayment`, `p`.`status_s}rv|moo~e|pro~ataq}zovaldate`, `ph`.`sp_esue`, (-*     paa.pyrcodwe}es~p{w_kouam_emount) from prpaymentee~i{aw|mveqyroem = r?r}zcode-*         ordmrto}a|aoountm_K limit 1-*  pa.status {tquw~gonmkation, `pms`.`vendor_name`, (
                CASE p.status_approval_payment 
                    WHEN "" THEN "OPEN"
                END
            ) status_approval_payment_all, (
                SELECT ih.requester_code 
                FROM 
                    pr_detail pd LEFT JOIN 
                    ir_header ih ON pd.ir_code = ih.ir_code
                WHERE 
                    pd.pr_code = p.pr_code
                limit 1
            ) user_ir, (
                SELECT 
                    CONCAT( paa.payment_type
FROM `pr_payment_header` `p`
JOIN `pr_header` `ph` ON `p`.`pr_code` = `ph`.`pr_code`
JOIN `pr_ms_vendor` `pms` ON `p`.`vendor_code` = `pms`.`nav_code` AND `p`.`company_code` = `pms`.`company_code`
LEFT JOIN `pr_payment_approval` `pa` ON `p`.`pyr_code` = `pa`.`pyr_code`
WHERE `p`.`spk_no` != ''
AND `p`.`po_no` IS NULL
AND `pa`.`approved_by` = 'C02760438'
AND `pa`.`is_active_approval` = '1'
AND 
            (
                SELECT ih.requester_code 
                FROM 
                    pr_detail pd LEFT JOIN 
                    ir_header ih ON pd.ir_code = ih.ir_code
                WHERE 
                    pd.pr_code = p.pr_code
                limit 1
            ) = 'C02760438'
        
ORDER BY `p`.`pyr_code` DESC
 LIMIT 10
ERROR - 2020-05-04 10:02:44 --> 404 Page Not Found: Assets/js
ERROR - 2020-05-04 15:02:46 --> Severity: error --> Exception: syntax error, unexpected ''' (T_CONSTANT_ENCAPSED_STRING), expecting ')' D:\htdocs\payment_request\application\models\Spk_User_Model.php 46
ERROR - 2020-05-04 10:03:06 --> 404 Page Not Found: Assets/js
ERROR - 2020-05-04 10:03:08 --> 404 Page Not Found: Css_app/list_non_purchase_order_user.css
ERROR - 2020-05-04 10:03:08 --> 404 Page Not Found: Assets/js
ERROR - 2020-05-04 10:03:08 --> 404 Page Not Found: Css_app/list_non_purchase_order_user.css
ERROR - 2020-05-04 10:11:35 --> 404 Page Not Found: Assets/js
ERROR - 2020-05-04 10:11:42 --> 404 Page Not Found: Assets/js
ERROR - 2020-05-04 10:11:45 --> 404 Page Not Found: Assets/js
ERROR - 2020-05-04 10:11:46 --> 404 Page Not Found: Css_app/list_non_purchase_order_user.css
ERROR - 2020-05-04 10:11:46 --> 404 Page Not Found: Assets/js
ERROR - 2020-05-04 10:11:46 --> 404 Page Not Found: Css_app/list_non_purchase_order_user.css
ERROR - 2020-05-04 15:11:47 --> Query error: You have an error in your SQL syntax; check the manual that corresponds to your MariaDB server version for the right syntax to use near ')
                FROM pr_payment_approval paa
                WHERE  
      ' at line 24 - Invalid query: SELECT `p`.`id`, `p`.`spk_no`, `p`.`pyr_code`, `p`.`status_approval_payment`, `p`.`status_approval_finance`, `p`.`last_approval_date`, `ph`.`spk_date`, (
                SELECT SUM(total_amount) FROM pr_payment_detail WHERE pyr_code = p.pyr_code
            ) total_amount, `pa`.`status` `status_verification`, `pms`.`Vendor_name`, (
                CASE p.status_approval_payment 
                    WHEN "" THEN "OPEN"
                END
            ) status_approval_payment_all, (
                SELECT ih.requester_code 
                FROM 
                    pr_detail pd LEFT JOIN 
                    ir_header ih ON pd.ir_code = ih.ir_code
                WHERE 
                    pd.pr_code = p.pr_code
                limit 1
            ) user_ir, (
                SELECT 
                    (
                        CASE 
                            WHEN paa.status = "1" THEN 
                                CASE 
                                    WHEN paa.status_approval_payment != 20 THEN "Verification"
                            ELSE ""
                        END
                    )
                FROM pr_payment_approval paa
                WHERE  
                    paa.pyr_code = p.pyr_code AND
                    paa.is_active_approval = "1"
                ORDER BY paa.id DESC LIMIT 1
            ) pending_on
FROM `pr_payment_header` `p`
JOIN `pr_header` `ph` ON `p`.`pr_code` = `ph`.`pr_code`
JOIN `pr_ms_vendor` `pms` ON `p`.`vendor_code` = `pms`.`nav_code` AND `p`.`company_code` = `pms`.`company_code`
LEFT JOIN `pr_payment_approval` `pa` ON `p`.`pyr_code` = `pa`.`pyr_code`
WHERE `p`.`spk_no` != ''
AND `p`.`po_no` IS NULL
AND `pa`.`approved_by` = 'C02760438'
AND `pa`.`is_active_approval` = '1'
AND 
            (
                SELECT ih.requester_code 
                FROM 
                    pr_detail pd LEFT JOIN 
                    ir_header ih ON pd.ir_code = ih.ir_code
                WHERE 
                    pd.pr_code = p.pr_code
                limit 1
            ) = 'C02760438'
        
 LIMIT 10
ERROR - 2020-05-04 10:12:38 --> 404 Page Not Found: Assets/js
ERROR - 2020-05-04 10:12:39 --> 404 Page Not Found: Css_app/list_non_purchase_order_user.css
ERROR - 2020-05-04 10:12:39 --> 404 Page Not Found: Assets/js
ERROR - 2020-05-04 10:12:39 --> 404 Page Not Found: Css_app/list_non_purchase_order_user.css
ERROR - 2020-05-04 15:12:40 --> Severity: Notice --> Undefined property: stdClass::$pending_on D:\htdocs\payment_request\application\controllers\Spk_Trans.php 219
ERROR - 2020-05-04 10:13:19 --> 404 Page Not Found: Assets/js
ERROR - 2020-05-04 10:13:21 --> 404 Page Not Found: Css_app/list_non_purchase_order_user.css
ERROR - 2020-05-04 10:13:21 --> 404 Page Not Found: Assets/js
ERROR - 2020-05-04 10:13:21 --> 404 Page Not Found: Css_app/list_non_purchase_order_user.css
ERROR - 2020-05-04 10:13:36 --> 404 Page Not Found: Assets/vendors
ERROR - 2020-05-04 10:13:36 --> 404 Page Not Found: Assets/vendors
ERROR - 2020-05-04 10:13:36 --> 404 Page Not Found: Assets/vendors
ERROR - 2020-05-04 10:13:36 --> 404 Page Not Found: Assets/vendors
ERROR - 2020-05-04 10:13:36 --> 404 Page Not Found: Assets/vendors
ERROR - 2020-05-04 10:13:36 --> 404 Page Not Found: Assets/vendors
ERROR - 2020-05-04 10:13:36 --> 404 Page Not Found: Assets/vendors
ERROR - 2020-05-04 15:14:54 --> Severity: Warning --> unlink(assets/document_payment/200504/): Is a directory D:\htdocs\payment_request\application\controllers\Spk_Trans.php 645
ERROR - 2020-05-04 15:15:07 --> Severity: Warning --> unlink(assets/document_payment/200504/): Is a directory D:\htdocs\payment_request\application\controllers\Spk_Trans.php 645
ERROR - 2020-05-04 15:15:11 --> Severity: Notice --> Undefined variable: creator D:\htdocs\payment_request\application\models\Payment_Approval_Model.php 65
ERROR - 2020-05-04 10:16:16 --> 404 Page Not Found: Assets/js
ERROR - 2020-05-04 10:16:17 --> 404 Page Not Found: Css_app/list_non_purchase_order_user.css
ERROR - 2020-05-04 10:16:18 --> 404 Page Not Found: Assets/js
ERROR - 2020-05-04 10:16:18 --> 404 Page Not Found: Css_app/list_non_purchase_order_user.css
ERROR - 2020-05-04 15:18:09 --> Severity: Notice --> Undefined property: stdClass::$use D:\htdocs\payment_request\application\controllers\Spk_Trans.php 188
ERROR - 2020-05-04 10:18:38 --> 404 Page Not Found: Assets/js
ERROR - 2020-05-04 10:18:40 --> 404 Page Not Found: Css_app/list_non_purchase_order_user.css
ERROR - 2020-05-04 10:18:40 --> 404 Page Not Found: Assets/js
ERROR - 2020-05-04 10:18:40 --> 404 Page Not Found: Css_app/list_non_purchase_order_user.css
ERROR - 2020-05-04 10:18:42 --> 404 Page Not Found: Assets/js
ERROR - 2020-05-04 10:18:57 --> 404 Page Not Found: Css_app/list_non_purchase_order_user.css
ERROR - 2020-05-04 10:18:58 --> 404 Page Not Found: Assets/js
ERROR - 2020-05-04 10:18:58 --> 404 Page Not Found: Css_app/list_non_purchase_order_user.css
ERROR - 2020-05-04 15:27:53 --> Query error: Unknown column 'paa.approved_by' in 'where clause' - Invalid query: SELECT `p`.`id`, `p`.`spk_no`, `p`.`pyr_code`, `p`.`status_approval_payment`, `p`.`status_approval_finance`, `p`.`last_approval_date`, `ph`.`spk_date`, (
                SELECT SUM(total_amount) FROM pr_payment_detail WHERE pyr_code = p.pyr_code
            ) total_amount, `pa`.`status` `status_verification`, `pms`.`Vendor_name`, (
                CASE p.status_approval_payment 
                    WHEN "" THEN "OPEN"
                END
            ) status_approval_payment_all, (
                SELECT ih.requester_code 
                FROM 
                    pr_detail pd LEFT JOIN 
                    ir_header ih ON pd.ir_code = ih.ir_code
                WHERE 
                    pd.pr_code = p.pr_code
                limit 1
            ) user_ir, (
                CASE p.status_approval_payment 
                    WHEN 10 THEN CONCAT( "Verification Data", "|", (SELECT name FROM employee  WHERE nik = paa.approved_by) )
                    ELSE ""
                END
            ) pending_on
FROM `pr_payment_header` `p`
JOIN `pr_header` `ph` ON `p`.`pr_code` = `ph`.`pr_code`
JOIN `pr_ms_vendor` `pms` ON `p`.`vendor_code` = `pms`.`nav_code` AND `p`.`company_code` = `pms`.`company_code`
LEFT JOIN `pr_payment_approval` `pa` ON `p`.`pyr_code` = `pa`.`pyr_code`
WHERE `p`.`spk_no` != ''
AND `p`.`po_no` IS NULL
AND `pa`.`approved_by` = 'C06710006'
AND `pa`.`is_active_approval` = '1'
AND 
            (
                SELECT ih.requester_code 
                FROM 
                    pr_detail pd LEFT JOIN 
                    ir_header ih ON pd.ir_code = ih.ir_code
                WHERE 
                    pd.pr_code = p.pr_code
                limit 1
            ) = 'C06710006'
        
ORDER BY `p`.`sj_no` ASC
 LIMIT 10
ERROR - 2020-05-04 10:31:08 --> 404 Page Not Found: Assets/js
ERROR - 2020-05-04 10:31:10 --> 404 Page Not Found: Assets/js
ERROR - 2020-05-04 10:33:17 --> 404 Page Not Found: Assets/js
ERROR - 2020-05-04 10:33:18 --> 404 Page Not Found: Css_app/list_non_purchase_order_user.css
ERROR - 2020-05-04 10:33:18 --> 404 Page Not Found: Assets/js
ERROR - 2020-05-04 10:33:18 --> 404 Page Not Found: Css_app/list_non_purchase_order_user.css
ERROR - 2020-05-04 10:35:59 --> 404 Page Not Found: Assets/js
ERROR - 2020-05-04 10:36:00 --> 404 Page Not Found: Assets/js
ERROR - 2020-05-04 10:36:30 --> 404 Page Not Found: Assets/js
ERROR - 2020-05-04 10:36:39 --> 404 Page Not Found: Assets/js
ERROR - 2020-05-04 15:39:09 --> Query error: You have an error in your SQL syntax; check the manual that corresponds to your MariaDB server version for the right syntax to use near 'WHERE paa.pyr_code = p.pyr_code ORDER BY paa.id DESC LIMIT 1)
                 ' at line 13 - Invalid query: SELECT `p`.*, `pms`.`Vendor_name`, `ph`.`pic`, `pa`.`status` `status_verification`, (
                SELECT ih.requester_code 
                FROM 
                    pr_detail pd LEFT JOIN 
                    ir_header ih ON pd.ir_code = ih.ir_code
                WHERE 
                    pd.pr_code = p.pr_code
                limit 1
            )   user_ir, `pa`.`approved_by` `approved_by_approval`, (
                CASE p.status_approval_payment 
                    WHEN 10 THEN 
                        CONCAT( 
                            'Verification Data', '|', (SELECT ee.name FROM pr_payment_approval paa LEFT JOIN employee ee WHERE paa.pyr_code = p.pyr_code ORDER BY paa.id DESC LIMIT 1)
                    ELSE ''
                END
            ) pending_on
FROM `pr_payment_header` `p`
JOIN `pr_header` `ph` ON `p`.`pr_code` = `ph`.`pr_code`
JOIN `pr_ms_vendor` `pms` ON `p`.`vendor_code` = `pms`.`nav_code` AND `p`.`company_code` = `pms`.`company_code`
LEFT JOIN `pr_payment_approval` `pa` ON `p`.`pyr_code` = `pa`.`pyr_code`
WHERE `p`.`spk_no` != ''
AND `p`.`po_no` IS NULL
AND `ph`.`status_approval` = '20'
AND `pa`.`approved_by` = 'C11850528'
AND `pa`.`is_active_approval` = '1'
AND `pa`.`sequence_name` != 'user'
ORDER BY `p`.`sj_no` ASC
 LIMIT 10
ERROR - 2020-05-04 15:40:28 --> Query error: You have an error in your SQL syntax; check the manual that corresponds to your MariaDB server version for the right syntax to use near 'WHERE paa.pyr_code = p.pyr_code ORDER BY paa.id DESC LIMIT 1))
                ' at line 13 - Invalid query: SELECT `p`.*, `pms`.`Vendor_name`, `ph`.`pic`, `pa`.`status` `status_verification`, (
                SELECT ih.requester_code 
                FROM 
                    pr_detail pd LEFT JOIN 
                    ir_header ih ON pd.ir_code = ih.ir_code
                WHERE 
                    pd.pr_code = p.pr_code
                limit 1
            )   user_ir, `pa`.`approved_by` `approved_by_approval`, (
                CASE p.status_approval_payment 
                    WHEN 10 THEN 
                        CONCAT( 
                            'Verification Data', '|', (SELECT ee.name FROM pr_payment_approval paa LEFT JOIN employee ee WHERE paa.pyr_code = p.pyr_code ORDER BY paa.id DESC LIMIT 1))
                    ELSE ''
                END
            ) pending_on
FROM `pr_payment_header` `p`
JOIN `pr_header` `ph` ON `p`.`pr_code` = `ph`.`pr_code`
JOIN `pr_ms_vendor` `pms` ON `p`.`vendor_code` = `pms`.`nav_code` AND `p`.`company_code` = `pms`.`company_code`
LEFT JOIN `pr_payment_approval` `pa` ON `p`.`pyr_code` = `pa`.`pyr_code`
WHERE `p`.`spk_no` != ''
AND `p`.`po_no` IS NULL
AND `ph`.`status_approval` = '20'
AND `pa`.`approved_by` = 'C11850528'
AND `pa`.`is_active_approval` = '1'
AND `pa`.`sequence_name` != 'user'
ORDER BY `pms`.`Vendor_name` DESC
 LIMIT 10
ERROR - 2020-05-04 15:40:59 --> Query error: You have an error in your SQL syntax; check the manual that corresponds to your MariaDB server version for the right syntax to use near 'WHERE paa.pyr_code = p.pyr_code ORDER BY paa.id DESC LIMIT 1) )
               ' at line 13 - Invalid query: SELECT `p`.*, `pms`.`Vendor_name`, `ph`.`pic`, `pa`.`status` `status_verification`, (
                SELECT ih.requester_code 
                FROM 
                    pr_detail pd LEFT JOIN 
                    ir_header ih ON pd.ir_code = ih.ir_code
                WHERE 
                    pd.pr_code = p.pr_code
                limit 1
            )   user_ir, `pa`.`approved_by` `approved_by_approval`, (
                CASE p.status_approval_payment 
                    WHEN 10 THEN 
                        CONCAT( 
                            'Verification Data', '|', (SELECT ee.name FROM pr_payment_approval paa LEFT JOIN employee ee WHERE paa.pyr_code = p.pyr_code ORDER BY paa.id DESC LIMIT 1) )
                    ELSE ''
                END
            ) pending_on
FROM `pr_payment_header` `p`
JOIN `pr_header` `ph` ON `p`.`pr_code` = `ph`.`pr_code`
JOIN `pr_ms_vendor` `pms` ON `p`.`vendor_code` = `pms`.`nav_code` AND `p`.`company_code` = `pms`.`company_code`
LEFT JOIN `pr_payment_approval` `pa` ON `p`.`pyr_code` = `pa`.`pyr_code`
WHERE `p`.`spk_no` != ''
AND `p`.`po_no` IS NULL
AND `ph`.`status_approval` = '20'
AND `pa`.`approved_by` = 'C11850528'
AND `pa`.`is_active_approval` = '1'
AND `pa`.`sequence_name` != 'user'
ORDER BY `pms`.`Vendor_name` ASC
 LIMIT 10
ERROR - 2020-05-04 10:46:52 --> 404 Page Not Found: Assets/js
ERROR - 2020-05-04 10:46:54 --> 404 Page Not Found: Assets/js
ERROR - 2020-05-04 10:46:58 --> 404 Page Not Found: Assets/js
ERROR - 2020-05-04 10:47:04 --> 404 Page Not Found: Assets/js
ERROR - 2020-05-04 10:49:05 --> 404 Page Not Found: Assets/js
ERROR - 2020-05-04 10:49:07 --> 404 Page Not Found: Assets/js
ERROR - 2020-05-04 10:49:10 --> 404 Page Not Found: Assets/js
ERROR - 2020-05-04 10:49:16 --> 404 Page Not Found: Assets/js
ERROR - 2020-05-04 10:51:14 --> 404 Page Not Found: Assets/js
ERROR - 2020-05-04 10:51:15 --> 404 Page Not Found: Assets/js
ERROR - 2020-05-04 10:52:36 --> 404 Page Not Found: Assets/js
ERROR - 2020-05-04 10:52:42 --> 404 Page Not Found: Assets/js
ERROR - 2020-05-04 10:53:04 --> 404 Page Not Found: Assets/js
ERROR - 2020-05-04 10:53:05 --> 404 Page Not Found: Assets/js
ERROR - 2020-05-04 10:53:42 --> 404 Page Not Found: Assets/js
ERROR - 2020-05-04 10:53:44 --> 404 Page Not Found: Css_app/list_non_purchase_order_user.css
ERROR - 2020-05-04 10:53:45 --> 404 Page Not Found: Assets/js
ERROR - 2020-05-04 10:53:45 --> 404 Page Not Found: Css_app/list_non_purchase_order_user.css
ERROR - 2020-05-04 15:54:37 --> Severity: Notice --> Undefined offset: 5 D:\htdocs\payment_request\application\models\Spk_User_Model.php 109
ERROR - 2020-05-04 15:54:37 --> Severity: Notice --> Undefined offset: 5 D:\htdocs\payment_request\application\models\Spk_User_Model.php 109
ERROR - 2020-05-04 10:57:42 --> 404 Page Not Found: Assets/js
ERROR - 2020-05-04 10:57:45 --> 404 Page Not Found: Assets/js
ERROR - 2020-05-04 10:58:23 --> 404 Page Not Found: Assets/js
ERROR - 2020-05-04 10:58:24 --> 404 Page Not Found: Assets/js
ERROR - 2020-05-04 10:58:27 --> 404 Page Not Found: Assets/js
ERROR - 2020-05-04 10:58:30 --> 404 Page Not Found: Assets/js
ERROR - 2020-05-04 10:58:49 --> 404 Page Not Found: Assets/js
ERROR - 2020-05-04 10:58:53 --> 404 Page Not Found: Assets/js
ERROR - 2020-05-04 10:59:23 --> 404 Page Not Found: Assets/js
ERROR - 2020-05-04 10:59:26 --> 404 Page Not Found: Assets/js
ERROR - 2020-05-04 10:59:48 --> 404 Page Not Found: Assets/js
ERROR - 2020-05-04 11:00:00 --> 404 Page Not Found: Assets/js
ERROR - 2020-05-04 11:04:09 --> 404 Page Not Found: Assets/js
ERROR - 2020-05-04 11:04:11 --> 404 Page Not Found: Assets/js
ERROR - 2020-05-04 11:05:52 --> 404 Page Not Found: Assets/js
ERROR - 2020-05-04 11:05:54 --> 404 Page Not Found: Assets/js
ERROR - 2020-05-04 11:07:34 --> 404 Page Not Found: Assets/js
ERROR - 2020-05-04 11:07:36 --> 404 Page Not Found: Assets/js
ERROR - 2020-05-04 11:26:23 --> 404 Page Not Found: Assets/js
ERROR - 2020-05-04 11:26:43 --> 404 Page Not Found: Assets/js
ERROR - 2020-05-04 11:29:41 --> 404 Page Not Found: Assets/js
ERROR - 2020-05-04 11:29:42 --> 404 Page Not Found: Assets/js
ERROR - 2020-05-04 11:30:51 --> 404 Page Not Found: Assets/js
ERROR - 2020-05-04 11:30:52 --> 404 Page Not Found: Assets/js
ERROR - 2020-05-04 11:32:08 --> 404 Page Not Found: Assets/js
ERROR - 2020-05-04 11:32:16 --> 404 Page Not Found: Assets/js
ERROR - 2020-05-04 16:37:06 --> Query error: You have an error in your SQL syntax; check the manual that corresponds to your MariaDB server version for the right syntax to use near ')
                    ELSE ''
                END
            ) pending_on
FR' at line 31 - Invalid query: SELECT `p`.`id`, `p`.`spk_no`, `p`.`pyr_code`, `p`.`status_approval_payment`, `p`.`status_approval_finance`, `p`.`last_approval_date`, `ph`.`spk_date`, (
                SELECT SUM(total_amount) FROM pr_payment_detail WHERE pyr_code = p.pyr_code
            ) total_amount, `pa`.`status` `status_verification`, `pms`.`Vendor_name`, (
                CASE p.status_approval_payment 
                    WHEN '' THEN 'OPEN'
                END
            ) status_approval_payment_all, (
                SELECT ih.requester_code 
                FROM 
                    pr_detail pd LEFT JOIN 
                    ir_header ih ON pd.ir_code = ih.ir_code
                WHERE 
                    pd.pr_code = p.pr_code
                limit 1
            ) user_ir, (
                CASE 
                    WHEN p.status_approval_payment = 10 THEN 
                        CONCAT( 
                            'Verification Data', '|', (SELECT ee.name FROM pr_payment_approval paa LEFT JOIN employee ee ON paa.approved_by = ee.nik WHERE paa.pyr_code = p.pyr_code AND paa.status = '2' ORDER BY paa.id DESC LIMIT 1) 
                    )
                    WHEN p.status_approval_payment = 25 THEN CONCAT('Verification Data', '|', 'AP STAFF')
                    WHEN p.status_approval_payment = 15 THEN
                        CONCAT( 
                            'Approval Procurement', '|', (SELECT ee.name FROM pr_payment_approval paa LEFT JOIN employee ee ON paa.approved_by = ee.nik WHERE paa.pyr_code = p.pyr_code AND paa.status = '2' ORDER BY paa.id DESC LIMIT 1) 
                    )
                    WHEN p.status_approval_finance = 10 THEN CONCAT('Final Payment Confirmation', '|', 'FINANCE')
                    WHEN p.status_approval_finance = 30 THEN CONCAT(
                        'Final Revise User', '|', (SELECT ee.name FROM pr_payment_approval paa LEFT JOIN employee ee ON paa.approved_by = ee.nik WHERE paa.pyr_code = p.pyr_code AND paa.sequence_name = 'user' ORDER BY paa.id DESC LIMIT 1) 
                    )
                    WHEN p.status_approval_finance = 40 THEN CONCAT('Final Revise Vendor', '|', 'Vendor') 
                    )
                    ELSE ''
                END
            ) pending_on
FROM `pr_payment_header` `p`
JOIN `pr_header` `ph` ON `p`.`pr_code` = `ph`.`pr_code`
JOIN `pr_ms_vendor` `pms` ON `p`.`vendor_code` = `pms`.`nav_code` AND `p`.`company_code` = `pms`.`company_code`
LEFT JOIN `pr_payment_approval` `pa` ON `p`.`pyr_code` = `pa`.`pyr_code`
WHERE `p`.`spk_no` != ''
AND `p`.`po_no` IS NULL
AND `pa`.`approved_by` = 'C06710006'
AND `pa`.`is_active_approval` = '1'
AND 
            (
                SELECT ih.requester_code 
                FROM 
                    pr_detail pd LEFT JOIN 
                    ir_header ih ON pd.ir_code = ih.ir_code
                WHERE 
                    pd.pr_code = p.pr_code
                limit 1
            ) = 'C06710006'
        
ORDER BY `pms`.`Vendor_name` ASC
 LIMIT 10
ERROR - 2020-05-04 11:37:25 --> 404 Page Not Found: Assets/js
ERROR - 2020-05-04 11:37:27 --> 404 Page Not Found: Assets/js
ERROR - 2020-05-04 16:37:39 --> Severity: Notice --> Undefined offset: 1 D:\htdocs\payment_request\application\controllers\Spk_Trans.php 118
ERROR - 2020-05-04 16:37:39 --> Severity: Notice --> Undefined offset: 1 D:\htdocs\payment_request\application\controllers\Spk_Trans.php 118
ERROR - 2020-05-04 16:37:39 --> Severity: Notice --> Undefined offset: 1 D:\htdocs\payment_request\application\controllers\Spk_Trans.php 118
ERROR - 2020-05-04 16:37:39 --> Severity: Notice --> Undefined offset: 1 D:\htdocs\payment_request\application\controllers\Spk_Trans.php 118
ERROR - 2020-05-04 16:37:39 --> Severity: Notice --> Undefined offset: 1 D:\htdocs\payment_request\application\controllers\Spk_Trans.php 118
ERROR - 2020-05-04 17:01:33 --> Severity: Notice --> Undefined offset: 7 D:\htdocs\payment_request\application\models\Spk_User_Model.php 116
ERROR - 2020-05-04 17:01:33 --> Severity: Notice --> Undefined offset: 7 D:\htdocs\payment_request\application\models\Spk_User_Model.php 116
