ERROR - 2020-06-25 03:07:15 --> 404 Page Not Found: Assets/vendors
ERROR - 2020-06-25 03:07:15 --> 404 Page Not Found: Assets/vendors
ERROR - 2020-06-25 03:07:15 --> 404 Page Not Found: Assets/vendors
ERROR - 2020-06-25 03:07:15 --> 404 Page Not Found: Assets/vendors
ERROR - 2020-06-25 03:07:15 --> 404 Page Not Found: Assets/vendors
ERROR - 2020-06-25 03:07:15 --> 404 Page Not Found: Assets/vendors
ERROR - 2020-06-25 03:07:15 --> 404 Page Not Found: Assets/vendors
ERROR - 2020-06-25 03:07:15 --> 404 Page Not Found: Assets/vendors
ERROR - 2020-06-25 03:07:25 --> 404 Page Not Found: Assets/vendors
ERROR - 2020-06-25 03:07:25 --> 404 Page Not Found: Assets/vendors
ERROR - 2020-06-25 03:07:25 --> 404 Page Not Found: Assets/vendors
ERROR - 2020-06-25 03:07:25 --> 404 Page Not Found: Assets/vendors
ERROR - 2020-06-25 03:07:25 --> 404 Page Not Found: Assets/vendors
ERROR - 2020-06-25 03:07:25 --> 404 Page Not Found: Assets/vendors
ERROR - 2020-06-25 03:07:25 --> 404 Page Not Found: Assets/vendors
ERROR - 2020-06-25 08:36:36 --> Severity: Notice --> Undefined variable: username_ir D:\htdocs\payment_request\application\models\Internal_Payment_Request_Model.php 476
ERROR - 2020-06-25 10:43:44 --> Severity: Compile Error --> Cannot redeclare Internal_Payment_Request_Model::getFlowApprovalInternalPaymentRequest() D:\htdocs\payment_request\application\models\Internal_Payment_Request_Model.php 483
ERROR - 2020-06-25 10:44:02 --> Query error: No tables used - Invalid query: SELECT *
ERROR - 2020-06-25 10:44:13 --> Query error: No tables used - Invalid query: SELECT *
ERROR - 2020-06-25 10:45:16 --> Query error: No tables used - Invalid query: SELECT *
ERROR - 2020-06-25 11:35:26 --> Severity: error --> Exception: Call to a member function row() on null D:\htdocs\payment_request\application\controllers\Internal_Payment_Request.php 1416
ERROR - 2020-06-25 11:36:01 --> Severity: Notice --> Trying to get property 'total_amount' of non-object D:\htdocs\payment_request\application\controllers\Internal_Payment_Request.php 1418
ERROR - 2020-06-25 11:36:29 --> Severity: error --> Exception: Call to a member function row() on null D:\htdocs\payment_request\application\controllers\Internal_Payment_Request.php 1416
ERROR - 2020-06-25 11:36:50 --> Severity: 4096 --> Object of class stdClass could not be converted to string D:\htdocs\payment_request\application\controllers\Internal_Payment_Request.php 1375
ERROR - 2020-06-25 11:36:57 --> Severity: 4096 --> Object of class stdClass could not be converted to string D:\htdocs\payment_request\application\controllers\Internal_Payment_Request.php 1375
