ERROR - 2020-04-17 03:32:34 --> 404 Page Not Found: Assets/vendors
ERROR - 2020-04-17 03:32:34 --> 404 Page Not Found: Assets/vendors
ERROR - 2020-04-17 03:32:34 --> 404 Page Not Found: Assets/vendors
ERROR - 2020-04-17 03:32:34 --> 404 Page Not Found: Assets/vendors
ERROR - 2020-04-17 03:32:34 --> 404 Page Not Found: Assets/vendors
ERROR - 2020-04-17 03:32:35 --> 404 Page Not Found: Assets/vendors
ERROR - 2020-04-17 03:32:35 --> 404 Page Not Found: Assets/vendors
ERROR - 2020-04-17 03:32:35 --> 404 Page Not Found: Assets/vendors
ERROR - 2020-04-17 03:32:35 --> 404 Page Not Found: Faviconico/index
ERROR - 2020-04-17 04:57:58 --> 404 Page Not Found: Assets/js
ERROR - 2020-04-17 04:58:02 --> 404 Page Not Found: Assets/js
ERROR - 2020-04-17 04:58:51 --> 404 Page Not Found: Assets/vendors
ERROR - 2020-04-17 04:58:51 --> 404 Page Not Found: Assets/vendors
ERROR - 2020-04-17 04:58:51 --> 404 Page Not Found: Assets/vendors
ERROR - 2020-04-17 04:58:51 --> 404 Page Not Found: Assets/vendors
ERROR - 2020-04-17 04:58:51 --> 404 Page Not Found: Assets/vendors
ERROR - 2020-04-17 04:58:51 --> 404 Page Not Found: Assets/vendors
ERROR - 2020-04-17 04:58:51 --> 404 Page Not Found: Assets/vendors
ERROR - 2020-04-17 04:58:51 --> 404 Page Not Found: Assets/vendors
ERROR - 2020-04-17 08:19:30 --> 404 Page Not Found: Assets/vendors
ERROR - 2020-04-17 08:19:30 --> 404 Page Not Found: Assets/vendors
ERROR - 2020-04-17 08:19:30 --> 404 Page Not Found: Assets/vendors
ERROR - 2020-04-17 08:19:30 --> 404 Page Not Found: Assets/vendors
ERROR - 2020-04-17 08:19:30 --> 404 Page Not Found: Assets/vendors
ERROR - 2020-04-17 08:19:30 --> 404 Page Not Found: Assets/vendors
ERROR - 2020-04-17 08:19:30 --> 404 Page Not Found: Assets/vendors
ERROR - 2020-04-17 13:21:42 --> Severity: Warning --> unlink(assets/document_payment/200417/): Is a directory D:\htdocs\payment_request\application\controllers\Spk_Trans.php 593
ERROR - 2020-04-17 13:22:18 --> Severity: Warning --> unlink(assets/document_payment/200417/): Is a directory D:\htdocs\payment_request\application\controllers\Spk_Trans.php 593
ERROR - 2020-04-17 13:27:26 --> Severity: Notice --> Undefined variable: creator D:\htdocs\payment_request\application\models\Payment_Approval_Model.php 65
ERROR - 2020-04-17 08:29:44 --> 404 Page Not Found: Assets/js
ERROR - 2020-04-17 08:29:46 --> 404 Page Not Found: Assets/js
ERROR - 2020-04-17 08:29:48 --> 404 Page Not Found: Assets/js
ERROR - 2020-04-17 08:29:50 --> 404 Page Not Found: Assets/js
ERROR - 2020-04-17 08:29:52 --> 404 Page Not Found: Assets/js
ERROR - 2020-04-17 08:50:45 --> 404 Page Not Found: Assets/js
ERROR - 2020-04-17 08:50:48 --> 404 Page Not Found: Assets/js
ERROR - 2020-04-17 08:50:51 --> 404 Page Not Found: Assets/js
ERROR - 2020-04-17 08:50:55 --> 404 Page Not Found: Assets/js
ERROR - 2020-04-17 08:50:58 --> 404 Page Not Found: Assets/js
ERROR - 2020-04-17 08:51:00 --> 404 Page Not Found: Assets/js
ERROR - 2020-04-17 08:51:02 --> 404 Page Not Found: Assets/js
ERROR - 2020-04-17 08:54:04 --> 404 Page Not Found: Assets/js
ERROR - 2020-04-17 09:09:01 --> 404 Page Not Found: Assets/js
ERROR - 2020-04-17 09:10:22 --> 404 Page Not Found: Assets/js
ERROR - 2020-04-17 09:10:58 --> 404 Page Not Found: Assets/js
ERROR - 2020-04-17 09:11:02 --> 404 Page Not Found: Css_app/list_non_purchase_order_user.css
ERROR - 2020-04-17 09:11:02 --> 404 Page Not Found: Assets/js
ERROR - 2020-04-17 09:11:03 --> 404 Page Not Found: Css_app/list_non_purchase_order_user.css
ERROR - 2020-04-17 09:11:35 --> 404 Page Not Found: Assets/js
ERROR - 2020-04-17 09:11:52 --> 404 Page Not Found: Css_app/list_non_purchase_order_user.css
ERROR - 2020-04-17 09:11:52 --> 404 Page Not Found: Assets/js
ERROR - 2020-04-17 09:11:52 --> 404 Page Not Found: Css_app/list_non_purchase_order_user.css
ERROR - 2020-04-17 09:11:58 --> 404 Page Not Found: Assets/js
ERROR - 2020-04-17 09:12:04 --> 404 Page Not Found: Css_app/list_non_purchase_order_user.css
ERROR - 2020-04-17 09:12:05 --> 404 Page Not Found: Assets/js
ERROR - 2020-04-17 09:12:05 --> 404 Page Not Found: Css_app/list_non_purchase_order_user.css
ERROR - 2020-04-17 09:12:12 --> 404 Page Not Found: Assets/js
ERROR - 2020-04-17 09:13:18 --> 404 Page Not Found: Assets/js
ERROR - 2020-04-17 09:14:17 --> 404 Page Not Found: Assets/js
ERROR - 2020-04-17 09:14:19 --> 404 Page Not Found: Assets/js
ERROR - 2020-04-17 09:14:21 --> 404 Page Not Found: Assets/js
ERROR - 2020-04-17 09:14:21 --> 404 Page Not Found: Css_app/list_non_purchase_order_user.css
ERROR - 2020-04-17 09:14:22 --> 404 Page Not Found: Assets/js
ERROR - 2020-04-17 09:14:22 --> 404 Page Not Found: Css_app/list_non_purchase_order_user.css
ERROR - 2020-04-17 14:14:23 --> Query error: Unknown column 'p.budget_code' in 'field list' - Invalid query: SELECT `pd`.`id`, `pd`.`pyr_header_id`, `pd`.`pyr_code`, `pd`.`notes`, `pd`.`unit_price`, `pd`.`quantity`, `pd`.`currency_code`, `pd`.`include_ppn`, `pd`.`rate`, `pd`.`gl_account_code`, `p`.`budget_code`, `pd`.`department_code`, `pd`.`total_amount`, `pd`.`invoice_no`, ( SELECT id_lookup FROM pr_payment_reason WHERE pyr_header_id = pd.pyr_header_id AND id_detail_spk = pd.id AND document_type = "invoice" AND create_by = "C01930370" ) invoice_lookup, `pd`.`invoice_no_att`, `pd`.`invoice_date`, `pd`.`sj_no`, ( SELECT id_lookup FROM pr_payment_reason WHERE pyr_header_id = pd.pyr_header_id AND id_detail_spk = pd.id AND document_type = "surat_jalan" AND create_by = "C01930370" ) sj_lookup, `pd`.`sj_no_att`, `pd`.`faktur_pajak`, ( SELECT id_lookup FROM pr_payment_reason WHERE pyr_header_id = pd.pyr_header_id AND id_detail_spk = pd.id AND document_type = "faktur_pajak" AND create_by = "C01930370" ) faktur_lookup, `pd`.`faktur_pajak_att`, `pd`.`proforma_no`, ( SELECT id_lookup FROM pr_payment_reason WHERE pyr_header_id = pd.pyr_header_id AND id_detail_spk = pd.id AND document_type = "proforma" AND create_by = "C01930370" ) proforma_lookup, `pd`.`proforma_no_att`, `pd`.`other_doc_no`, ( SELECT id_lookup FROM pr_payment_reason WHERE pyr_header_id = pd.pyr_header_id AND id_detail_spk = pd.id AND document_type = "other_doc" AND create_by = "C01930370" ) other_doc_lookup, `pd`.`other_doc_no_att`, `b`.`description` `budget_description`, `b`.`budget_code` `budget_nav_code`, `im`.`kode_nav` `gl_kode_nav`, `im`.`nama_nav` `gl_description`
FROM `pr_payment_detail` `pd`
LEFT JOIN `pr_payment_header` `p` ON `pd`.`pyr_code` = `p`.`pyr_code`
LEFT JOIN `budget` `b` ON `pd`.`budget_code` = `b`.`id`
LEFT JOIN `ir_ms_glaccount` `im` ON `pd`.`gl_account_code` = `im`.`kode_nav` AND `im`.`company_code` = `p`.`company_code`
WHERE `pd`.`pyr_code` = 'TACO/PYRNPO/20040004'
ERROR - 2020-04-17 09:15:38 --> 404 Page Not Found: Assets/js
ERROR - 2020-04-17 09:15:57 --> 404 Page Not Found: Css_app/list_non_purchase_order_user.css
ERROR - 2020-04-17 09:15:57 --> 404 Page Not Found: Assets/js
ERROR - 2020-04-17 09:16:12 --> 404 Page Not Found: Assets/js
ERROR - 2020-04-17 09:16:14 --> 404 Page Not Found: Assets/js
ERROR - 2020-04-17 09:16:16 --> 404 Page Not Found: Assets/js
ERROR - 2020-04-17 09:16:17 --> 404 Page Not Found: Css_app/list_non_purchase_order_user.css
ERROR - 2020-04-17 09:16:17 --> 404 Page Not Found: Assets/js
ERROR - 2020-04-17 09:16:17 --> 404 Page Not Found: Css_app/list_non_purchase_order_user.css
ERROR - 2020-04-17 09:22:26 --> 404 Page Not Found: Assets/js
ERROR - 2020-04-17 09:22:39 --> 404 Page Not Found: Assets/js
ERROR - 2020-04-17 09:22:40 --> 404 Page Not Found: Assets/js
ERROR - 2020-04-17 09:22:42 --> 404 Page Not Found: Assets/js
ERROR - 2020-04-17 09:23:18 --> 404 Page Not Found: Assets/js
ERROR - 2020-04-17 09:23:50 --> 404 Page Not Found: Assets/js
ERROR - 2020-04-17 09:24:02 --> 404 Page Not Found: Assets/js
ERROR - 2020-04-17 09:24:03 --> 404 Page Not Found: Assets/js
ERROR - 2020-04-17 09:24:06 --> 404 Page Not Found: Assets/js
ERROR - 2020-04-17 09:24:08 --> 404 Page Not Found: Assets/js
ERROR - 2020-04-17 09:27:00 --> 404 Page Not Found: Assets/js
ERROR - 2020-04-17 09:27:01 --> 404 Page Not Found: Assets/js
ERROR - 2020-04-17 09:27:04 --> 404 Page Not Found: Assets/js
ERROR - 2020-04-17 14:53:29 --> Query error: No tables used - Invalid query: SELECT *
