ERROR - 2020-03-19 03:57:31 --> Severity: Warning --> mysqli::real_connect(): (HY000/2002): A connection attempt failed because the connected party did not properly respond after a period of time, or established connection failed because connected host has failed to respond.
 D:\htdocs\payment_request\system\database\drivers\mysqli\mysqli_driver.php 201
ERROR - 2020-03-19 03:57:31 --> Unable to connect to the database
ERROR - 2020-03-19 03:58:51 --> 404 Page Not Found: Assets/vendors
ERROR - 2020-03-19 03:58:51 --> 404 Page Not Found: Assets/vendors
ERROR - 2020-03-19 03:58:51 --> 404 Page Not Found: Assets/vendors
ERROR - 2020-03-19 03:58:51 --> 404 Page Not Found: Assets/vendors
ERROR - 2020-03-19 03:58:51 --> 404 Page Not Found: Assets/vendors
ERROR - 2020-03-19 03:58:51 --> 404 Page Not Found: Assets/vendors
ERROR - 2020-03-19 03:58:51 --> 404 Page Not Found: Assets/vendors
ERROR - 2020-03-19 03:58:51 --> 404 Page Not Found: Assets/vendors
ERROR - 2020-03-19 03:58:52 --> 404 Page Not Found: Faviconico/index
ERROR - 2020-03-19 03:59:28 --> 404 Page Not Found: Assets/vendors
ERROR - 2020-03-19 03:59:28 --> 404 Page Not Found: Assets/vendors
ERROR - 2020-03-19 03:59:28 --> 404 Page Not Found: Assets/vendors
ERROR - 2020-03-19 03:59:28 --> 404 Page Not Found: Assets/vendors
ERROR - 2020-03-19 03:59:28 --> 404 Page Not Found: Assets/vendors
ERROR - 2020-03-19 03:59:28 --> 404 Page Not Found: Assets/vendors
ERROR - 2020-03-19 03:59:28 --> 404 Page Not Found: Assets/vendors
ERROR - 2020-03-19 03:59:28 --> 404 Page Not Found: Assets/vendors
ERROR - 2020-03-19 03:59:39 --> 404 Page Not Found: Assets/vendors
ERROR - 2020-03-19 03:59:39 --> 404 Page Not Found: Assets/vendors
ERROR - 2020-03-19 03:59:40 --> 404 Page Not Found: Assets/vendors
ERROR - 2020-03-19 03:59:40 --> 404 Page Not Found: Assets/vendors
ERROR - 2020-03-19 03:59:40 --> 404 Page Not Found: Assets/vendors
ERROR - 2020-03-19 03:59:40 --> 404 Page Not Found: Assets/vendors
ERROR - 2020-03-19 03:59:40 --> 404 Page Not Found: Assets/vendors
ERROR - 2020-03-19 04:06:45 --> 404 Page Not Found: Assets/vendors
ERROR - 2020-03-19 04:06:45 --> 404 Page Not Found: Assets/vendors
ERROR - 2020-03-19 04:06:45 --> 404 Page Not Found: Assets/vendors
ERROR - 2020-03-19 04:06:45 --> 404 Page Not Found: Assets/vendors
ERROR - 2020-03-19 04:06:45 --> 404 Page Not Found: Assets/vendors
ERROR - 2020-03-19 04:06:45 --> 404 Page Not Found: Assets/vendors
ERROR - 2020-03-19 04:06:45 --> 404 Page Not Found: Assets/vendors
ERROR - 2020-03-19 04:06:45 --> 404 Page Not Found: Assets/vendors
ERROR - 2020-03-19 04:06:59 --> 404 Page Not Found: Assets/vendors
ERROR - 2020-03-19 04:06:59 --> 404 Page Not Found: Assets/vendors
ERROR - 2020-03-19 04:06:59 --> 404 Page Not Found: Assets/vendors
ERROR - 2020-03-19 04:06:59 --> 404 Page Not Found: Assets/vendors
ERROR - 2020-03-19 04:06:59 --> 404 Page Not Found: Assets/vendors
ERROR - 2020-03-19 04:06:59 --> 404 Page Not Found: Assets/vendors
ERROR - 2020-03-19 04:06:59 --> 404 Page Not Found: Assets/vendors
ERROR - 2020-03-19 04:06:59 --> 404 Page Not Found: Assets/vendors
ERROR - 2020-03-19 10:09:46 --> Unable to connect to the database
ERROR - 2020-03-19 10:13:51 --> Unable to connect to the database
ERROR - 2020-03-19 10:14:15 --> Unable to connect to the database
ERROR - 2020-03-19 10:14:41 --> Unable to connect to the database
ERROR - 2020-03-19 11:48:52 --> Severity: Notice --> Undefined variable: gr_no D:\htdocs\payment_request\application\controllers\Spk_Trans.php 85
ERROR - 2020-03-19 11:48:52 --> Severity: Notice --> Undefined variable: gr_no D:\htdocs\payment_request\application\controllers\Spk_Trans.php 85
ERROR - 2020-03-19 11:48:52 --> Severity: Notice --> Undefined variable: gr_no D:\htdocs\payment_request\application\controllers\Spk_Trans.php 85
ERROR - 2020-03-19 11:48:52 --> Severity: Notice --> Undefined variable: gr_no D:\htdocs\payment_request\application\controllers\Spk_Trans.php 85
ERROR - 2020-03-19 11:48:52 --> Severity: Notice --> Undefined variable: gr_no D:\htdocs\payment_request\application\controllers\Spk_Trans.php 85
ERROR - 2020-03-19 11:48:52 --> Severity: Notice --> Undefined variable: gr_no D:\htdocs\payment_request\application\controllers\Spk_Trans.php 85
ERROR - 2020-03-19 11:48:52 --> Severity: Notice --> Undefined variable: gr_no D:\htdocs\payment_request\application\controllers\Spk_Trans.php 85
ERROR - 2020-03-19 11:48:52 --> Severity: Notice --> Undefined variable: gr_no D:\htdocs\payment_request\application\controllers\Spk_Trans.php 85
ERROR - 2020-03-19 05:59:05 --> 404 Page Not Found: Assets/js
ERROR - 2020-03-19 06:00:18 --> 404 Page Not Found: Assets/js
ERROR - 2020-03-19 06:00:38 --> 404 Page Not Found: Assets/js
ERROR - 2020-03-19 06:00:47 --> 404 Page Not Found: Assets/js
ERROR - 2020-03-19 12:00:48 --> Query error: You have an error in your SQL syntax; check the manual that corresponds to your MariaDB server version for the right syntax to use near '''
AND `ph`.`status_approval` = '20'
AND `p`.`vendor_code` = 'VLOC-00112'
AND `p' at line 20 - Invalid query: SELECT `p`.*, `pms`.`Vendor_name`, `ph`.`pic`, ( 
                SELECT status FROM pr_payment_approval WHERE pr_payment_header_id = p.id AND sequence_name = "procurement" AND is_active_approval = "1" 
            ) status_procurement, ( 
                SELECT status FROM pr_payment_approval WHERE pr_payment_header_id = p.id AND sequence_name = "ap_staff" AND is_active_approval = "1" 
            ) status_ap_staff, ( 
                SELECT status FROM pr_payment_approval WHERE pr_payment_header_id = p.id AND sequence_name = "manager" AND is_active_approval = "1" 
            ) status_manager, (
                SELECT ih.requester_code 
                FROM 
                    pr_detail pd LEFT JOIN 
                    ir_header ih ON pd.ir_code = ih.ir_code
                WHERE 
                    pd.pr_code = p.pr_code
                limit 1
            )   user_ir
FROM `pr_payment_header` `p`
JOIN `pr_header` `ph` ON `p`.`pr_code` = `ph`.`pr_code`
JOIN `pr_ms_vendor` `pms` ON `p`.`vendor_code` = `pms`.`nav_code` AND `p`.`company_code` = `pms`.`company_code`
WHERE `p`.`spk_no` != ''
AND `p`.`po_no` = `=` ''
AND `ph`.`status_approval` = '20'
AND `p`.`vendor_code` = 'VLOC-00112'
AND `pms`.`Related_information_email` = 'example@gmail.com'
 LIMIT 10
ERROR - 2020-03-19 06:40:27 --> 404 Page Not Found: Assets/js
ERROR - 2020-03-19 06:46:48 --> 404 Page Not Found: Assets/js
ERROR - 2020-03-19 06:46:54 --> 404 Page Not Found: Assets/js
ERROR - 2020-03-19 06:51:18 --> 404 Page Not Found: Assets/js
ERROR - 2020-03-19 06:51:30 --> 404 Page Not Found: Assets/js
ERROR - 2020-03-19 06:53:09 --> 404 Page Not Found: Assets/js
ERROR - 2020-03-19 06:54:01 --> 404 Page Not Found: Assets/js
ERROR - 2020-03-19 06:54:18 --> 404 Page Not Found: Assets/js
ERROR - 2020-03-19 06:54:26 --> 404 Page Not Found: Assets/js
ERROR - 2020-03-19 06:55:28 --> 404 Page Not Found: Assets/js
ERROR - 2020-03-19 06:55:44 --> 404 Page Not Found: Assets/js
ERROR - 2020-03-19 06:55:58 --> 404 Page Not Found: Assets/js
ERROR - 2020-03-19 06:56:09 --> 404 Page Not Found: Assets/js
ERROR - 2020-03-19 06:57:02 --> 404 Page Not Found: Assets/js
ERROR - 2020-03-19 06:57:13 --> 404 Page Not Found: Assets/js
ERROR - 2020-03-19 06:57:20 --> 404 Page Not Found: Assets/js
ERROR - 2020-03-19 06:57:48 --> 404 Page Not Found: Assets/js
ERROR - 2020-03-19 06:57:58 --> 404 Page Not Found: Assets/js
ERROR - 2020-03-19 06:58:07 --> 404 Page Not Found: Assets/js
ERROR - 2020-03-19 06:58:23 --> 404 Page Not Found: Assets/js
ERROR - 2020-03-19 06:58:33 --> 404 Page Not Found: Assets/js
ERROR - 2020-03-19 06:59:18 --> 404 Page Not Found: Assets/js
ERROR - 2020-03-19 06:59:36 --> 404 Page Not Found: Assets/js
ERROR - 2020-03-19 06:59:45 --> 404 Page Not Found: Assets/js
ERROR - 2020-03-19 07:00:05 --> 404 Page Not Found: Assets/js
ERROR - 2020-03-19 07:00:24 --> 404 Page Not Found: Assets/js
ERROR - 2020-03-19 07:00:51 --> 404 Page Not Found: Assets/js
ERROR - 2020-03-19 07:01:03 --> 404 Page Not Found: Assets/js
ERROR - 2020-03-19 07:01:25 --> 404 Page Not Found: Assets/js
ERROR - 2020-03-19 07:01:53 --> 404 Page Not Found: Assets/js
ERROR - 2020-03-19 07:02:26 --> 404 Page Not Found: Assets/js
ERROR - 2020-03-19 07:02:41 --> 404 Page Not Found: Assets/js
ERROR - 2020-03-19 07:02:48 --> 404 Page Not Found: Assets/js
ERROR - 2020-03-19 07:03:01 --> 404 Page Not Found: Assets/js
ERROR - 2020-03-19 07:03:13 --> 404 Page Not Found: Assets/js
ERROR - 2020-03-19 07:03:34 --> 404 Page Not Found: Assets/js
ERROR - 2020-03-19 07:03:44 --> 404 Page Not Found: Assets/js
ERROR - 2020-03-19 07:04:06 --> 404 Page Not Found: Assets/js
ERROR - 2020-03-19 07:04:43 --> 404 Page Not Found: Assets/js
ERROR - 2020-03-19 07:05:39 --> 404 Page Not Found: Assets/js
ERROR - 2020-03-19 07:06:24 --> 404 Page Not Found: Assets/js
ERROR - 2020-03-19 08:20:15 --> 404 Page Not Found: Assets/js
ERROR - 2020-03-19 08:24:34 --> 404 Page Not Found: Assets/js
ERROR - 2020-03-19 08:25:45 --> 404 Page Not Found: Assets/js
ERROR - 2020-03-19 08:26:20 --> 404 Page Not Found: Assets/js
ERROR - 2020-03-19 08:26:29 --> 404 Page Not Found: Assets/js
ERROR - 2020-03-19 08:26:47 --> 404 Page Not Found: Assets/js
ERROR - 2020-03-19 08:26:59 --> 404 Page Not Found: Assets/js
ERROR - 2020-03-19 08:27:27 --> 404 Page Not Found: Assets/js
ERROR - 2020-03-19 08:40:24 --> 404 Page Not Found: Assets/js
ERROR - 2020-03-19 08:40:33 --> 404 Page Not Found: Assets/js
ERROR - 2020-03-19 08:42:32 --> 404 Page Not Found: Assets/js
ERROR - 2020-03-19 14:43:46 --> Severity: error --> Exception: Cannot use object of type stdClass as array D:\htdocs\payment_request\application\views\non_purchase_order\non_purchase_order_edit.php 90
ERROR - 2020-03-19 08:43:57 --> 404 Page Not Found: Assets/js
ERROR - 2020-03-19 08:45:01 --> 404 Page Not Found: Assets/js
ERROR - 2020-03-19 08:45:42 --> 404 Page Not Found: Assets/js
ERROR - 2020-03-19 08:46:12 --> 404 Page Not Found: Assets/js
ERROR - 2020-03-19 08:46:30 --> 404 Page Not Found: Assets/js
ERROR - 2020-03-19 08:47:25 --> 404 Page Not Found: Assets/js
ERROR - 2020-03-19 08:47:50 --> 404 Page Not Found: Assets/js
ERROR - 2020-03-19 08:48:26 --> 404 Page Not Found: Assets/js
ERROR - 2020-03-19 08:48:59 --> 404 Page Not Found: Assets/js
ERROR - 2020-03-19 08:49:19 --> 404 Page Not Found: Assets/js
ERROR - 2020-03-19 08:49:57 --> 404 Page Not Found: Assets/js
ERROR - 2020-03-19 09:02:01 --> 404 Page Not Found: Assets/js
ERROR - 2020-03-19 09:03:11 --> 404 Page Not Found: Assets/js
ERROR - 2020-03-19 09:04:00 --> 404 Page Not Found: Assets/js
ERROR - 2020-03-19 09:04:20 --> 404 Page Not Found: Assets/js
ERROR - 2020-03-19 09:04:35 --> 404 Page Not Found: Assets/js
ERROR - 2020-03-19 09:04:48 --> 404 Page Not Found: Assets/js
ERROR - 2020-03-19 09:05:06 --> 404 Page Not Found: Assets/js
ERROR - 2020-03-19 09:05:22 --> 404 Page Not Found: Assets/js
ERROR - 2020-03-19 15:14:59 --> Severity: Notice --> Undefined variable: data_po D:\htdocs\payment_request\application\views\non_purchase_order\non_purchase_order_edit.php 96
ERROR - 2020-03-19 15:14:59 --> Severity: Notice --> Trying to get property 'pr_code' of non-object D:\htdocs\payment_request\application\views\non_purchase_order\non_purchase_order_edit.php 96
ERROR - 2020-03-19 15:14:59 --> Severity: Notice --> Undefined variable: data_po D:\htdocs\payment_request\application\views\non_purchase_order\non_purchase_order_edit.php 159
ERROR - 2020-03-19 15:14:59 --> Severity: Notice --> Trying to get property 'id' of non-object D:\htdocs\payment_request\application\views\non_purchase_order\non_purchase_order_edit.php 159
ERROR - 2020-03-19 09:14:59 --> 404 Page Not Found: Assets/js
ERROR - 2020-03-19 15:15:35 --> Severity: Notice --> Undefined variable: data_po D:\htdocs\payment_request\application\views\non_purchase_order\non_purchase_order_edit.php 96
ERROR - 2020-03-19 15:15:35 --> Severity: Notice --> Trying to get property 'pr_code' of non-object D:\htdocs\payment_request\application\views\non_purchase_order\non_purchase_order_edit.php 96
ERROR - 2020-03-19 15:15:35 --> Severity: Notice --> Undefined variable: data_po D:\htdocs\payment_request\application\views\non_purchase_order\non_purchase_order_edit.php 159
ERROR - 2020-03-19 15:15:35 --> Severity: Notice --> Trying to get property 'id' of non-object D:\htdocs\payment_request\application\views\non_purchase_order\non_purchase_order_edit.php 159
ERROR - 2020-03-19 09:15:35 --> 404 Page Not Found: Assets/js
ERROR - 2020-03-19 15:16:46 --> Severity: Notice --> Undefined variable: data_po D:\htdocs\payment_request\application\views\non_purchase_order\non_purchase_order_edit.php 96
ERROR - 2020-03-19 15:16:46 --> Severity: Notice --> Trying to get property 'pr_code' of non-object D:\htdocs\payment_request\application\views\non_purchase_order\non_purchase_order_edit.php 96
ERROR - 2020-03-19 15:16:46 --> Severity: Notice --> Undefined variable: data_po D:\htdocs\payment_request\application\views\non_purchase_order\non_purchase_order_edit.php 159
ERROR - 2020-03-19 15:16:46 --> Severity: Notice --> Trying to get property 'id' of non-object D:\htdocs\payment_request\application\views\non_purchase_order\non_purchase_order_edit.php 159
ERROR - 2020-03-19 09:16:47 --> 404 Page Not Found: Assets/js
ERROR - 2020-03-19 15:16:57 --> Severity: Notice --> Undefined variable: data_po D:\htdocs\payment_request\application\views\non_purchase_order\non_purchase_order_edit.php 96
ERROR - 2020-03-19 15:16:57 --> Severity: Notice --> Trying to get property 'pr_code' of non-object D:\htdocs\payment_request\application\views\non_purchase_order\non_purchase_order_edit.php 96
ERROR - 2020-03-19 15:16:57 --> Severity: Notice --> Undefined variable: data_po D:\htdocs\payment_request\application\views\non_purchase_order\non_purchase_order_edit.php 159
ERROR - 2020-03-19 15:16:57 --> Severity: Notice --> Trying to get property 'id' of non-object D:\htdocs\payment_request\application\views\non_purchase_order\non_purchase_order_edit.php 159
ERROR - 2020-03-19 09:16:58 --> 404 Page Not Found: Assets/js
ERROR - 2020-03-19 15:18:09 --> Severity: Notice --> Undefined variable: data_po D:\htdocs\payment_request\application\views\non_purchase_order\non_purchase_order_edit.php 107
ERROR - 2020-03-19 15:18:09 --> Severity: Notice --> Trying to get property 'pr_code' of non-object D:\htdocs\payment_request\application\views\non_purchase_order\non_purchase_order_edit.php 107
ERROR - 2020-03-19 15:18:09 --> Severity: Notice --> Undefined variable: data_po D:\htdocs\payment_request\application\views\non_purchase_order\non_purchase_order_edit.php 170
ERROR - 2020-03-19 15:18:09 --> Severity: Notice --> Trying to get property 'id' of non-object D:\htdocs\payment_request\application\views\non_purchase_order\non_purchase_order_edit.php 170
ERROR - 2020-03-19 09:18:10 --> 404 Page Not Found: Assets/js
ERROR - 2020-03-19 15:18:19 --> Severity: Notice --> Undefined variable: data_po D:\htdocs\payment_request\application\views\non_purchase_order\non_purchase_order_edit.php 107
ERROR - 2020-03-19 15:18:19 --> Severity: Notice --> Trying to get property 'pr_code' of non-object D:\htdocs\payment_request\application\views\non_purchase_order\non_purchase_order_edit.php 107
ERROR - 2020-03-19 15:18:19 --> Severity: Notice --> Undefined variable: data_po D:\htdocs\payment_request\application\views\non_purchase_order\non_purchase_order_edit.php 170
ERROR - 2020-03-19 15:18:19 --> Severity: Notice --> Trying to get property 'id' of non-object D:\htdocs\payment_request\application\views\non_purchase_order\non_purchase_order_edit.php 170
ERROR - 2020-03-19 09:18:19 --> 404 Page Not Found: Assets/js
ERROR - 2020-03-19 15:18:29 --> Severity: Notice --> Undefined variable: data_po D:\htdocs\payment_request\application\views\non_purchase_order\non_purchase_order_edit.php 107
ERROR - 2020-03-19 15:18:29 --> Severity: Notice --> Trying to get property 'pr_code' of non-object D:\htdocs\payment_request\application\views\non_purchase_order\non_purchase_order_edit.php 107
ERROR - 2020-03-19 15:18:29 --> Severity: Notice --> Undefined variable: data_po D:\htdocs\payment_request\application\views\non_purchase_order\non_purchase_order_edit.php 170
ERROR - 2020-03-19 15:18:29 --> Severity: Notice --> Trying to get property 'id' of non-object D:\htdocs\payment_request\application\views\non_purchase_order\non_purchase_order_edit.php 170
ERROR - 2020-03-19 09:18:29 --> 404 Page Not Found: Assets/js
ERROR - 2020-03-19 15:22:18 --> Severity: Notice --> Undefined variable: data_po D:\htdocs\payment_request\application\views\non_purchase_order\non_purchase_order_edit.php 108
ERROR - 2020-03-19 15:22:18 --> Severity: Notice --> Trying to get property 'pr_code' of non-object D:\htdocs\payment_request\application\views\non_purchase_order\non_purchase_order_edit.php 108
ERROR - 2020-03-19 15:22:18 --> Severity: Notice --> Undefined variable: data_po D:\htdocs\payment_request\application\views\non_purchase_order\non_purchase_order_edit.php 171
ERROR - 2020-03-19 15:22:18 --> Severity: Notice --> Trying to get property 'id' of non-object D:\htdocs\payment_request\application\views\non_purchase_order\non_purchase_order_edit.php 171
ERROR - 2020-03-19 09:22:18 --> 404 Page Not Found: Assets/js
ERROR - 2020-03-19 15:22:31 --> Severity: Notice --> Undefined variable: data_po D:\htdocs\payment_request\application\views\non_purchase_order\non_purchase_order_edit.php 108
ERROR - 2020-03-19 15:22:31 --> Severity: Notice --> Trying to get property 'pr_code' of non-object D:\htdocs\payment_request\application\views\non_purchase_order\non_purchase_order_edit.php 108
ERROR - 2020-03-19 15:22:31 --> Severity: Notice --> Undefined variable: data_po D:\htdocs\payment_request\application\views\non_purchase_order\non_purchase_order_edit.php 171
ERROR - 2020-03-19 15:22:31 --> Severity: Notice --> Trying to get property 'id' of non-object D:\htdocs\payment_request\application\views\non_purchase_order\non_purchase_order_edit.php 171
ERROR - 2020-03-19 09:22:32 --> 404 Page Not Found: Assets/js
ERROR - 2020-03-19 15:22:45 --> Severity: Notice --> Undefined variable: data_po D:\htdocs\payment_request\application\views\non_purchase_order\non_purchase_order_edit.php 108
ERROR - 2020-03-19 15:22:45 --> Severity: Notice --> Trying to get property 'pr_code' of non-object D:\htdocs\payment_request\application\views\non_purchase_order\non_purchase_order_edit.php 108
ERROR - 2020-03-19 15:22:45 --> Severity: Notice --> Undefined variable: data_po D:\htdocs\payment_request\application\views\non_purchase_order\non_purchase_order_edit.php 171
ERROR - 2020-03-19 15:22:45 --> Severity: Notice --> Trying to get property 'id' of non-object D:\htdocs\payment_request\application\views\non_purchase_order\non_purchase_order_edit.php 171
ERROR - 2020-03-19 09:22:46 --> 404 Page Not Found: Assets/js
ERROR - 2020-03-19 15:22:49 --> Severity: Notice --> Undefined variable: data_po D:\htdocs\payment_request\application\views\non_purchase_order\non_purchase_order_edit.php 108
ERROR - 2020-03-19 15:22:49 --> Severity: Notice --> Trying to get property 'pr_code' of non-object D:\htdocs\payment_request\application\views\non_purchase_order\non_purchase_order_edit.php 108
ERROR - 2020-03-19 15:22:49 --> Severity: Notice --> Undefined variable: data_po D:\htdocs\payment_request\application\views\non_purchase_order\non_purchase_order_edit.php 171
ERROR - 2020-03-19 15:22:49 --> Severity: Notice --> Trying to get property 'id' of non-object D:\htdocs\payment_request\application\views\non_purchase_order\non_purchase_order_edit.php 171
ERROR - 2020-03-19 09:22:49 --> 404 Page Not Found: Assets/js
ERROR - 2020-03-19 15:22:54 --> Severity: Notice --> Undefined variable: data_po D:\htdocs\payment_request\application\views\non_purchase_order\non_purchase_order_edit.php 108
ERROR - 2020-03-19 15:22:54 --> Severity: Notice --> Trying to get property 'pr_code' of non-object D:\htdocs\payment_request\application\views\non_purchase_order\non_purchase_order_edit.php 108
ERROR - 2020-03-19 15:22:54 --> Severity: Notice --> Undefined variable: data_po D:\htdocs\payment_request\application\views\non_purchase_order\non_purchase_order_edit.php 171
ERROR - 2020-03-19 15:22:54 --> Severity: Notice --> Trying to get property 'id' of non-object D:\htdocs\payment_request\application\views\non_purchase_order\non_purchase_order_edit.php 171
ERROR - 2020-03-19 09:22:55 --> 404 Page Not Found: Assets/js
ERROR - 2020-03-19 15:25:25 --> Severity: Notice --> Undefined variable: data_po D:\htdocs\payment_request\application\views\non_purchase_order\non_purchase_order_edit.php 118
ERROR - 2020-03-19 15:25:25 --> Severity: Notice --> Trying to get property 'pr_code' of non-object D:\htdocs\payment_request\application\views\non_purchase_order\non_purchase_order_edit.php 118
ERROR - 2020-03-19 15:25:25 --> Severity: Notice --> Undefined variable: data_po D:\htdocs\payment_request\application\views\non_purchase_order\non_purchase_order_edit.php 181
ERROR - 2020-03-19 15:25:25 --> Severity: Notice --> Trying to get property 'id' of non-object D:\htdocs\payment_request\application\views\non_purchase_order\non_purchase_order_edit.php 181
ERROR - 2020-03-19 09:25:25 --> 404 Page Not Found: Assets/js
ERROR - 2020-03-19 15:26:49 --> Severity: Notice --> Undefined variable: data_po D:\htdocs\payment_request\application\views\non_purchase_order\non_purchase_order_edit.php 118
ERROR - 2020-03-19 15:26:49 --> Severity: Notice --> Trying to get property 'pr_code' of non-object D:\htdocs\payment_request\application\views\non_purchase_order\non_purchase_order_edit.php 118
ERROR - 2020-03-19 15:26:49 --> Severity: Notice --> Undefined variable: data_po D:\htdocs\payment_request\application\views\non_purchase_order\non_purchase_order_edit.php 181
ERROR - 2020-03-19 15:26:49 --> Severity: Notice --> Trying to get property 'id' of non-object D:\htdocs\payment_request\application\views\non_purchase_order\non_purchase_order_edit.php 181
ERROR - 2020-03-19 09:26:49 --> 404 Page Not Found: Assets/js
ERROR - 2020-03-19 15:27:00 --> Severity: Notice --> Undefined variable: data_po D:\htdocs\payment_request\application\views\non_purchase_order\non_purchase_order_edit.php 118
ERROR - 2020-03-19 15:27:00 --> Severity: Notice --> Trying to get property 'pr_code' of non-object D:\htdocs\payment_request\application\views\non_purchase_order\non_purchase_order_edit.php 118
ERROR - 2020-03-19 15:27:00 --> Severity: Notice --> Undefined variable: data_po D:\htdocs\payment_request\application\views\non_purchase_order\non_purchase_order_edit.php 181
ERROR - 2020-03-19 15:27:00 --> Severity: Notice --> Trying to get property 'id' of non-object D:\htdocs\payment_request\application\views\non_purchase_order\non_purchase_order_edit.php 181
ERROR - 2020-03-19 09:27:00 --> 404 Page Not Found: Assets/js
ERROR - 2020-03-19 15:28:57 --> Severity: Notice --> Undefined variable: data_po D:\htdocs\payment_request\application\views\non_purchase_order\non_purchase_order_edit.php 130
ERROR - 2020-03-19 15:28:57 --> Severity: Notice --> Trying to get property 'pr_code' of non-object D:\htdocs\payment_request\application\views\non_purchase_order\non_purchase_order_edit.php 130
ERROR - 2020-03-19 15:28:57 --> Severity: Notice --> Undefined variable: data_po D:\htdocs\payment_request\application\views\non_purchase_order\non_purchase_order_edit.php 193
ERROR - 2020-03-19 15:28:57 --> Severity: Notice --> Trying to get property 'id' of non-object D:\htdocs\payment_request\application\views\non_purchase_order\non_purchase_order_edit.php 193
ERROR - 2020-03-19 09:28:57 --> 404 Page Not Found: Assets/js
ERROR - 2020-03-19 15:32:07 --> Severity: Notice --> Undefined variable: data_po D:\htdocs\payment_request\application\views\non_purchase_order\non_purchase_order_edit.php 193
ERROR - 2020-03-19 15:32:07 --> Severity: Notice --> Trying to get property 'id' of non-object D:\htdocs\payment_request\application\views\non_purchase_order\non_purchase_order_edit.php 193
ERROR - 2020-03-19 09:32:08 --> 404 Page Not Found: Assets/js
ERROR - 2020-03-19 09:32:57 --> 404 Page Not Found: Assets/js
ERROR - 2020-03-19 09:36:13 --> Severity: error --> Exception: syntax error, unexpected ']', expecting identifier (T_STRING) or variable (T_VARIABLE) or '{' or '$' D:\htdocs\payment_request\application\controllers\Spk_Trans.php 522
ERROR - 2020-03-19 15:41:35 --> Severity: Notice --> Undefined variable: params D:\htdocs\payment_request\application\models\Configure_Model.php 12
ERROR - 2020-03-19 15:41:35 --> Query error: You have an error in your SQL syntax; check the manual that corresponds to your MariaDB server version for the right syntax to use near 'IS NULL' at line 3 - Invalid query: SELECT *
FROM `configure`
WHERE  IS NULL
ERROR - 2020-03-19 15:41:57 --> Severity: Notice --> Undefined property: mysqli::$config_code D:\htdocs\payment_request\application\views\non_purchase_order\non_purchase_order_edit.php 118
ERROR - 2020-03-19 15:41:57 --> Severity: Notice --> Undefined property: mysqli::$config_desc D:\htdocs\payment_request\application\views\non_purchase_order\non_purchase_order_edit.php 118
ERROR - 2020-03-19 15:41:57 --> Severity: Notice --> Undefined property: mysqli_result::$config_code D:\htdocs\payment_request\application\views\non_purchase_order\non_purchase_order_edit.php 118
ERROR - 2020-03-19 15:41:57 --> Severity: Notice --> Undefined property: mysqli_result::$config_desc D:\htdocs\payment_request\application\views\non_purchase_order\non_purchase_order_edit.php 118
ERROR - 2020-03-19 15:41:57 --> Severity: Notice --> Trying to get property 'config_code' of non-object D:\htdocs\payment_request\application\views\non_purchase_order\non_purchase_order_edit.php 118
ERROR - 2020-03-19 15:41:57 --> Severity: Notice --> Trying to get property 'config_desc' of non-object D:\htdocs\payment_request\application\views\non_purchase_order\non_purchase_order_edit.php 118
ERROR - 2020-03-19 15:41:57 --> Severity: Notice --> Trying to get property 'config_code' of non-object D:\htdocs\payment_request\application\views\non_purchase_order\non_purchase_order_edit.php 118
ERROR - 2020-03-19 15:41:57 --> Severity: Notice --> Trying to get property 'config_desc' of non-object D:\htdocs\payment_request\application\views\non_purchase_order\non_purchase_order_edit.php 118
ERROR - 2020-03-19 15:41:57 --> Severity: Notice --> Trying to get property 'config_code' of non-object D:\htdocs\payment_request\application\views\non_purchase_order\non_purchase_order_edit.php 118
ERROR - 2020-03-19 15:41:57 --> Severity: Notice --> Trying to get property 'config_desc' of non-object D:\htdocs\payment_request\application\views\non_purchase_order\non_purchase_order_edit.php 118
ERROR - 2020-03-19 15:41:57 --> Severity: Notice --> Trying to get property 'config_code' of non-object D:\htdocs\payment_request\application\views\non_purchase_order\non_purchase_order_edit.php 118
ERROR - 2020-03-19 15:41:57 --> Severity: Notice --> Trying to get property 'config_desc' of non-object D:\htdocs\payment_request\application\views\non_purchase_order\non_purchase_order_edit.php 118
ERROR - 2020-03-19 15:41:57 --> Severity: Notice --> Trying to get property 'config_code' of non-object D:\htdocs\payment_request\application\views\non_purchase_order\non_purchase_order_edit.php 118
ERROR - 2020-03-19 15:41:57 --> Severity: Notice --> Trying to get property 'config_desc' of non-object D:\htdocs\payment_request\application\views\non_purchase_order\non_purchase_order_edit.php 118
ERROR - 2020-03-19 15:41:57 --> Severity: Notice --> Trying to get property 'config_code' of non-object D:\htdocs\payment_request\application\views\non_purchase_order\non_purchase_order_edit.php 118
ERROR - 2020-03-19 15:41:57 --> Severity: Notice --> Trying to get property 'config_desc' of non-object D:\htdocs\payment_request\application\views\non_purchase_order\non_purchase_order_edit.php 118
ERROR - 2020-03-19 09:41:58 --> 404 Page Not Found: Assets/js
ERROR - 2020-03-19 09:42:13 --> 404 Page Not Found: Assets/js
ERROR - 2020-03-19 09:42:30 --> 404 Page Not Found: Assets/js
ERROR - 2020-03-19 09:42:57 --> 404 Page Not Found: Assets/js
ERROR - 2020-03-19 09:43:37 --> 404 Page Not Found: Assets/js
ERROR - 2020-03-19 09:43:44 --> 404 Page Not Found: Assets/js
ERROR - 2020-03-19 09:43:58 --> 404 Page Not Found: Assets/js
ERROR - 2020-03-19 09:45:00 --> 404 Page Not Found: Assets/js
ERROR - 2020-03-19 09:45:47 --> 404 Page Not Found: Assets/js
ERROR - 2020-03-19 09:45:49 --> 404 Page Not Found: Assets/js
ERROR - 2020-03-19 09:46:48 --> 404 Page Not Found: Assets/js
ERROR - 2020-03-19 09:46:50 --> 404 Page Not Found: Assets/js
ERROR - 2020-03-19 09:46:51 --> 404 Page Not Found: Assets/js
ERROR - 2020-03-19 09:48:14 --> 404 Page Not Found: Assets/js
ERROR - 2020-03-19 09:48:35 --> 404 Page Not Found: Assets/js
ERROR - 2020-03-19 09:49:31 --> 404 Page Not Found: Assets/js
ERROR - 2020-03-19 09:49:39 --> 404 Page Not Found: Assets/js
ERROR - 2020-03-19 09:49:57 --> 404 Page Not Found: Assets/js
ERROR - 2020-03-19 09:50:10 --> 404 Page Not Found: Assets/js
ERROR - 2020-03-19 09:50:22 --> 404 Page Not Found: Assets/js
ERROR - 2020-03-19 09:50:32 --> 404 Page Not Found: Assets/js
ERROR - 2020-03-19 09:51:35 --> 404 Page Not Found: Assets/js
ERROR - 2020-03-19 09:52:10 --> 404 Page Not Found: Assets/js
ERROR - 2020-03-19 09:52:21 --> 404 Page Not Found: Assets/js
ERROR - 2020-03-19 09:52:41 --> 404 Page Not Found: Assets/js
ERROR - 2020-03-19 09:52:54 --> 404 Page Not Found: Assets/js
ERROR - 2020-03-19 09:53:07 --> 404 Page Not Found: Assets/js
ERROR - 2020-03-19 09:53:19 --> 404 Page Not Found: Assets/js
ERROR - 2020-03-19 09:54:01 --> 404 Page Not Found: Assets/js
ERROR - 2020-03-19 09:54:16 --> 404 Page Not Found: Assets/js
ERROR - 2020-03-19 09:54:32 --> 404 Page Not Found: Assets/js
ERROR - 2020-03-19 09:54:55 --> 404 Page Not Found: Assets/js
ERROR - 2020-03-19 09:55:08 --> 404 Page Not Found: Assets/js
ERROR - 2020-03-19 09:55:37 --> 404 Page Not Found: Assets/js
ERROR - 2020-03-19 11:01:57 --> 404 Page Not Found: Assets/js
ERROR - 2020-03-19 11:02:06 --> 404 Page Not Found: Assets/js
ERROR - 2020-03-19 11:02:19 --> 404 Page Not Found: Assets/js
ERROR - 2020-03-19 11:02:55 --> 404 Page Not Found: Assets/js
ERROR - 2020-03-19 11:03:08 --> 404 Page Not Found: Assets/js
ERROR - 2020-03-19 11:03:18 --> 404 Page Not Found: Assets/js
ERROR - 2020-03-19 11:04:20 --> 404 Page Not Found: Assets/js
ERROR - 2020-03-19 11:04:37 --> 404 Page Not Found: Assets/js
ERROR - 2020-03-19 11:04:51 --> 404 Page Not Found: Assets/js
ERROR - 2020-03-19 11:05:11 --> 404 Page Not Found: Assets/js
ERROR - 2020-03-19 11:05:44 --> 404 Page Not Found: Assets/js
ERROR - 2020-03-19 11:05:58 --> 404 Page Not Found: Assets/js
ERROR - 2020-03-19 11:06:19 --> 404 Page Not Found: Assets/js
ERROR - 2020-03-19 11:06:47 --> 404 Page Not Found: Assets/js
ERROR - 2020-03-19 11:07:18 --> 404 Page Not Found: Assets/js
ERROR - 2020-03-19 11:07:38 --> 404 Page Not Found: Assets/js
ERROR - 2020-03-19 11:08:22 --> 404 Page Not Found: Assets/js
ERROR - 2020-03-19 11:08:58 --> 404 Page Not Found: Assets/js
ERROR - 2020-03-19 11:09:21 --> 404 Page Not Found: Assets/js
