ERROR - 2020-05-22 18:11:35 --> 404 Page Not Found: Assets/vendors
ERROR - 2020-05-22 18:11:35 --> 404 Page Not Found: Assets/vendors
ERROR - 2020-05-22 18:11:35 --> 404 Page Not Found: Assets/vendors
ERROR - 2020-05-22 18:11:35 --> 404 Page Not Found: Assets/vendors
ERROR - 2020-05-22 18:11:35 --> 404 Page Not Found: Assets/vendors
ERROR - 2020-05-22 18:11:35 --> 404 Page Not Found: Assets/vendors
ERROR - 2020-05-22 18:11:35 --> 404 Page Not Found: Assets/vendors
ERROR - 2020-05-22 18:11:36 --> 404 Page Not Found: Assets/vendors
ERROR - 2020-05-22 18:11:36 --> 404 Page Not Found: Faviconico/index
