<<<<<<< HEAD
ERROR - 2020-07-06 03:40:13 --> 404 Page Not Found: Assets/vendors
ERROR - 2020-07-06 03:40:13 --> 404 Page Not Found: Assets/vendors
ERROR - 2020-07-06 03:40:13 --> 404 Page Not Found: Assets/vendors
ERROR - 2020-07-06 03:40:13 --> 404 Page Not Found: Assets/vendors
ERROR - 2020-07-06 03:40:13 --> 404 Page Not Found: Assets/vendors
ERROR - 2020-07-06 03:40:13 --> 404 Page Not Found: Assets/vendors
ERROR - 2020-07-06 03:40:13 --> 404 Page Not Found: Assets/vendors
ERROR - 2020-07-06 04:33:59 --> 404 Page Not Found: Assets/vendors
ERROR - 2020-07-06 04:33:59 --> 404 Page Not Found: Assets/vendors
ERROR - 2020-07-06 04:33:59 --> 404 Page Not Found: Assets/vendors
ERROR - 2020-07-06 04:33:59 --> 404 Page Not Found: Assets/vendors
ERROR - 2020-07-06 04:33:59 --> 404 Page Not Found: Assets/vendors
ERROR - 2020-07-06 04:33:59 --> 404 Page Not Found: Assets/vendors
ERROR - 2020-07-06 04:33:59 --> 404 Page Not Found: Assets/vendors
ERROR - 2020-07-06 04:33:59 --> 404 Page Not Found: Assets/vendors
ERROR - 2020-07-06 04:34:07 --> 404 Page Not Found: Assets/vendors
ERROR - 2020-07-06 04:34:07 --> 404 Page Not Found: Assets/vendors
ERROR - 2020-07-06 04:34:07 --> 404 Page Not Found: Assets/vendors
ERROR - 2020-07-06 04:34:07 --> 404 Page Not Found: Assets/vendors
ERROR - 2020-07-06 04:34:07 --> 404 Page Not Found: Assets/vendors
ERROR - 2020-07-06 04:34:07 --> 404 Page Not Found: Assets/vendors
ERROR - 2020-07-06 04:34:07 --> 404 Page Not Found: Assets/vendors
ERROR - 2020-07-06 04:34:07 --> 404 Page Not Found: Assets/vendors
ERROR - 2020-07-06 09:36:06 --> Severity: Notice --> Undefined variable: ress D:\htdocs\payment_request\application\models\Reason_Model.php 70
=======
ERROR - 2020-07-06 02:33:51 --> 404 Page Not Found: Assets/vendors
ERROR - 2020-07-06 02:33:51 --> 404 Page Not Found: Assets/vendors
ERROR - 2020-07-06 02:33:51 --> 404 Page Not Found: Assets/vendors
ERROR - 2020-07-06 02:33:51 --> 404 Page Not Found: Assets/vendors
ERROR - 2020-07-06 02:33:51 --> 404 Page Not Found: Assets/vendors
ERROR - 2020-07-06 02:34:05 --> 404 Page Not Found: Assets/vendors
ERROR - 2020-07-06 02:34:05 --> 404 Page Not Found: Assets/vendors
ERROR - 2020-07-06 02:34:05 --> 404 Page Not Found: Assets/vendors
ERROR - 2020-07-06 02:34:05 --> 404 Page Not Found: Assets/vendors
ERROR - 2020-07-06 02:34:05 --> 404 Page Not Found: Assets/vendors
ERROR - 2020-07-06 07:45:04 --> Severity: Notice --> Trying to get property of non-object C:\xampp\htdocs\payment_request\application\views\purchase_order\purchase_order_view.php 252
ERROR - 2020-07-06 07:45:04 --> Severity: Notice --> Trying to get property of non-object C:\xampp\htdocs\payment_request\application\views\purchase_order\purchase_order_view.php 252
ERROR - 2020-07-06 07:45:04 --> Severity: Notice --> Trying to get property of non-object C:\xampp\htdocs\payment_request\application\views\purchase_order\purchase_order_view.php 252
ERROR - 2020-07-06 07:45:04 --> Severity: Notice --> Trying to get property of non-object C:\xampp\htdocs\payment_request\application\views\purchase_order\purchase_order_view.php 252
ERROR - 2020-07-06 07:45:04 --> Severity: Notice --> Trying to get property of non-object C:\xampp\htdocs\payment_request\application\views\purchase_order\purchase_order_view.php 252
ERROR - 2020-07-06 07:45:04 --> Severity: Notice --> Trying to get property of non-object C:\xampp\htdocs\payment_request\application\views\purchase_order\purchase_order_view.php 252
ERROR - 2020-07-06 07:45:04 --> Severity: Notice --> Trying to get property of non-object C:\xampp\htdocs\payment_request\application\views\purchase_order\purchase_order_view.php 252
ERROR - 2020-07-06 07:45:04 --> Severity: Notice --> Trying to get property of non-object C:\xampp\htdocs\payment_request\application\views\purchase_order\purchase_order_view.php 319
ERROR - 2020-07-06 07:45:04 --> Severity: Notice --> Trying to get property of non-object C:\xampp\htdocs\payment_request\application\views\purchase_order\purchase_order_view.php 319
ERROR - 2020-07-06 07:45:04 --> Severity: Notice --> Trying to get property of non-object C:\xampp\htdocs\payment_request\application\views\purchase_order\purchase_order_view.php 319
ERROR - 2020-07-06 07:45:04 --> Severity: Notice --> Trying to get property of non-object C:\xampp\htdocs\payment_request\application\views\purchase_order\purchase_order_view.php 319
ERROR - 2020-07-06 07:45:04 --> Severity: Notice --> Trying to get property of non-object C:\xampp\htdocs\payment_request\application\views\purchase_order\purchase_order_view.php 351
ERROR - 2020-07-06 07:45:04 --> Severity: Notice --> Trying to get property of non-object C:\xampp\htdocs\payment_request\application\views\purchase_order\purchase_order_view.php 351
ERROR - 2020-07-06 07:45:04 --> Severity: Notice --> Trying to get property of non-object C:\xampp\htdocs\payment_request\application\views\purchase_order\purchase_order_view.php 351
ERROR - 2020-07-06 07:45:04 --> Severity: Notice --> Trying to get property of non-object C:\xampp\htdocs\payment_request\application\views\purchase_order\purchase_order_view.php 351
ERROR - 2020-07-06 07:45:04 --> Severity: Notice --> Trying to get property of non-object C:\xampp\htdocs\payment_request\application\views\purchase_order\purchase_order_view.php 351
ERROR - 2020-07-06 07:45:04 --> Severity: Notice --> Trying to get property of non-object C:\xampp\htdocs\payment_request\application\views\purchase_order\purchase_order_view.php 351
ERROR - 2020-07-06 07:45:04 --> Severity: Notice --> Trying to get property of non-object C:\xampp\htdocs\payment_request\application\views\purchase_order\purchase_order_view.php 351
ERROR - 2020-07-06 07:45:04 --> Severity: Notice --> Trying to get property of non-object C:\xampp\htdocs\payment_request\application\views\purchase_order\purchase_order_view.php 351
ERROR - 2020-07-06 07:45:04 --> Severity: Notice --> Trying to get property of non-object C:\xampp\htdocs\payment_request\application\views\purchase_order\purchase_order_view.php 351
ERROR - 2020-07-06 07:45:04 --> Severity: Notice --> Trying to get property of non-object C:\xampp\htdocs\payment_request\application\views\purchase_order\purchase_order_view.php 383
ERROR - 2020-07-06 07:45:04 --> Severity: Notice --> Trying to get property of non-object C:\xampp\htdocs\payment_request\application\views\purchase_order\purchase_order_view.php 383
ERROR - 2020-07-06 07:45:04 --> Severity: Notice --> Trying to get property of non-object C:\xampp\htdocs\payment_request\application\views\purchase_order\purchase_order_view.php 383
ERROR - 2020-07-06 07:45:04 --> Severity: Notice --> Trying to get property of non-object C:\xampp\htdocs\payment_request\application\views\purchase_order\purchase_order_view.php 383
ERROR - 2020-07-06 07:45:04 --> Severity: Notice --> Trying to get property of non-object C:\xampp\htdocs\payment_request\application\views\purchase_order\purchase_order_view.php 383
ERROR - 2020-07-06 07:46:16 --> Severity: Notice --> Trying to get property of non-object C:\xampp\htdocs\payment_request\application\views\purchase_order\purchase_order_view.php 252
ERROR - 2020-07-06 07:46:16 --> Severity: Notice --> Trying to get property of non-object C:\xampp\htdocs\payment_request\application\views\purchase_order\purchase_order_view.php 252
ERROR - 2020-07-06 07:46:16 --> Severity: Notice --> Trying to get property of non-object C:\xampp\htdocs\payment_request\application\views\purchase_order\purchase_order_view.php 252
ERROR - 2020-07-06 07:46:16 --> Severity: Notice --> Trying to get property of non-object C:\xampp\htdocs\payment_request\application\views\purchase_order\purchase_order_view.php 252
ERROR - 2020-07-06 07:46:16 --> Severity: Notice --> Trying to get property of non-object C:\xampp\htdocs\payment_request\application\views\purchase_order\purchase_order_view.php 252
ERROR - 2020-07-06 07:46:16 --> Severity: Notice --> Trying to get property of non-object C:\xampp\htdocs\payment_request\application\views\purchase_order\purchase_order_view.php 252
ERROR - 2020-07-06 07:46:16 --> Severity: Notice --> Trying to get property of non-object C:\xampp\htdocs\payment_request\application\views\purchase_order\purchase_order_view.php 252
ERROR - 2020-07-06 07:46:16 --> Severity: Notice --> Trying to get property of non-object C:\xampp\htdocs\payment_request\application\views\purchase_order\purchase_order_view.php 319
ERROR - 2020-07-06 07:46:16 --> Severity: Notice --> Trying to get property of non-object C:\xampp\htdocs\payment_request\application\views\purchase_order\purchase_order_view.php 319
ERROR - 2020-07-06 07:46:16 --> Severity: Notice --> Trying to get property of non-object C:\xampp\htdocs\payment_request\application\views\purchase_order\purchase_order_view.php 319
ERROR - 2020-07-06 07:46:16 --> Severity: Notice --> Trying to get property of non-object C:\xampp\htdocs\payment_request\application\views\purchase_order\purchase_order_view.php 319
ERROR - 2020-07-06 07:46:16 --> Severity: Notice --> Trying to get property of non-object C:\xampp\htdocs\payment_request\application\views\purchase_order\purchase_order_view.php 351
ERROR - 2020-07-06 07:46:16 --> Severity: Notice --> Trying to get property of non-object C:\xampp\htdocs\payment_request\application\views\purchase_order\purchase_order_view.php 351
ERROR - 2020-07-06 07:46:16 --> Severity: Notice --> Trying to get property of non-object C:\xampp\htdocs\payment_request\application\views\purchase_order\purchase_order_view.php 351
ERROR - 2020-07-06 07:46:16 --> Severity: Notice --> Trying to get property of non-object C:\xampp\htdocs\payment_request\application\views\purchase_order\purchase_order_view.php 351
ERROR - 2020-07-06 07:46:16 --> Severity: Notice --> Trying to get property of non-object C:\xampp\htdocs\payment_request\application\views\purchase_order\purchase_order_view.php 351
ERROR - 2020-07-06 07:46:16 --> Severity: Notice --> Trying to get property of non-object C:\xampp\htdocs\payment_request\application\views\purchase_order\purchase_order_view.php 351
ERROR - 2020-07-06 07:46:16 --> Severity: Notice --> Trying to get property of non-object C:\xampp\htdocs\payment_request\application\views\purchase_order\purchase_order_view.php 351
ERROR - 2020-07-06 07:46:16 --> Severity: Notice --> Trying to get property of non-object C:\xampp\htdocs\payment_request\application\views\purchase_order\purchase_order_view.php 351
ERROR - 2020-07-06 07:46:16 --> Severity: Notice --> Trying to get property of non-object C:\xampp\htdocs\payment_request\application\views\purchase_order\purchase_order_view.php 351
ERROR - 2020-07-06 07:46:16 --> Severity: Notice --> Trying to get property of non-object C:\xampp\htdocs\payment_request\application\views\purchase_order\purchase_order_view.php 383
ERROR - 2020-07-06 07:46:16 --> Severity: Notice --> Trying to get property of non-object C:\xampp\htdocs\payment_request\application\views\purchase_order\purchase_order_view.php 383
ERROR - 2020-07-06 07:46:16 --> Severity: Notice --> Trying to get property of non-object C:\xampp\htdocs\payment_request\application\views\purchase_order\purchase_order_view.php 383
ERROR - 2020-07-06 07:46:16 --> Severity: Notice --> Trying to get property of non-object C:\xampp\htdocs\payment_request\application\views\purchase_order\purchase_order_view.php 383
ERROR - 2020-07-06 07:46:16 --> Severity: Notice --> Trying to get property of non-object C:\xampp\htdocs\payment_request\application\views\purchase_order\purchase_order_view.php 383
<<<<<<< HEAD
ERROR - 2020-07-06 08:47:25 --> Severity: Notice --> Trying to get property of non-object C:\xampp\htdocs\payment_request\application\views\purchase_order\purchase_order_view.php 252
ERROR - 2020-07-06 08:47:25 --> Severity: Notice --> Trying to get property of non-object C:\xampp\htdocs\payment_request\application\views\purchase_order\purchase_order_view.php 252
ERROR - 2020-07-06 08:47:25 --> Severity: Notice --> Trying to get property of non-object C:\xampp\htdocs\payment_request\application\views\purchase_order\purchase_order_view.php 252
ERROR - 2020-07-06 08:47:25 --> Severity: Notice --> Trying to get property of non-object C:\xampp\htdocs\payment_request\application\views\purchase_order\purchase_order_view.php 252
ERROR - 2020-07-06 08:47:25 --> Severity: Notice --> Trying to get property of non-object C:\xampp\htdocs\payment_request\application\views\purchase_order\purchase_order_view.php 252
ERROR - 2020-07-06 08:47:25 --> Severity: Notice --> Trying to get property of non-object C:\xampp\htdocs\payment_request\application\views\purchase_order\purchase_order_view.php 252
ERROR - 2020-07-06 08:47:25 --> Severity: Notice --> Trying to get property of non-object C:\xampp\htdocs\payment_request\application\views\purchase_order\purchase_order_view.php 252
ERROR - 2020-07-06 08:47:25 --> Severity: Notice --> Trying to get property of non-object C:\xampp\htdocs\payment_request\application\views\purchase_order\purchase_order_view.php 319
ERROR - 2020-07-06 08:47:25 --> Severity: Notice --> Trying to get property of non-object C:\xampp\htdocs\payment_request\application\views\purchase_order\purchase_order_view.php 319
ERROR - 2020-07-06 08:47:25 --> Severity: Notice --> Trying to get property of non-object C:\xampp\htdocs\payment_request\application\views\purchase_order\purchase_order_view.php 319
ERROR - 2020-07-06 08:47:25 --> Severity: Notice --> Trying to get property of non-object C:\xampp\htdocs\payment_request\application\views\purchase_order\purchase_order_view.php 319
ERROR - 2020-07-06 08:47:25 --> Severity: Notice --> Trying to get property of non-object C:\xampp\htdocs\payment_request\application\views\purchase_order\purchase_order_view.php 351
ERROR - 2020-07-06 08:47:25 --> Severity: Notice --> Trying to get property of non-object C:\xampp\htdocs\payment_request\application\views\purchase_order\purchase_order_view.php 351
ERROR - 2020-07-06 08:47:25 --> Severity: Notice --> Trying to get property of non-object C:\xampp\htdocs\payment_request\application\views\purchase_order\purchase_order_view.php 351
ERROR - 2020-07-06 08:47:25 --> Severity: Notice --> Trying to get property of non-object C:\xampp\htdocs\payment_request\application\views\purchase_order\purchase_order_view.php 351
ERROR - 2020-07-06 08:47:25 --> Severity: Notice --> Trying to get property of non-object C:\xampp\htdocs\payment_request\application\views\purchase_order\purchase_order_view.php 351
ERROR - 2020-07-06 08:47:25 --> Severity: Notice --> Trying to get property of non-object C:\xampp\htdocs\payment_request\application\views\purchase_order\purchase_order_view.php 351
ERROR - 2020-07-06 08:47:25 --> Severity: Notice --> Trying to get property of non-object C:\xampp\htdocs\payment_request\application\views\purchase_order\purchase_order_view.php 351
ERROR - 2020-07-06 08:47:25 --> Severity: Notice --> Trying to get property of non-object C:\xampp\htdocs\payment_request\application\views\purchase_order\purchase_order_view.php 351
ERROR - 2020-07-06 08:47:25 --> Severity: Notice --> Trying to get property of non-object C:\xampp\htdocs\payment_request\application\views\purchase_order\purchase_order_view.php 351
ERROR - 2020-07-06 08:47:25 --> Severity: Notice --> Trying to get property of non-object C:\xampp\htdocs\payment_request\application\views\purchase_order\purchase_order_view.php 383
ERROR - 2020-07-06 08:47:25 --> Severity: Notice --> Trying to get property of non-object C:\xampp\htdocs\payment_request\application\views\purchase_order\purchase_order_view.php 383
ERROR - 2020-07-06 08:47:25 --> Severity: Notice --> Trying to get property of non-object C:\xampp\htdocs\payment_request\application\views\purchase_order\purchase_order_view.php 383
ERROR - 2020-07-06 08:47:25 --> Severity: Notice --> Trying to get property of non-object C:\xampp\htdocs\payment_request\application\views\purchase_order\purchase_order_view.php 383
ERROR - 2020-07-06 08:47:25 --> Severity: Notice --> Trying to get property of non-object C:\xampp\htdocs\payment_request\application\views\purchase_order\purchase_order_view.php 383
ERROR - 2020-07-06 09:37:28 --> Severity: Notice --> Trying to get property of non-object C:\xampp\htdocs\payment_request\application\views\purchase_order\purchase_order_view.php 252
ERROR - 2020-07-06 09:37:28 --> Severity: Notice --> Trying to get property of non-object C:\xampp\htdocs\payment_request\application\views\purchase_order\purchase_order_view.php 252
ERROR - 2020-07-06 09:37:28 --> Severity: Notice --> Trying to get property of non-object C:\xampp\htdocs\payment_request\application\views\purchase_order\purchase_order_view.php 252
ERROR - 2020-07-06 09:37:28 --> Severity: Notice --> Trying to get property of non-object C:\xampp\htdocs\payment_request\application\views\purchase_order\purchase_order_view.php 252
ERROR - 2020-07-06 09:37:28 --> Severity: Notice --> Trying to get property of non-object C:\xampp\htdocs\payment_request\application\views\purchase_order\purchase_order_view.php 252
ERROR - 2020-07-06 09:37:28 --> Severity: Notice --> Trying to get property of non-object C:\xampp\htdocs\payment_request\application\views\purchase_order\purchase_order_view.php 252
ERROR - 2020-07-06 09:37:28 --> Severity: Notice --> Trying to get property of non-object C:\xampp\htdocs\payment_request\application\views\purchase_order\purchase_order_view.php 252
ERROR - 2020-07-06 09:37:28 --> Severity: Notice --> Trying to get property of non-object C:\xampp\htdocs\payment_request\application\views\purchase_order\purchase_order_view.php 319
ERROR - 2020-07-06 09:37:28 --> Severity: Notice --> Trying to get property of non-object C:\xampp\htdocs\payment_request\application\views\purchase_order\purchase_order_view.php 319
ERROR - 2020-07-06 09:37:28 --> Severity: Notice --> Trying to get property of non-object C:\xampp\htdocs\payment_request\application\views\purchase_order\purchase_order_view.php 319
ERROR - 2020-07-06 09:37:28 --> Severity: Notice --> Trying to get property of non-object C:\xampp\htdocs\payment_request\application\views\purchase_order\purchase_order_view.php 319
ERROR - 2020-07-06 09:37:28 --> Severity: Notice --> Trying to get property of non-object C:\xampp\htdocs\payment_request\application\views\purchase_order\purchase_order_view.php 351
ERROR - 2020-07-06 09:37:28 --> Severity: Notice --> Trying to get property of non-object C:\xampp\htdocs\payment_request\application\views\purchase_order\purchase_order_view.php 351
ERROR - 2020-07-06 09:37:28 --> Severity: Notice --> Trying to get property of non-object C:\xampp\htdocs\payment_request\application\views\purchase_order\purchase_order_view.php 351
ERROR - 2020-07-06 09:37:28 --> Severity: Notice --> Trying to get property of non-object C:\xampp\htdocs\payment_request\application\views\purchase_order\purchase_order_view.php 351
ERROR - 2020-07-06 09:37:28 --> Severity: Notice --> Trying to get property of non-object C:\xampp\htdocs\payment_request\application\views\purchase_order\purchase_order_view.php 351
ERROR - 2020-07-06 09:37:28 --> Severity: Notice --> Trying to get property of non-object C:\xampp\htdocs\payment_request\application\views\purchase_order\purchase_order_view.php 351
ERROR - 2020-07-06 09:37:28 --> Severity: Notice --> Trying to get property of non-object C:\xampp\htdocs\payment_request\application\views\purchase_order\purchase_order_view.php 351
ERROR - 2020-07-06 09:37:28 --> Severity: Notice --> Trying to get property of non-object C:\xampp\htdocs\payment_request\application\views\purchase_order\purchase_order_view.php 351
ERROR - 2020-07-06 09:37:28 --> Severity: Notice --> Trying to get property of non-object C:\xampp\htdocs\payment_request\application\views\purchase_order\purchase_order_view.php 351
ERROR - 2020-07-06 09:37:28 --> Severity: Notice --> Trying to get property of non-object C:\xampp\htdocs\payment_request\application\views\purchase_order\purchase_order_view.php 383
ERROR - 2020-07-06 09:37:28 --> Severity: Notice --> Trying to get property of non-object C:\xampp\htdocs\payment_request\application\views\purchase_order\purchase_order_view.php 383
ERROR - 2020-07-06 09:37:28 --> Severity: Notice --> Trying to get property of non-object C:\xampp\htdocs\payment_request\application\views\purchase_order\purchase_order_view.php 383
ERROR - 2020-07-06 09:37:28 --> Severity: Notice --> Trying to get property of non-object C:\xampp\htdocs\payment_request\application\views\purchase_order\purchase_order_view.php 383
ERROR - 2020-07-06 09:37:28 --> Severity: Notice --> Trying to get property of non-object C:\xampp\htdocs\payment_request\application\views\purchase_order\purchase_order_view.php 383
=======
>>>>>>> c2bd9ec2b942dddceb3c9f2d64e58ad62175bb70
<<<<<<< HEAD
ERROR - 2020-07-06 10:37:35 --> 404 Page Not Found: Assets/vendors
ERROR - 2020-07-06 10:37:35 --> 404 Page Not Found: Assets/vendors
ERROR - 2020-07-06 10:37:35 --> 404 Page Not Found: Assets/vendors
ERROR - 2020-07-06 10:37:35 --> 404 Page Not Found: Assets/vendors
ERROR - 2020-07-06 10:37:35 --> 404 Page Not Found: Assets/vendors
ERROR - 2020-07-06 10:37:35 --> 404 Page Not Found: Assets/vendors
ERROR - 2020-07-06 10:37:35 --> 404 Page Not Found: Assets/vendors
ERROR - 2020-07-06 15:41:20 --> Severity: Notice --> Undefined variable: is_available_tb_tengah D:\htdocs\payment_request\application\models\Payment_Header_Model.php 434
ERROR - 2020-07-06 15:41:40 --> Severity: error --> Exception: Too few arguments to function Reason_Model::getPaymentReason(), 1 passed in D:\htdocs\payment_request\application\controllers\Po_Finance.php on line 144 and exactly 2 expected D:\htdocs\payment_request\application\models\Reason_Model.php 118
ERROR - 2020-07-06 15:51:44 --> Severity: error --> Exception: Too few arguments to function Reason_Model::getPaymentReason(), 1 passed in D:\htdocs\payment_request\application\controllers\Po_Finance.php on line 144 and exactly 2 expected D:\htdocs\payment_request\application\models\Reason_Model.php 118
ERROR - 2020-07-06 15:52:00 --> Severity: error --> Exception: Too few arguments to function Reason_Model::getPaymentReason(), 1 passed in D:\htdocs\payment_request\application\controllers\Po_Finance.php on line 144 and exactly 2 expected D:\htdocs\payment_request\application\models\Reason_Model.php 118
=======
>>>>>>> f3564cc3f3ce7d3737332cd739bc77d50af47815
<<<<<<< HEAD
ERROR - 2020-07-06 05:26:58 --> 404 Page Not Found: Assets/vendors
ERROR - 2020-07-06 05:26:58 --> 404 Page Not Found: Assets/vendors
ERROR - 2020-07-06 05:26:58 --> 404 Page Not Found: Assets/vendors
ERROR - 2020-07-06 05:26:58 --> 404 Page Not Found: Assets/vendors
ERROR - 2020-07-06 05:26:58 --> 404 Page Not Found: Assets/vendors
ERROR - 2020-07-06 05:26:58 --> 404 Page Not Found: Assets/vendors
ERROR - 2020-07-06 05:26:58 --> 404 Page Not Found: Assets/vendors
ERROR - 2020-07-06 05:26:58 --> 404 Page Not Found: Assets/vendors
ERROR - 2020-07-06 07:10:41 --> 404 Page Not Found: Assets/vendors
ERROR - 2020-07-06 07:10:41 --> 404 Page Not Found: Assets/vendors
ERROR - 2020-07-06 07:10:41 --> 404 Page Not Found: Assets/vendors
ERROR - 2020-07-06 07:10:41 --> 404 Page Not Found: Assets/vendors
ERROR - 2020-07-06 07:10:41 --> 404 Page Not Found: Assets/vendors
ERROR - 2020-07-06 12:19:19 --> Severity: Notice --> Undefined variable: creator C:\xampp\htdocs\payment_request\application\models\Payment_Approval_Model.php 66
ERROR - 2020-07-06 08:47:22 --> 404 Page Not Found: Assets/vendors
ERROR - 2020-07-06 08:47:22 --> 404 Page Not Found: Assets/vendors
ERROR - 2020-07-06 08:47:22 --> 404 Page Not Found: Assets/vendors
ERROR - 2020-07-06 08:47:22 --> 404 Page Not Found: Assets/vendors
ERROR - 2020-07-06 08:47:22 --> 404 Page Not Found: Assets/vendors
ERROR - 2020-07-06 08:47:22 --> 404 Page Not Found: Assets/vendors
ERROR - 2020-07-06 08:47:22 --> 404 Page Not Found: Assets/vendors
ERROR - 2020-07-06 08:47:22 --> 404 Page Not Found: Assets/vendors
ERROR - 2020-07-06 08:51:07 --> 404 Page Not Found: Assets/vendors
ERROR - 2020-07-06 08:51:07 --> 404 Page Not Found: Assets/vendors
ERROR - 2020-07-06 08:51:07 --> 404 Page Not Found: Assets/vendors
ERROR - 2020-07-06 08:51:07 --> 404 Page Not Found: Assets/vendors
ERROR - 2020-07-06 08:51:07 --> 404 Page Not Found: Assets/vendors
ERROR - 2020-07-06 09:01:13 --> 404 Page Not Found: Assets/vendors
ERROR - 2020-07-06 09:01:13 --> 404 Page Not Found: Assets/vendors
ERROR - 2020-07-06 09:01:13 --> 404 Page Not Found: Assets/vendors
ERROR - 2020-07-06 09:01:13 --> 404 Page Not Found: Assets/vendors
ERROR - 2020-07-06 09:01:13 --> 404 Page Not Found: Assets/vendors
ERROR - 2020-07-06 09:01:15 --> 404 Page Not Found: Assets/vendors
ERROR - 2020-07-06 09:01:15 --> 404 Page Not Found: Assets/vendors
ERROR - 2020-07-06 09:01:15 --> 404 Page Not Found: Assets/vendors
ERROR - 2020-07-06 14:01:59 --> Severity: Notice --> Trying to get property of non-object C:\xampp\htdocs\payment_request\application\views\purchase_order\purchase_order_view.php 252
ERROR - 2020-07-06 14:01:59 --> Severity: Notice --> Trying to get property of non-object C:\xampp\htdocs\payment_request\application\views\purchase_order\purchase_order_view.php 252
ERROR - 2020-07-06 14:01:59 --> Severity: Notice --> Trying to get property of non-object C:\xampp\htdocs\payment_request\application\views\purchase_order\purchase_order_view.php 252
ERROR - 2020-07-06 14:01:59 --> Severity: Notice --> Trying to get property of non-object C:\xampp\htdocs\payment_request\application\views\purchase_order\purchase_order_view.php 252
ERROR - 2020-07-06 14:01:59 --> Severity: Notice --> Trying to get property of non-object C:\xampp\htdocs\payment_request\application\views\purchase_order\purchase_order_view.php 252
ERROR - 2020-07-06 14:01:59 --> Severity: Notice --> Trying to get property of non-object C:\xampp\htdocs\payment_request\application\views\purchase_order\purchase_order_view.php 252
ERROR - 2020-07-06 14:01:59 --> Severity: Notice --> Trying to get property of non-object C:\xampp\htdocs\payment_request\application\views\purchase_order\purchase_order_view.php 252
ERROR - 2020-07-06 14:01:59 --> Severity: Notice --> Trying to get property of non-object C:\xampp\htdocs\payment_request\application\views\purchase_order\purchase_order_view.php 319
ERROR - 2020-07-06 14:01:59 --> Severity: Notice --> Trying to get property of non-object C:\xampp\htdocs\payment_request\application\views\purchase_order\purchase_order_view.php 319
ERROR - 2020-07-06 14:01:59 --> Severity: Notice --> Trying to get property of non-object C:\xampp\htdocs\payment_request\application\views\purchase_order\purchase_order_view.php 319
ERROR - 2020-07-06 14:01:59 --> Severity: Notice --> Trying to get property of non-object C:\xampp\htdocs\payment_request\application\views\purchase_order\purchase_order_view.php 319
ERROR - 2020-07-06 14:01:59 --> Severity: Notice --> Trying to get property of non-object C:\xampp\htdocs\payment_request\application\views\purchase_order\purchase_order_view.php 351
ERROR - 2020-07-06 14:01:59 --> Severity: Notice --> Trying to get property of non-object C:\xampp\htdocs\payment_request\application\views\purchase_order\purchase_order_view.php 351
ERROR - 2020-07-06 14:01:59 --> Severity: Notice --> Trying to get property of non-object C:\xampp\htdocs\payment_request\application\views\purchase_order\purchase_order_view.php 351
ERROR - 2020-07-06 14:01:59 --> Severity: Notice --> Trying to get property of non-object C:\xampp\htdocs\payment_request\application\views\purchase_order\purchase_order_view.php 351
ERROR - 2020-07-06 14:01:59 --> Severity: Notice --> Trying to get property of non-object C:\xampp\htdocs\payment_request\application\views\purchase_order\purchase_order_view.php 351
ERROR - 2020-07-06 14:01:59 --> Severity: Notice --> Trying to get property of non-object C:\xampp\htdocs\payment_request\application\views\purchase_order\purchase_order_view.php 351
ERROR - 2020-07-06 14:01:59 --> Severity: Notice --> Trying to get property of non-object C:\xampp\htdocs\payment_request\application\views\purchase_order\purchase_order_view.php 351
ERROR - 2020-07-06 14:01:59 --> Severity: Notice --> Trying to get property of non-object C:\xampp\htdocs\payment_request\application\views\purchase_order\purchase_order_view.php 351
ERROR - 2020-07-06 14:01:59 --> Severity: Notice --> Trying to get property of non-object C:\xampp\htdocs\payment_request\application\views\purchase_order\purchase_order_view.php 351
ERROR - 2020-07-06 14:01:59 --> Severity: Notice --> Trying to get property of non-object C:\xampp\htdocs\payment_request\application\views\purchase_order\purchase_order_view.php 383
ERROR - 2020-07-06 14:01:59 --> Severity: Notice --> Trying to get property of non-object C:\xampp\htdocs\payment_request\application\views\purchase_order\purchase_order_view.php 383
ERROR - 2020-07-06 14:01:59 --> Severity: Notice --> Trying to get property of non-object C:\xampp\htdocs\payment_request\application\views\purchase_order\purchase_order_view.php 383
ERROR - 2020-07-06 14:01:59 --> Severity: Notice --> Trying to get property of non-object C:\xampp\htdocs\payment_request\application\views\purchase_order\purchase_order_view.php 383
ERROR - 2020-07-06 14:01:59 --> Severity: Notice --> Trying to get property of non-object C:\xampp\htdocs\payment_request\application\views\purchase_order\purchase_order_view.php 383
ERROR - 2020-07-06 14:02:16 --> Severity: Notice --> Trying to get property of non-object C:\xampp\htdocs\payment_request\application\views\purchase_order\purchase_order_view.php 252
ERROR - 2020-07-06 14:02:16 --> Severity: Notice --> Trying to get property of non-object C:\xampp\htdocs\payment_request\application\views\purchase_order\purchase_order_view.php 252
ERROR - 2020-07-06 14:02:16 --> Severity: Notice --> Trying to get property of non-object C:\xampp\htdocs\payment_request\application\views\purchase_order\purchase_order_view.php 252
ERROR - 2020-07-06 14:02:16 --> Severity: Notice --> Trying to get property of non-object C:\xampp\htdocs\payment_request\application\views\purchase_order\purchase_order_view.php 252
ERROR - 2020-07-06 14:02:16 --> Severity: Notice --> Trying to get property of non-object C:\xampp\htdocs\payment_request\application\views\purchase_order\purchase_order_view.php 252
ERROR - 2020-07-06 14:02:16 --> Severity: Notice --> Trying to get property of non-object C:\xampp\htdocs\payment_request\application\views\purchase_order\purchase_order_view.php 252
ERROR - 2020-07-06 14:02:16 --> Severity: Notice --> Trying to get property of non-object C:\xampp\htdocs\payment_request\application\views\purchase_order\purchase_order_view.php 252
ERROR - 2020-07-06 14:02:16 --> Severity: Notice --> Trying to get property of non-object C:\xampp\htdocs\payment_request\application\views\purchase_order\purchase_order_view.php 319
ERROR - 2020-07-06 14:02:16 --> Severity: Notice --> Trying to get property of non-object C:\xampp\htdocs\payment_request\application\views\purchase_order\purchase_order_view.php 319
ERROR - 2020-07-06 14:02:16 --> Severity: Notice --> Trying to get property of non-object C:\xampp\htdocs\payment_request\application\views\purchase_order\purchase_order_view.php 319
ERROR - 2020-07-06 14:02:16 --> Severity: Notice --> Trying to get property of non-object C:\xampp\htdocs\payment_request\application\views\purchase_order\purchase_order_view.php 319
ERROR - 2020-07-06 14:02:16 --> Severity: Notice --> Trying to get property of non-object C:\xampp\htdocs\payment_request\application\views\purchase_order\purchase_order_view.php 351
ERROR - 2020-07-06 14:02:16 --> Severity: Notice --> Trying to get property of non-object C:\xampp\htdocs\payment_request\application\views\purchase_order\purchase_order_view.php 351
ERROR - 2020-07-06 14:02:16 --> Severity: Notice --> Trying to get property of non-object C:\xampp\htdocs\payment_request\application\views\purchase_order\purchase_order_view.php 351
ERROR - 2020-07-06 14:02:16 --> Severity: Notice --> Trying to get property of non-object C:\xampp\htdocs\payment_request\application\views\purchase_order\purchase_order_view.php 351
ERROR - 2020-07-06 14:02:16 --> Severity: Notice --> Trying to get property of non-object C:\xampp\htdocs\payment_request\application\views\purchase_order\purchase_order_view.php 351
ERROR - 2020-07-06 14:02:16 --> Severity: Notice --> Trying to get property of non-object C:\xampp\htdocs\payment_request\application\views\purchase_order\purchase_order_view.php 351
ERROR - 2020-07-06 14:02:16 --> Severity: Notice --> Trying to get property of non-object C:\xampp\htdocs\payment_request\application\views\purchase_order\purchase_order_view.php 351
ERROR - 2020-07-06 14:02:16 --> Severity: Notice --> Trying to get property of non-object C:\xampp\htdocs\payment_request\application\views\purchase_order\purchase_order_view.php 351
ERROR - 2020-07-06 14:02:16 --> Severity: Notice --> Trying to get property of non-object C:\xampp\htdocs\payment_request\application\views\purchase_order\purchase_order_view.php 351
ERROR - 2020-07-06 14:02:16 --> Severity: Notice --> Trying to get property of non-object C:\xampp\htdocs\payment_request\application\views\purchase_order\purchase_order_view.php 383
ERROR - 2020-07-06 14:02:16 --> Severity: Notice --> Trying to get property of non-object C:\xampp\htdocs\payment_request\application\views\purchase_order\purchase_order_view.php 383
ERROR - 2020-07-06 14:02:16 --> Severity: Notice --> Trying to get property of non-object C:\xampp\htdocs\payment_request\application\views\purchase_order\purchase_order_view.php 383
ERROR - 2020-07-06 14:02:16 --> Severity: Notice --> Trying to get property of non-object C:\xampp\htdocs\payment_request\application\views\purchase_order\purchase_order_view.php 383
ERROR - 2020-07-06 14:02:16 --> Severity: Notice --> Trying to get property of non-object C:\xampp\htdocs\payment_request\application\views\purchase_order\purchase_order_view.php 383
ERROR - 2020-07-06 14:15:25 --> Severity: Notice --> Trying to get property of non-object C:\xampp\htdocs\payment_request\application\views\purchase_order\purchase_order_view.php 252
ERROR - 2020-07-06 14:15:25 --> Severity: Notice --> Trying to get property of non-object C:\xampp\htdocs\payment_request\application\views\purchase_order\purchase_order_view.php 252
ERROR - 2020-07-06 14:15:25 --> Severity: Notice --> Trying to get property of non-object C:\xampp\htdocs\payment_request\application\views\purchase_order\purchase_order_view.php 252
ERROR - 2020-07-06 14:15:25 --> Severity: Notice --> Trying to get property of non-object C:\xampp\htdocs\payment_request\application\views\purchase_order\purchase_order_view.php 252
ERROR - 2020-07-06 14:15:25 --> Severity: Notice --> Trying to get property of non-object C:\xampp\htdocs\payment_request\application\views\purchase_order\purchase_order_view.php 252
ERROR - 2020-07-06 14:15:25 --> Severity: Notice --> Trying to get property of non-object C:\xampp\htdocs\payment_request\application\views\purchase_order\purchase_order_view.php 252
ERROR - 2020-07-06 14:15:25 --> Severity: Notice --> Trying to get property of non-object C:\xampp\htdocs\payment_request\application\views\purchase_order\purchase_order_view.php 252
ERROR - 2020-07-06 14:15:25 --> Severity: Notice --> Trying to get property of non-object C:\xampp\htdocs\payment_request\application\views\purchase_order\purchase_order_view.php 319
ERROR - 2020-07-06 14:15:25 --> Severity: Notice --> Trying to get property of non-object C:\xampp\htdocs\payment_request\application\views\purchase_order\purchase_order_view.php 319
ERROR - 2020-07-06 14:15:25 --> Severity: Notice --> Trying to get property of non-object C:\xampp\htdocs\payment_request\application\views\purchase_order\purchase_order_view.php 319
ERROR - 2020-07-06 14:15:25 --> Severity: Notice --> Trying to get property of non-object C:\xampp\htdocs\payment_request\application\views\purchase_order\purchase_order_view.php 319
ERROR - 2020-07-06 14:15:25 --> Severity: Notice --> Trying to get property of non-object C:\xampp\htdocs\payment_request\application\views\purchase_order\purchase_order_view.php 351
ERROR - 2020-07-06 14:15:25 --> Severity: Notice --> Trying to get property of non-object C:\xampp\htdocs\payment_request\application\views\purchase_order\purchase_order_view.php 351
ERROR - 2020-07-06 14:15:25 --> Severity: Notice --> Trying to get property of non-object C:\xampp\htdocs\payment_request\application\views\purchase_order\purchase_order_view.php 351
ERROR - 2020-07-06 14:15:25 --> Severity: Notice --> Trying to get property of non-object C:\xampp\htdocs\payment_request\application\views\purchase_order\purchase_order_view.php 351
ERROR - 2020-07-06 14:15:25 --> Severity: Notice --> Trying to get property of non-object C:\xampp\htdocs\payment_request\application\views\purchase_order\purchase_order_view.php 351
ERROR - 2020-07-06 14:15:25 --> Severity: Notice --> Trying to get property of non-object C:\xampp\htdocs\payment_request\application\views\purchase_order\purchase_order_view.php 351
ERROR - 2020-07-06 14:15:25 --> Severity: Notice --> Trying to get property of non-object C:\xampp\htdocs\payment_request\application\views\purchase_order\purchase_order_view.php 351
ERROR - 2020-07-06 14:15:25 --> Severity: Notice --> Trying to get property of non-object C:\xampp\htdocs\payment_request\application\views\purchase_order\purchase_order_view.php 351
ERROR - 2020-07-06 14:15:25 --> Severity: Notice --> Trying to get property of non-object C:\xampp\htdocs\payment_request\application\views\purchase_order\purchase_order_view.php 351
ERROR - 2020-07-06 14:15:25 --> Severity: Notice --> Trying to get property of non-object C:\xampp\htdocs\payment_request\application\views\purchase_order\purchase_order_view.php 383
ERROR - 2020-07-06 14:15:25 --> Severity: Notice --> Trying to get property of non-object C:\xampp\htdocs\payment_request\application\views\purchase_order\purchase_order_view.php 383
ERROR - 2020-07-06 14:15:25 --> Severity: Notice --> Trying to get property of non-object C:\xampp\htdocs\payment_request\application\views\purchase_order\purchase_order_view.php 383
ERROR - 2020-07-06 14:15:25 --> Severity: Notice --> Trying to get property of non-object C:\xampp\htdocs\payment_request\application\views\purchase_order\purchase_order_view.php 383
ERROR - 2020-07-06 14:15:25 --> Severity: Notice --> Trying to get property of non-object C:\xampp\htdocs\payment_request\application\views\purchase_order\purchase_order_view.php 383
ERROR - 2020-07-06 14:16:41 --> Severity: Notice --> Trying to get property of non-object C:\xampp\htdocs\payment_request\application\views\purchase_order\purchase_order_view.php 252
ERROR - 2020-07-06 14:16:41 --> Severity: Notice --> Trying to get property of non-object C:\xampp\htdocs\payment_request\application\views\purchase_order\purchase_order_view.php 252
ERROR - 2020-07-06 14:16:41 --> Severity: Notice --> Trying to get property of non-object C:\xampp\htdocs\payment_request\application\views\purchase_order\purchase_order_view.php 252
ERROR - 2020-07-06 14:16:41 --> Severity: Notice --> Trying to get property of non-object C:\xampp\htdocs\payment_request\application\views\purchase_order\purchase_order_view.php 252
ERROR - 2020-07-06 14:16:41 --> Severity: Notice --> Trying to get property of non-object C:\xampp\htdocs\payment_request\application\views\purchase_order\purchase_order_view.php 252
ERROR - 2020-07-06 14:16:41 --> Severity: Notice --> Trying to get property of non-object C:\xampp\htdocs\payment_request\application\views\purchase_order\purchase_order_view.php 252
ERROR - 2020-07-06 14:16:41 --> Severity: Notice --> Trying to get property of non-object C:\xampp\htdocs\payment_request\application\views\purchase_order\purchase_order_view.php 252
ERROR - 2020-07-06 14:16:41 --> Severity: Notice --> Trying to get property of non-object C:\xampp\htdocs\payment_request\application\views\purchase_order\purchase_order_view.php 319
ERROR - 2020-07-06 14:16:41 --> Severity: Notice --> Trying to get property of non-object C:\xampp\htdocs\payment_request\application\views\purchase_order\purchase_order_view.php 319
ERROR - 2020-07-06 14:16:41 --> Severity: Notice --> Trying to get property of non-object C:\xampp\htdocs\payment_request\application\views\purchase_order\purchase_order_view.php 319
ERROR - 2020-07-06 14:16:41 --> Severity: Notice --> Trying to get property of non-object C:\xampp\htdocs\payment_request\application\views\purchase_order\purchase_order_view.php 319
ERROR - 2020-07-06 14:16:41 --> Severity: Notice --> Trying to get property of non-object C:\xampp\htdocs\payment_request\application\views\purchase_order\purchase_order_view.php 351
ERROR - 2020-07-06 14:16:41 --> Severity: Notice --> Trying to get property of non-object C:\xampp\htdocs\payment_request\application\views\purchase_order\purchase_order_view.php 351
ERROR - 2020-07-06 14:16:41 --> Severity: Notice --> Trying to get property of non-object C:\xampp\htdocs\payment_request\application\views\purchase_order\purchase_order_view.php 351
ERROR - 2020-07-06 14:16:41 --> Severity: Notice --> Trying to get property of non-object C:\xampp\htdocs\payment_request\application\views\purchase_order\purchase_order_view.php 351
ERROR - 2020-07-06 14:16:41 --> Severity: Notice --> Trying to get property of non-object C:\xampp\htdocs\payment_request\application\views\purchase_order\purchase_order_view.php 351
ERROR - 2020-07-06 14:16:41 --> Severity: Notice --> Trying to get property of non-object C:\xampp\htdocs\payment_request\application\views\purchase_order\purchase_order_view.php 351
ERROR - 2020-07-06 14:16:41 --> Severity: Notice --> Trying to get property of non-object C:\xampp\htdocs\payment_request\application\views\purchase_order\purchase_order_view.php 351
ERROR - 2020-07-06 14:16:41 --> Severity: Notice --> Trying to get property of non-object C:\xampp\htdocs\payment_request\application\views\purchase_order\purchase_order_view.php 351
ERROR - 2020-07-06 14:16:41 --> Severity: Notice --> Trying to get property of non-object C:\xampp\htdocs\payment_request\application\views\purchase_order\purchase_order_view.php 351
ERROR - 2020-07-06 14:16:41 --> Severity: Notice --> Trying to get property of non-object C:\xampp\htdocs\payment_request\application\views\purchase_order\purchase_order_view.php 383
ERROR - 2020-07-06 14:16:41 --> Severity: Notice --> Trying to get property of non-object C:\xampp\htdocs\payment_request\application\views\purchase_order\purchase_order_view.php 383
ERROR - 2020-07-06 14:16:41 --> Severity: Notice --> Trying to get property of non-object C:\xampp\htdocs\payment_request\application\views\purchase_order\purchase_order_view.php 383
ERROR - 2020-07-06 14:16:41 --> Severity: Notice --> Trying to get property of non-object C:\xampp\htdocs\payment_request\application\views\purchase_order\purchase_order_view.php 383
ERROR - 2020-07-06 14:16:41 --> Severity: Notice --> Trying to get property of non-object C:\xampp\htdocs\payment_request\application\views\purchase_order\purchase_order_view.php 383
ERROR - 2020-07-06 14:17:10 --> Severity: Notice --> Trying to get property of non-object C:\xampp\htdocs\payment_request\application\views\purchase_order\purchase_order_view.php 252
ERROR - 2020-07-06 14:17:10 --> Severity: Notice --> Trying to get property of non-object C:\xampp\htdocs\payment_request\application\views\purchase_order\purchase_order_view.php 252
ERROR - 2020-07-06 14:17:10 --> Severity: Notice --> Trying to get property of non-object C:\xampp\htdocs\payment_request\application\views\purchase_order\purchase_order_view.php 252
ERROR - 2020-07-06 14:17:10 --> Severity: Notice --> Trying to get property of non-object C:\xampp\htdocs\payment_request\application\views\purchase_order\purchase_order_view.php 252
ERROR - 2020-07-06 14:17:10 --> Severity: Notice --> Trying to get property of non-object C:\xampp\htdocs\payment_request\application\views\purchase_order\purchase_order_view.php 252
ERROR - 2020-07-06 14:17:10 --> Severity: Notice --> Trying to get property of non-object C:\xampp\htdocs\payment_request\application\views\purchase_order\purchase_order_view.php 252
ERROR - 2020-07-06 14:17:10 --> Severity: Notice --> Trying to get property of non-object C:\xampp\htdocs\payment_request\application\views\purchase_order\purchase_order_view.php 252
ERROR - 2020-07-06 14:17:10 --> Severity: Notice --> Trying to get property of non-object C:\xampp\htdocs\payment_request\application\views\purchase_order\purchase_order_view.php 319
ERROR - 2020-07-06 14:17:10 --> Severity: Notice --> Trying to get property of non-object C:\xampp\htdocs\payment_request\application\views\purchase_order\purchase_order_view.php 319
ERROR - 2020-07-06 14:17:10 --> Severity: Notice --> Trying to get property of non-object C:\xampp\htdocs\payment_request\application\views\purchase_order\purchase_order_view.php 319
ERROR - 2020-07-06 14:17:10 --> Severity: Notice --> Trying to get property of non-object C:\xampp\htdocs\payment_request\application\views\purchase_order\purchase_order_view.php 319
ERROR - 2020-07-06 14:17:10 --> Severity: Notice --> Trying to get property of non-object C:\xampp\htdocs\payment_request\application\views\purchase_order\purchase_order_view.php 351
ERROR - 2020-07-06 14:17:10 --> Severity: Notice --> Trying to get property of non-object C:\xampp\htdocs\payment_request\application\views\purchase_order\purchase_order_view.php 351
ERROR - 2020-07-06 14:17:10 --> Severity: Notice --> Trying to get property of non-object C:\xampp\htdocs\payment_request\application\views\purchase_order\purchase_order_view.php 351
ERROR - 2020-07-06 14:17:10 --> Severity: Notice --> Trying to get property of non-object C:\xampp\htdocs\payment_request\application\views\purchase_order\purchase_order_view.php 351
ERROR - 2020-07-06 14:17:10 --> Severity: Notice --> Trying to get property of non-object C:\xampp\htdocs\payment_request\application\views\purchase_order\purchase_order_view.php 351
ERROR - 2020-07-06 14:17:10 --> Severity: Notice --> Trying to get property of non-object C:\xampp\htdocs\payment_request\application\views\purchase_order\purchase_order_view.php 351
ERROR - 2020-07-06 14:17:10 --> Severity: Notice --> Trying to get property of non-object C:\xampp\htdocs\payment_request\application\views\purchase_order\purchase_order_view.php 351
ERROR - 2020-07-06 14:17:10 --> Severity: Notice --> Trying to get property of non-object C:\xampp\htdocs\payment_request\application\views\purchase_order\purchase_order_view.php 351
ERROR - 2020-07-06 14:17:10 --> Severity: Notice --> Trying to get property of non-object C:\xampp\htdocs\payment_request\application\views\purchase_order\purchase_order_view.php 351
ERROR - 2020-07-06 14:17:10 --> Severity: Notice --> Trying to get property of non-object C:\xampp\htdocs\payment_request\application\views\purchase_order\purchase_order_view.php 383
ERROR - 2020-07-06 14:17:10 --> Severity: Notice --> Trying to get property of non-object C:\xampp\htdocs\payment_request\application\views\purchase_order\purchase_order_view.php 383
ERROR - 2020-07-06 14:17:10 --> Severity: Notice --> Trying to get property of non-object C:\xampp\htdocs\payment_request\application\views\purchase_order\purchase_order_view.php 383
ERROR - 2020-07-06 14:17:10 --> Severity: Notice --> Trying to get property of non-object C:\xampp\htdocs\payment_request\application\views\purchase_order\purchase_order_view.php 383
ERROR - 2020-07-06 14:17:10 --> Severity: Notice --> Trying to get property of non-object C:\xampp\htdocs\payment_request\application\views\purchase_order\purchase_order_view.php 383
ERROR - 2020-07-06 14:17:12 --> Severity: Notice --> Trying to get property of non-object C:\xampp\htdocs\payment_request\application\views\purchase_order\purchase_order_view.php 252
ERROR - 2020-07-06 14:17:12 --> Severity: Notice --> Trying to get property of non-object C:\xampp\htdocs\payment_request\application\views\purchase_order\purchase_order_view.php 252
ERROR - 2020-07-06 14:17:12 --> Severity: Notice --> Trying to get property of non-object C:\xampp\htdocs\payment_request\application\views\purchase_order\purchase_order_view.php 252
ERROR - 2020-07-06 14:17:12 --> Severity: Notice --> Trying to get property of non-object C:\xampp\htdocs\payment_request\application\views\purchase_order\purchase_order_view.php 252
ERROR - 2020-07-06 14:17:12 --> Severity: Notice --> Trying to get property of non-object C:\xampp\htdocs\payment_request\application\views\purchase_order\purchase_order_view.php 252
ERROR - 2020-07-06 14:17:12 --> Severity: Notice --> Trying to get property of non-object C:\xampp\htdocs\payment_request\application\views\purchase_order\purchase_order_view.php 252
ERROR - 2020-07-06 14:17:12 --> Severity: Notice --> Trying to get property of non-object C:\xampp\htdocs\payment_request\application\views\purchase_order\purchase_order_view.php 252
ERROR - 2020-07-06 14:17:12 --> Severity: Notice --> Trying to get property of non-object C:\xampp\htdocs\payment_request\application\views\purchase_order\purchase_order_view.php 319
ERROR - 2020-07-06 14:17:12 --> Severity: Notice --> Trying to get property of non-object C:\xampp\htdocs\payment_request\application\views\purchase_order\purchase_order_view.php 319
ERROR - 2020-07-06 14:17:12 --> Severity: Notice --> Trying to get property of non-object C:\xampp\htdocs\payment_request\application\views\purchase_order\purchase_order_view.php 319
ERROR - 2020-07-06 14:17:12 --> Severity: Notice --> Trying to get property of non-object C:\xampp\htdocs\payment_request\application\views\purchase_order\purchase_order_view.php 319
ERROR - 2020-07-06 14:17:12 --> Severity: Notice --> Trying to get property of non-object C:\xampp\htdocs\payment_request\application\views\purchase_order\purchase_order_view.php 351
ERROR - 2020-07-06 14:17:12 --> Severity: Notice --> Trying to get property of non-object C:\xampp\htdocs\payment_request\application\views\purchase_order\purchase_order_view.php 351
ERROR - 2020-07-06 14:17:12 --> Severity: Notice --> Trying to get property of non-object C:\xampp\htdocs\payment_request\application\views\purchase_order\purchase_order_view.php 351
ERROR - 2020-07-06 14:17:12 --> Severity: Notice --> Trying to get property of non-object C:\xampp\htdocs\payment_request\application\views\purchase_order\purchase_order_view.php 351
ERROR - 2020-07-06 14:17:12 --> Severity: Notice --> Trying to get property of non-object C:\xampp\htdocs\payment_request\application\views\purchase_order\purchase_order_view.php 351
ERROR - 2020-07-06 14:17:12 --> Severity: Notice --> Trying to get property of non-object C:\xampp\htdocs\payment_request\application\views\purchase_order\purchase_order_view.php 351
ERROR - 2020-07-06 14:17:12 --> Severity: Notice --> Trying to get property of non-object C:\xampp\htdocs\payment_request\application\views\purchase_order\purchase_order_view.php 351
ERROR - 2020-07-06 14:17:12 --> Severity: Notice --> Trying to get property of non-object C:\xampp\htdocs\payment_request\application\views\purchase_order\purchase_order_view.php 351
ERROR - 2020-07-06 14:17:12 --> Severity: Notice --> Trying to get property of non-object C:\xampp\htdocs\payment_request\application\views\purchase_order\purchase_order_view.php 351
ERROR - 2020-07-06 14:17:12 --> Severity: Notice --> Trying to get property of non-object C:\xampp\htdocs\payment_request\application\views\purchase_order\purchase_order_view.php 383
ERROR - 2020-07-06 14:17:12 --> Severity: Notice --> Trying to get property of non-object C:\xampp\htdocs\payment_request\application\views\purchase_order\purchase_order_view.php 383
ERROR - 2020-07-06 14:17:12 --> Severity: Notice --> Trying to get property of non-object C:\xampp\htdocs\payment_request\application\views\purchase_order\purchase_order_view.php 383
ERROR - 2020-07-06 14:17:12 --> Severity: Notice --> Trying to get property of non-object C:\xampp\htdocs\payment_request\application\views\purchase_order\purchase_order_view.php 383
ERROR - 2020-07-06 14:17:12 --> Severity: Notice --> Trying to get property of non-object C:\xampp\htdocs\payment_request\application\views\purchase_order\purchase_order_view.php 383
ERROR - 2020-07-06 14:17:25 --> Severity: Notice --> Trying to get property of non-object C:\xampp\htdocs\payment_request\application\views\purchase_order\purchase_order_view.php 252
ERROR - 2020-07-06 14:17:25 --> Severity: Notice --> Trying to get property of non-object C:\xampp\htdocs\payment_request\application\views\purchase_order\purchase_order_view.php 252
ERROR - 2020-07-06 14:17:25 --> Severity: Notice --> Trying to get property of non-object C:\xampp\htdocs\payment_request\application\views\purchase_order\purchase_order_view.php 252
ERROR - 2020-07-06 14:17:25 --> Severity: Notice --> Trying to get property of non-object C:\xampp\htdocs\payment_request\application\views\purchase_order\purchase_order_view.php 252
ERROR - 2020-07-06 14:17:25 --> Severity: Notice --> Trying to get property of non-object C:\xampp\htdocs\payment_request\application\views\purchase_order\purchase_order_view.php 252
ERROR - 2020-07-06 14:17:25 --> Severity: Notice --> Trying to get property of non-object C:\xampp\htdocs\payment_request\application\views\purchase_order\purchase_order_view.php 252
ERROR - 2020-07-06 14:17:25 --> Severity: Notice --> Trying to get property of non-object C:\xampp\htdocs\payment_request\application\views\purchase_order\purchase_order_view.php 252
ERROR - 2020-07-06 14:17:25 --> Severity: Notice --> Trying to get property of non-object C:\xampp\htdocs\payment_request\application\views\purchase_order\purchase_order_view.php 319
ERROR - 2020-07-06 14:17:25 --> Severity: Notice --> Trying to get property of non-object C:\xampp\htdocs\payment_request\application\views\purchase_order\purchase_order_view.php 319
ERROR - 2020-07-06 14:17:25 --> Severity: Notice --> Trying to get property of non-object C:\xampp\htdocs\payment_request\application\views\purchase_order\purchase_order_view.php 319
ERROR - 2020-07-06 14:17:25 --> Severity: Notice --> Trying to get property of non-object C:\xampp\htdocs\payment_request\application\views\purchase_order\purchase_order_view.php 319
ERROR - 2020-07-06 14:17:25 --> Severity: Notice --> Trying to get property of non-object C:\xampp\htdocs\payment_request\application\views\purchase_order\purchase_order_view.php 351
ERROR - 2020-07-06 14:17:25 --> Severity: Notice --> Trying to get property of non-object C:\xampp\htdocs\payment_request\application\views\purchase_order\purchase_order_view.php 351
ERROR - 2020-07-06 14:17:25 --> Severity: Notice --> Trying to get property of non-object C:\xampp\htdocs\payment_request\application\views\purchase_order\purchase_order_view.php 351
ERROR - 2020-07-06 14:17:25 --> Severity: Notice --> Trying to get property of non-object C:\xampp\htdocs\payment_request\application\views\purchase_order\purchase_order_view.php 351
ERROR - 2020-07-06 14:17:25 --> Severity: Notice --> Trying to get property of non-object C:\xampp\htdocs\payment_request\application\views\purchase_order\purchase_order_view.php 351
ERROR - 2020-07-06 14:17:25 --> Severity: Notice --> Trying to get property of non-object C:\xampp\htdocs\payment_request\application\views\purchase_order\purchase_order_view.php 351
ERROR - 2020-07-06 14:17:25 --> Severity: Notice --> Trying to get property of non-object C:\xampp\htdocs\payment_request\application\views\purchase_order\purchase_order_view.php 351
ERROR - 2020-07-06 14:17:25 --> Severity: Notice --> Trying to get property of non-object C:\xampp\htdocs\payment_request\application\views\purchase_order\purchase_order_view.php 351
ERROR - 2020-07-06 14:17:25 --> Severity: Notice --> Trying to get property of non-object C:\xampp\htdocs\payment_request\application\views\purchase_order\purchase_order_view.php 351
ERROR - 2020-07-06 14:17:25 --> Severity: Notice --> Trying to get property of non-object C:\xampp\htdocs\payment_request\application\views\purchase_order\purchase_order_view.php 383
ERROR - 2020-07-06 14:17:25 --> Severity: Notice --> Trying to get property of non-object C:\xampp\htdocs\payment_request\application\views\purchase_order\purchase_order_view.php 383
ERROR - 2020-07-06 14:17:25 --> Severity: Notice --> Trying to get property of non-object C:\xampp\htdocs\payment_request\application\views\purchase_order\purchase_order_view.php 383
ERROR - 2020-07-06 14:17:25 --> Severity: Notice --> Trying to get property of non-object C:\xampp\htdocs\payment_request\application\views\purchase_order\purchase_order_view.php 383
ERROR - 2020-07-06 14:17:25 --> Severity: Notice --> Trying to get property of non-object C:\xampp\htdocs\payment_request\application\views\purchase_order\purchase_order_view.php 383
ERROR - 2020-07-06 14:19:14 --> Severity: Notice --> Undefined variable: is_available_tb_tengah C:\xampp\htdocs\payment_request\application\models\Payment_Header_Model.php 434
ERROR - 2020-07-06 14:21:12 --> Severity: Warning --> Missing argument 2 for Reason_Model::getPaymentReason(), called in C:\xampp\htdocs\payment_request\application\controllers\Po_Finance.php on line 144 and defined C:\xampp\htdocs\payment_request\application\models\Reason_Model.php 118
ERROR - 2020-07-06 14:21:12 --> Severity: Notice --> Undefined variable: create_by C:\xampp\htdocs\payment_request\application\models\Reason_Model.php 128
ERROR - 2020-07-06 14:21:23 --> Severity: Warning --> Missing argument 2 for Reason_Model::getPaymentReason(), called in C:\xampp\htdocs\payment_request\application\controllers\Po_Finance.php on line 144 and defined C:\xampp\htdocs\payment_request\application\models\Reason_Model.php 118
ERROR - 2020-07-06 14:21:23 --> Severity: Notice --> Undefined variable: create_by C:\xampp\htdocs\payment_request\application\models\Reason_Model.php 128
ERROR - 2020-07-06 14:22:31 --> Severity: Warning --> Missing argument 2 for Reason_Model::getPaymentReason(), called in C:\xampp\htdocs\payment_request\application\controllers\Po_Finance.php on line 144 and defined C:\xampp\htdocs\payment_request\application\models\Reason_Model.php 118
ERROR - 2020-07-06 14:22:31 --> Severity: Notice --> Undefined variable: create_by C:\xampp\htdocs\payment_request\application\models\Reason_Model.php 128
ERROR - 2020-07-06 14:22:49 --> Severity: Warning --> Missing argument 2 for Reason_Model::getPaymentReason(), called in C:\xampp\htdocs\payment_request\application\controllers\Po_Finance.php on line 144 and defined C:\xampp\htdocs\payment_request\application\models\Reason_Model.php 118
ERROR - 2020-07-06 14:22:49 --> Severity: Notice --> Undefined variable: create_by C:\xampp\htdocs\payment_request\application\models\Reason_Model.php 128
ERROR - 2020-07-06 14:23:06 --> Severity: Warning --> Missing argument 2 for Reason_Model::getPaymentReason(), called in C:\xampp\htdocs\payment_request\application\controllers\Po_Finance.php on line 144 and defined C:\xampp\htdocs\payment_request\application\models\Reason_Model.php 118
ERROR - 2020-07-06 14:23:06 --> Severity: Notice --> Undefined variable: create_by C:\xampp\htdocs\payment_request\application\models\Reason_Model.php 128
ERROR - 2020-07-06 14:23:18 --> Severity: Warning --> Missing argument 2 for Reason_Model::getPaymentReason(), called in C:\xampp\htdocs\payment_request\application\controllers\Po_Finance.php on line 144 and defined C:\xampp\htdocs\payment_request\application\models\Reason_Model.php 118
ERROR - 2020-07-06 14:23:18 --> Severity: Notice --> Undefined variable: create_by C:\xampp\htdocs\payment_request\application\models\Reason_Model.php 128
ERROR - 2020-07-06 14:23:33 --> Severity: Warning --> Missing argument 2 for Reason_Model::getPaymentReason(), called in C:\xampp\htdocs\payment_request\application\controllers\Po_Finance.php on line 144 and defined C:\xampp\htdocs\payment_request\application\models\Reason_Model.php 118
ERROR - 2020-07-06 14:23:33 --> Severity: Notice --> Undefined variable: create_by C:\xampp\htdocs\payment_request\application\models\Reason_Model.php 128
ERROR - 2020-07-06 09:30:01 --> 404 Page Not Found: Assets/vendors
ERROR - 2020-07-06 09:30:01 --> 404 Page Not Found: Assets/vendors
ERROR - 2020-07-06 09:30:01 --> 404 Page Not Found: Assets/vendors
ERROR - 2020-07-06 09:30:01 --> 404 Page Not Found: Assets/vendors
ERROR - 2020-07-06 09:30:01 --> 404 Page Not Found: Assets/vendors
ERROR - 2020-07-06 09:30:01 --> 404 Page Not Found: Assets/vendors
ERROR - 2020-07-06 09:30:01 --> 404 Page Not Found: Assets/vendors
ERROR - 2020-07-06 09:30:01 --> 404 Page Not Found: Assets/vendors
ERROR - 2020-07-06 14:31:09 --> Severity: Notice --> Trying to get property of non-object C:\xampp\htdocs\payment_request\application\views\purchase_order\purchase_order_view.php 252
ERROR - 2020-07-06 14:31:09 --> Severity: Notice --> Trying to get property of non-object C:\xampp\htdocs\payment_request\application\views\purchase_order\purchase_order_view.php 252
ERROR - 2020-07-06 14:31:09 --> Severity: Notice --> Trying to get property of non-object C:\xampp\htdocs\payment_request\application\views\purchase_order\purchase_order_view.php 252
ERROR - 2020-07-06 14:31:09 --> Severity: Notice --> Trying to get property of non-object C:\xampp\htdocs\payment_request\application\views\purchase_order\purchase_order_view.php 252
ERROR - 2020-07-06 14:31:09 --> Severity: Notice --> Trying to get property of non-object C:\xampp\htdocs\payment_request\application\views\purchase_order\purchase_order_view.php 252
ERROR - 2020-07-06 14:31:09 --> Severity: Notice --> Trying to get property of non-object C:\xampp\htdocs\payment_request\application\views\purchase_order\purchase_order_view.php 252
ERROR - 2020-07-06 14:31:09 --> Severity: Notice --> Trying to get property of non-object C:\xampp\htdocs\payment_request\application\views\purchase_order\purchase_order_view.php 252
ERROR - 2020-07-06 14:31:09 --> Severity: Notice --> Trying to get property of non-object C:\xampp\htdocs\payment_request\application\views\purchase_order\purchase_order_view.php 319
ERROR - 2020-07-06 14:31:09 --> Severity: Notice --> Trying to get property of non-object C:\xampp\htdocs\payment_request\application\views\purchase_order\purchase_order_view.php 319
ERROR - 2020-07-06 14:31:09 --> Severity: Notice --> Trying to get property of non-object C:\xampp\htdocs\payment_request\application\views\purchase_order\purchase_order_view.php 319
ERROR - 2020-07-06 14:31:09 --> Severity: Notice --> Trying to get property of non-object C:\xampp\htdocs\payment_request\application\views\purchase_order\purchase_order_view.php 319
ERROR - 2020-07-06 14:31:09 --> Severity: Notice --> Trying to get property of non-object C:\xampp\htdocs\payment_request\application\views\purchase_order\purchase_order_view.php 351
ERROR - 2020-07-06 14:31:09 --> Severity: Notice --> Trying to get property of non-object C:\xampp\htdocs\payment_request\application\views\purchase_order\purchase_order_view.php 351
ERROR - 2020-07-06 14:31:09 --> Severity: Notice --> Trying to get property of non-object C:\xampp\htdocs\payment_request\application\views\purchase_order\purchase_order_view.php 351
ERROR - 2020-07-06 14:31:09 --> Severity: Notice --> Trying to get property of non-object C:\xampp\htdocs\payment_request\application\views\purchase_order\purchase_order_view.php 351
ERROR - 2020-07-06 14:31:09 --> Severity: Notice --> Trying to get property of non-object C:\xampp\htdocs\payment_request\application\views\purchase_order\purchase_order_view.php 351
ERROR - 2020-07-06 14:31:09 --> Severity: Notice --> Trying to get property of non-object C:\xampp\htdocs\payment_request\application\views\purchase_order\purchase_order_view.php 351
ERROR - 2020-07-06 14:31:09 --> Severity: Notice --> Trying to get property of non-object C:\xampp\htdocs\payment_request\application\views\purchase_order\purchase_order_view.php 351
ERROR - 2020-07-06 14:31:09 --> Severity: Notice --> Trying to get property of non-object C:\xampp\htdocs\payment_request\application\views\purchase_order\purchase_order_view.php 351
ERROR - 2020-07-06 14:31:09 --> Severity: Notice --> Trying to get property of non-object C:\xampp\htdocs\payment_request\application\views\purchase_order\purchase_order_view.php 351
ERROR - 2020-07-06 14:31:09 --> Severity: Notice --> Trying to get property of non-object C:\xampp\htdocs\payment_request\application\views\purchase_order\purchase_order_view.php 383
ERROR - 2020-07-06 14:31:09 --> Severity: Notice --> Trying to get property of non-object C:\xampp\htdocs\payment_request\application\views\purchase_order\purchase_order_view.php 383
ERROR - 2020-07-06 14:31:09 --> Severity: Notice --> Trying to get property of non-object C:\xampp\htdocs\payment_request\application\views\purchase_order\purchase_order_view.php 383
ERROR - 2020-07-06 14:31:09 --> Severity: Notice --> Trying to get property of non-object C:\xampp\htdocs\payment_request\application\views\purchase_order\purchase_order_view.php 383
ERROR - 2020-07-06 14:31:09 --> Severity: Notice --> Trying to get property of non-object C:\xampp\htdocs\payment_request\application\views\purchase_order\purchase_order_view.php 383
ERROR - 2020-07-06 14:31:58 --> Severity: Notice --> Trying to get property of non-object C:\xampp\htdocs\payment_request\application\views\purchase_order\purchase_order_view.php 252
ERROR - 2020-07-06 14:31:58 --> Severity: Notice --> Trying to get property of non-object C:\xampp\htdocs\payment_request\application\views\purchase_order\purchase_order_view.php 252
ERROR - 2020-07-06 14:31:58 --> Severity: Notice --> Trying to get property of non-object C:\xampp\htdocs\payment_request\application\views\purchase_order\purchase_order_view.php 252
ERROR - 2020-07-06 14:31:58 --> Severity: Notice --> Trying to get property of non-object C:\xampp\htdocs\payment_request\application\views\purchase_order\purchase_order_view.php 252
ERROR - 2020-07-06 14:31:58 --> Severity: Notice --> Trying to get property of non-object C:\xampp\htdocs\payment_request\application\views\purchase_order\purchase_order_view.php 252
ERROR - 2020-07-06 14:31:58 --> Severity: Notice --> Trying to get property of non-object C:\xampp\htdocs\payment_request\application\views\purchase_order\purchase_order_view.php 252
ERROR - 2020-07-06 14:31:58 --> Severity: Notice --> Trying to get property of non-object C:\xampp\htdocs\payment_request\application\views\purchase_order\purchase_order_view.php 252
ERROR - 2020-07-06 14:31:58 --> Severity: Notice --> Trying to get property of non-object C:\xampp\htdocs\payment_request\application\views\purchase_order\purchase_order_view.php 319
ERROR - 2020-07-06 14:31:58 --> Severity: Notice --> Trying to get property of non-object C:\xampp\htdocs\payment_request\application\views\purchase_order\purchase_order_view.php 319
ERROR - 2020-07-06 14:31:58 --> Severity: Notice --> Trying to get property of non-object C:\xampp\htdocs\payment_request\application\views\purchase_order\purchase_order_view.php 319
ERROR - 2020-07-06 14:31:58 --> Severity: Notice --> Trying to get property of non-object C:\xampp\htdocs\payment_request\application\views\purchase_order\purchase_order_view.php 319
ERROR - 2020-07-06 14:31:58 --> Severity: Notice --> Trying to get property of non-object C:\xampp\htdocs\payment_request\application\views\purchase_order\purchase_order_view.php 351
ERROR - 2020-07-06 14:31:58 --> Severity: Notice --> Trying to get property of non-object C:\xampp\htdocs\payment_request\application\views\purchase_order\purchase_order_view.php 351
ERROR - 2020-07-06 14:31:58 --> Severity: Notice --> Trying to get property of non-object C:\xampp\htdocs\payment_request\application\views\purchase_order\purchase_order_view.php 351
ERROR - 2020-07-06 14:31:58 --> Severity: Notice --> Trying to get property of non-object C:\xampp\htdocs\payment_request\application\views\purchase_order\purchase_order_view.php 351
ERROR - 2020-07-06 14:31:58 --> Severity: Notice --> Trying to get property of non-object C:\xampp\htdocs\payment_request\application\views\purchase_order\purchase_order_view.php 351
ERROR - 2020-07-06 14:31:58 --> Severity: Notice --> Trying to get property of non-object C:\xampp\htdocs\payment_request\application\views\purchase_order\purchase_order_view.php 351
ERROR - 2020-07-06 14:31:58 --> Severity: Notice --> Trying to get property of non-object C:\xampp\htdocs\payment_request\application\views\purchase_order\purchase_order_view.php 351
ERROR - 2020-07-06 14:31:58 --> Severity: Notice --> Trying to get property of non-object C:\xampp\htdocs\payment_request\application\views\purchase_order\purchase_order_view.php 351
ERROR - 2020-07-06 14:31:58 --> Severity: Notice --> Trying to get property of non-object C:\xampp\htdocs\payment_request\application\views\purchase_order\purchase_order_view.php 351
ERROR - 2020-07-06 14:31:58 --> Severity: Notice --> Trying to get property of non-object C:\xampp\htdocs\payment_request\application\views\purchase_order\purchase_order_view.php 383
ERROR - 2020-07-06 14:31:58 --> Severity: Notice --> Trying to get property of non-object C:\xampp\htdocs\payment_request\application\views\purchase_order\purchase_order_view.php 383
ERROR - 2020-07-06 14:31:58 --> Severity: Notice --> Trying to get property of non-object C:\xampp\htdocs\payment_request\application\views\purchase_order\purchase_order_view.php 383
ERROR - 2020-07-06 14:31:58 --> Severity: Notice --> Trying to get property of non-object C:\xampp\htdocs\payment_request\application\views\purchase_order\purchase_order_view.php 383
ERROR - 2020-07-06 14:31:58 --> Severity: Notice --> Trying to get property of non-object C:\xampp\htdocs\payment_request\application\views\purchase_order\purchase_order_view.php 383
ERROR - 2020-07-06 09:44:50 --> 404 Page Not Found: Assets/vendors
ERROR - 2020-07-06 09:44:50 --> 404 Page Not Found: Assets/vendors
ERROR - 2020-07-06 09:44:50 --> 404 Page Not Found: Assets/vendors
ERROR - 2020-07-06 09:44:50 --> 404 Page Not Found: Assets/vendors
ERROR - 2020-07-06 09:44:50 --> 404 Page Not Found: Assets/vendors
ERROR - 2020-07-06 09:44:52 --> 404 Page Not Found: Assets/vendors
ERROR - 2020-07-06 09:44:52 --> 404 Page Not Found: Assets/vendors
ERROR - 2020-07-06 09:44:52 --> 404 Page Not Found: Assets/vendors
ERROR - 2020-07-06 14:50:35 --> Severity: Notice --> Undefined variable: creator C:\xampp\htdocs\payment_request\application\models\Payment_Approval_Model.php 66
ERROR - 2020-07-06 09:50:54 --> 404 Page Not Found: Assets/vendors
ERROR - 2020-07-06 09:50:54 --> 404 Page Not Found: Assets/vendors
ERROR - 2020-07-06 09:50:54 --> 404 Page Not Found: Assets/vendors
ERROR - 2020-07-06 09:50:54 --> 404 Page Not Found: Assets/vendors
ERROR - 2020-07-06 09:50:54 --> 404 Page Not Found: Assets/vendors
ERROR - 2020-07-06 15:22:43 --> Severity: Notice --> Undefined variable: is_available_tb_tengah C:\xampp\htdocs\payment_request\application\models\Payment_Header_Model.php 434
=======
>>>>>>> ad0fe3ab6c2e6f2395bca6745ea8fa88cf1b946e
>>>>>>> bcabff1d6d223206b17c4d01175c08e22d1a931a
