ERROR - 2020-01-17 03:22:52 --> 404 Page Not Found: Assets/vendors
ERROR - 2020-01-17 03:22:52 --> 404 Page Not Found: Assets/vendors
ERROR - 2020-01-17 03:22:52 --> 404 Page Not Found: Assets/vendors
ERROR - 2020-01-17 03:22:52 --> 404 Page Not Found: Assets/vendors
ERROR - 2020-01-17 03:22:52 --> 404 Page Not Found: Assets/vendors
ERROR - 2020-01-17 03:22:52 --> 404 Page Not Found: Assets/vendors
ERROR - 2020-01-17 03:22:52 --> 404 Page Not Found: Assets/vendors
ERROR - 2020-01-17 03:22:52 --> 404 Page Not Found: Assets/vendors
ERROR - 2020-01-17 04:03:33 --> 404 Page Not Found: Assets/js
ERROR - 2020-01-17 04:04:51 --> 404 Page Not Found: Assets/vendors
ERROR - 2020-01-17 04:04:51 --> 404 Page Not Found: Assets/vendors
ERROR - 2020-01-17 04:04:51 --> 404 Page Not Found: Assets/vendors
ERROR - 2020-01-17 04:04:51 --> 404 Page Not Found: Assets/vendors
ERROR - 2020-01-17 04:04:51 --> 404 Page Not Found: Assets/vendors
ERROR - 2020-01-17 04:04:51 --> 404 Page Not Found: Assets/vendors
ERROR - 2020-01-17 04:04:51 --> 404 Page Not Found: Assets/vendors
ERROR - 2020-01-17 04:04:51 --> 404 Page Not Found: Assets/vendors
ERROR - 2020-01-17 04:10:12 --> 404 Page Not Found: Faviconico/index
ERROR - 2020-01-17 10:10:15 --> Severity: error --> Exception: Too few arguments to function CI_Session::unset_userdata(), 0 passed in D:\htdocs\payment-request\application\controllers\Login.php on line 204 and exactly 1 expected D:\htdocs\payment-request\system\libraries\Session\Session.php 810
ERROR - 2020-01-17 04:12:34 --> 404 Page Not Found: Assets/vendors
ERROR - 2020-01-17 04:12:34 --> 404 Page Not Found: Assets/vendors
ERROR - 2020-01-17 04:12:34 --> 404 Page Not Found: Assets/vendors
ERROR - 2020-01-17 04:12:34 --> 404 Page Not Found: Assets/vendors
ERROR - 2020-01-17 04:12:34 --> 404 Page Not Found: Assets/vendors
ERROR - 2020-01-17 04:12:34 --> 404 Page Not Found: Assets/vendors
ERROR - 2020-01-17 04:12:34 --> 404 Page Not Found: Assets/vendors
ERROR - 2020-01-17 04:12:34 --> 404 Page Not Found: Assets/vendors
ERROR - 2020-01-17 04:12:34 --> 404 Page Not Found: Login/favicon.ico
ERROR - 2020-01-17 04:12:40 --> 404 Page Not Found: Assets/vendors
ERROR - 2020-01-17 04:12:40 --> 404 Page Not Found: Assets/vendors
ERROR - 2020-01-17 04:12:40 --> 404 Page Not Found: Assets/vendors
ERROR - 2020-01-17 04:12:40 --> 404 Page Not Found: Assets/vendors
ERROR - 2020-01-17 04:12:40 --> 404 Page Not Found: Assets/vendors
ERROR - 2020-01-17 04:12:40 --> 404 Page Not Found: Assets/vendors
ERROR - 2020-01-17 04:12:40 --> 404 Page Not Found: Assets/vendors
ERROR - 2020-01-17 04:12:40 --> 404 Page Not Found: Assets/vendors
ERROR - 2020-01-17 04:13:30 --> 404 Page Not Found: Assets/js
ERROR - 2020-01-17 04:14:37 --> 404 Page Not Found: Assets/js
ERROR - 2020-01-17 04:14:38 --> 404 Page Not Found: Assets/js
ERROR - 2020-01-17 04:15:15 --> 404 Page Not Found: Assets/js
ERROR - 2020-01-17 04:16:04 --> 404 Page Not Found: Assets/js
ERROR - 2020-01-17 04:16:07 --> 404 Page Not Found: Assets/js
ERROR - 2020-01-17 04:16:08 --> 404 Page Not Found: Assets/js
ERROR - 2020-01-17 04:16:54 --> 404 Page Not Found: Assets/js
ERROR - 2020-01-17 04:17:00 --> 404 Page Not Found: Assets/js
ERROR - 2020-01-17 04:17:24 --> 404 Page Not Found: Assets/js
ERROR - 2020-01-17 04:17:35 --> 404 Page Not Found: Assets/js
ERROR - 2020-01-17 04:17:38 --> 404 Page Not Found: Assets/js
ERROR - 2020-01-17 04:17:40 --> 404 Page Not Found: Assets/js
ERROR - 2020-01-17 04:17:41 --> 404 Page Not Found: Assets/js
ERROR - 2020-01-17 04:18:08 --> 404 Page Not Found: Assets/js
ERROR - 2020-01-17 04:18:10 --> 404 Page Not Found: Assets/js
ERROR - 2020-01-17 04:18:14 --> 404 Page Not Found: Assets/js
ERROR - 2020-01-17 04:21:45 --> 404 Page Not Found: Assets/js
ERROR - 2020-01-17 04:22:01 --> 404 Page Not Found: Assets/js
ERROR - 2020-01-17 04:22:03 --> 404 Page Not Found: Assets/js
ERROR - 2020-01-17 04:22:37 --> 404 Page Not Found: Assets/js
ERROR - 2020-01-17 04:23:08 --> 404 Page Not Found: Assets/js
ERROR - 2020-01-17 04:27:24 --> 404 Page Not Found: Js_app/homepage.js
ERROR - 2020-01-17 04:27:24 --> 404 Page Not Found: Assets/js
ERROR - 2020-01-17 04:27:25 --> 404 Page Not Found: Js_app/homepage.js
ERROR - 2020-01-17 04:27:25 --> 404 Page Not Found: Js_app/homepage.js
ERROR - 2020-01-17 04:27:25 --> 404 Page Not Found: Assets/js
ERROR - 2020-01-17 04:27:25 --> 404 Page Not Found: Js_app/homepage.js
ERROR - 2020-01-17 04:27:36 --> 404 Page Not Found: Js_app/homepage.js
ERROR - 2020-01-17 04:27:36 --> 404 Page Not Found: Assets/js
ERROR - 2020-01-17 04:27:36 --> 404 Page Not Found: Js_app/homepage.js
ERROR - 2020-01-17 04:27:38 --> 404 Page Not Found: Js_app/homepage.js
ERROR - 2020-01-17 04:27:38 --> 404 Page Not Found: Assets/js
ERROR - 2020-01-17 04:27:38 --> 404 Page Not Found: Js_app/homepage.js
ERROR - 2020-01-17 04:27:41 --> 404 Page Not Found: Js_app/homepage.js
ERROR - 2020-01-17 04:27:41 --> 404 Page Not Found: Assets/js
ERROR - 2020-01-17 04:27:41 --> 404 Page Not Found: Js_app/homepage.js
ERROR - 2020-01-17 04:28:08 --> 404 Page Not Found: Assets/js
ERROR - 2020-01-17 04:30:00 --> 404 Page Not Found: Assets/js
ERROR - 2020-01-17 04:30:01 --> 404 Page Not Found: Assets/js
ERROR - 2020-01-17 04:30:03 --> 404 Page Not Found: Assets/js
ERROR - 2020-01-17 04:30:05 --> 404 Page Not Found: Assets/js
ERROR - 2020-01-17 04:30:14 --> 404 Page Not Found: Assets/js
ERROR - 2020-01-17 04:30:17 --> 404 Page Not Found: Assets/js
ERROR - 2020-01-17 04:30:18 --> 404 Page Not Found: Assets/js
ERROR - 2020-01-17 04:30:19 --> 404 Page Not Found: Assets/js
ERROR - 2020-01-17 04:30:19 --> 404 Page Not Found: Assets/js
ERROR - 2020-01-17 04:30:20 --> 404 Page Not Found: Assets/js
ERROR - 2020-01-17 04:30:21 --> 404 Page Not Found: Assets/js
ERROR - 2020-01-17 04:30:21 --> 404 Page Not Found: Assets/js
ERROR - 2020-01-17 04:30:22 --> 404 Page Not Found: Assets/js
ERROR - 2020-01-17 04:30:23 --> 404 Page Not Found: Assets/js
ERROR - 2020-01-17 04:31:11 --> 404 Page Not Found: Assets/js
ERROR - 2020-01-17 04:31:13 --> 404 Page Not Found: Assets/js
ERROR - 2020-01-17 04:31:31 --> 404 Page Not Found: Assets/js
ERROR - 2020-01-17 04:34:22 --> 404 Page Not Found: Assets/js
ERROR - 2020-01-17 04:35:22 --> 404 Page Not Found: Assets/js
ERROR - 2020-01-17 04:36:53 --> 404 Page Not Found: Assets/js
ERROR - 2020-01-17 04:38:04 --> 404 Page Not Found: Assets/js
ERROR - 2020-01-17 04:38:12 --> 404 Page Not Found: Assets/js
ERROR - 2020-01-17 04:38:39 --> 404 Page Not Found: Assets/js
ERROR - 2020-01-17 04:38:56 --> 404 Page Not Found: Assets/js
ERROR - 2020-01-17 04:39:34 --> 404 Page Not Found: Assets/js
ERROR - 2020-01-17 04:40:24 --> 404 Page Not Found: Assets/js
ERROR - 2020-01-17 04:40:51 --> 404 Page Not Found: Assets/js
ERROR - 2020-01-17 04:41:03 --> 404 Page Not Found: Assets/js
ERROR - 2020-01-17 04:41:19 --> 404 Page Not Found: Assets/js
ERROR - 2020-01-17 04:42:25 --> 404 Page Not Found: Assets/js
ERROR - 2020-01-17 04:43:15 --> 404 Page Not Found: Assets/js
ERROR - 2020-01-17 04:43:43 --> 404 Page Not Found: Assets/js
ERROR - 2020-01-17 04:44:57 --> 404 Page Not Found: Assets/js
ERROR - 2020-01-17 04:45:10 --> 404 Page Not Found: Assets/js
ERROR - 2020-01-17 04:52:17 --> 404 Page Not Found: Assets/js
ERROR - 2020-01-17 04:55:37 --> 404 Page Not Found: Assets/js
ERROR - 2020-01-17 04:56:00 --> 404 Page Not Found: Assets/js
ERROR - 2020-01-17 04:56:16 --> 404 Page Not Found: Assets/js
ERROR - 2020-01-17 04:56:36 --> 404 Page Not Found: Assets/js
ERROR - 2020-01-17 04:56:55 --> 404 Page Not Found: Assets/js
ERROR - 2020-01-17 04:57:15 --> 404 Page Not Found: Assets/js
ERROR - 2020-01-17 04:57:31 --> 404 Page Not Found: Assets/js
ERROR - 2020-01-17 04:57:51 --> 404 Page Not Found: Assets/js
ERROR - 2020-01-17 04:58:07 --> 404 Page Not Found: Assets/js
ERROR - 2020-01-17 04:58:31 --> 404 Page Not Found: Assets/js
ERROR - 2020-01-17 04:58:48 --> 404 Page Not Found: Assets/vendors
ERROR - 2020-01-17 04:58:48 --> 404 Page Not Found: Assets/vendors
ERROR - 2020-01-17 04:58:48 --> 404 Page Not Found: Assets/vendors
ERROR - 2020-01-17 04:58:48 --> 404 Page Not Found: Assets/vendors
ERROR - 2020-01-17 04:58:48 --> 404 Page Not Found: Assets/vendors
ERROR - 2020-01-17 04:58:48 --> 404 Page Not Found: Assets/vendors
ERROR - 2020-01-17 04:58:48 --> 404 Page Not Found: Assets/vendors
ERROR - 2020-01-17 04:58:48 --> 404 Page Not Found: Assets/vendors
ERROR - 2020-01-17 04:58:52 --> 404 Page Not Found: Assets/js
ERROR - 2020-01-17 04:59:15 --> 404 Page Not Found: Assets/js
ERROR - 2020-01-17 05:02:56 --> 404 Page Not Found: Assets/js
ERROR - 2020-01-17 05:03:31 --> 404 Page Not Found: Assets/js
ERROR - 2020-01-17 05:03:35 --> 404 Page Not Found: Assets/js
ERROR - 2020-01-17 05:03:42 --> 404 Page Not Found: Assets/js
ERROR - 2020-01-17 05:03:48 --> 404 Page Not Found: Assets/js
ERROR - 2020-01-17 05:04:13 --> 404 Page Not Found: Assets/js
ERROR - 2020-01-17 05:05:27 --> 404 Page Not Found: Assets/js
ERROR - 2020-01-17 05:09:26 --> 404 Page Not Found: Assets/js
ERROR - 2020-01-17 05:09:33 --> 404 Page Not Found: Assets/js
ERROR - 2020-01-17 05:09:45 --> 404 Page Not Found: Assets/vendors
ERROR - 2020-01-17 05:09:45 --> 404 Page Not Found: Assets/vendors
ERROR - 2020-01-17 05:09:45 --> 404 Page Not Found: Assets/vendors
ERROR - 2020-01-17 05:09:45 --> 404 Page Not Found: Assets/vendors
ERROR - 2020-01-17 05:09:45 --> 404 Page Not Found: Assets/vendors
ERROR - 2020-01-17 05:09:45 --> 404 Page Not Found: Assets/vendors
ERROR - 2020-01-17 05:09:45 --> 404 Page Not Found: Assets/vendors
ERROR - 2020-01-17 05:09:45 --> 404 Page Not Found: Assets/vendors
ERROR - 2020-01-17 05:09:47 --> 404 Page Not Found: Assets/js
ERROR - 2020-01-17 05:10:45 --> 404 Page Not Found: Assets/js
ERROR - 2020-01-17 05:11:00 --> 404 Page Not Found: Assets/js
ERROR - 2020-01-17 05:11:02 --> 404 Page Not Found: Assets/js
ERROR - 2020-01-17 05:11:02 --> 404 Page Not Found: Assets/js
ERROR - 2020-01-17 05:11:02 --> 404 Page Not Found: Assets/js
ERROR - 2020-01-17 05:11:03 --> 404 Page Not Found: Assets/js
ERROR - 2020-01-17 05:16:22 --> 404 Page Not Found: Assets/js
ERROR - 2020-01-17 05:16:38 --> 404 Page Not Found: Assets/js
ERROR - 2020-01-17 05:17:18 --> 404 Page Not Found: Assets/js
ERROR - 2020-01-17 05:18:09 --> 404 Page Not Found: Assets/js
ERROR - 2020-01-17 05:18:19 --> 404 Page Not Found: Assets/js
ERROR - 2020-01-17 05:18:33 --> 404 Page Not Found: Assets/js
ERROR - 2020-01-17 05:18:34 --> 404 Page Not Found: Assets/js
ERROR - 2020-01-17 05:18:55 --> 404 Page Not Found: Assets/js
ERROR - 2020-01-17 05:19:00 --> 404 Page Not Found: Assets/js
ERROR - 2020-01-17 05:19:21 --> 404 Page Not Found: Assets/js
ERROR - 2020-01-17 05:20:13 --> 404 Page Not Found: Assets/js
ERROR - 2020-01-17 05:20:32 --> 404 Page Not Found: Assets/js
ERROR - 2020-01-17 05:20:59 --> 404 Page Not Found: Assets/js
ERROR - 2020-01-17 05:27:26 --> 404 Page Not Found: Assets/js
ERROR - 2020-01-17 05:27:27 --> 404 Page Not Found: Assets/js
ERROR - 2020-01-17 05:27:58 --> 404 Page Not Found: Assets/js
ERROR - 2020-01-17 05:28:00 --> 404 Page Not Found: Assets/vendors
ERROR - 2020-01-17 05:28:00 --> 404 Page Not Found: Assets/vendors
ERROR - 2020-01-17 05:28:00 --> 404 Page Not Found: Assets/vendors
ERROR - 2020-01-17 05:28:00 --> 404 Page Not Found: Assets/vendors
ERROR - 2020-01-17 05:28:00 --> 404 Page Not Found: Assets/vendors
ERROR - 2020-01-17 05:28:00 --> 404 Page Not Found: Assets/vendors
ERROR - 2020-01-17 05:28:00 --> 404 Page Not Found: Assets/vendors
ERROR - 2020-01-17 05:28:00 --> 404 Page Not Found: Assets/vendors
ERROR - 2020-01-17 05:28:17 --> 404 Page Not Found: Assets/vendors
ERROR - 2020-01-17 05:28:17 --> 404 Page Not Found: Assets/vendors
ERROR - 2020-01-17 05:28:17 --> 404 Page Not Found: Assets/vendors
ERROR - 2020-01-17 05:28:17 --> 404 Page Not Found: Assets/vendors
ERROR - 2020-01-17 05:28:17 --> 404 Page Not Found: Assets/vendors
ERROR - 2020-01-17 05:28:17 --> 404 Page Not Found: Assets/vendors
ERROR - 2020-01-17 05:28:17 --> 404 Page Not Found: Assets/vendors
ERROR - 2020-01-17 05:28:19 --> 404 Page Not Found: Assets/js
ERROR - 2020-01-17 05:28:32 --> 404 Page Not Found: Assets/js
ERROR - 2020-01-17 05:28:52 --> 404 Page Not Found: Assets/js
ERROR - 2020-01-17 05:29:12 --> 404 Page Not Found: Assets/js
ERROR - 2020-01-17 05:30:02 --> 404 Page Not Found: Assets/js
ERROR - 2020-01-17 05:30:05 --> 404 Page Not Found: Assets/vendors
ERROR - 2020-01-17 05:30:05 --> 404 Page Not Found: Assets/vendors
ERROR - 2020-01-17 05:30:05 --> 404 Page Not Found: Assets/vendors
ERROR - 2020-01-17 05:30:05 --> 404 Page Not Found: Assets/vendors
ERROR - 2020-01-17 05:30:05 --> 404 Page Not Found: Assets/vendors
ERROR - 2020-01-17 05:30:05 --> 404 Page Not Found: Assets/vendors
ERROR - 2020-01-17 05:30:05 --> 404 Page Not Found: Assets/vendors
ERROR - 2020-01-17 05:30:05 --> 404 Page Not Found: Assets/vendors
ERROR - 2020-01-17 05:30:07 --> 404 Page Not Found: Assets/js
ERROR - 2020-01-17 05:30:20 --> 404 Page Not Found: Assets/js
ERROR - 2020-01-17 05:31:34 --> 404 Page Not Found: Assets/js
ERROR - 2020-01-17 05:32:35 --> 404 Page Not Found: Assets/js
ERROR - 2020-01-17 05:33:15 --> 404 Page Not Found: Assets/js
ERROR - 2020-01-17 05:34:37 --> 404 Page Not Found: Assets/js
ERROR - 2020-01-17 05:35:25 --> 404 Page Not Found: Assets/js
ERROR - 2020-01-17 05:35:38 --> 404 Page Not Found: Assets/js
ERROR - 2020-01-17 05:35:44 --> 404 Page Not Found: Assets/js
ERROR - 2020-01-17 05:35:56 --> 404 Page Not Found: Assets/js
ERROR - 2020-01-17 05:36:05 --> 404 Page Not Found: Assets/js
ERROR - 2020-01-17 07:39:07 --> 404 Page Not Found: Assets/js
ERROR - 2020-01-17 07:39:15 --> 404 Page Not Found: Assets/vendors
ERROR - 2020-01-17 07:39:15 --> 404 Page Not Found: Assets/vendors
ERROR - 2020-01-17 07:39:15 --> 404 Page Not Found: Assets/vendors
ERROR - 2020-01-17 07:39:15 --> 404 Page Not Found: Assets/vendors
ERROR - 2020-01-17 07:39:15 --> 404 Page Not Found: Assets/vendors
ERROR - 2020-01-17 07:39:15 --> 404 Page Not Found: Assets/vendors
ERROR - 2020-01-17 07:39:15 --> 404 Page Not Found: Assets/vendors
ERROR - 2020-01-17 07:39:15 --> 404 Page Not Found: Assets/vendors
ERROR - 2020-01-17 07:39:18 --> 404 Page Not Found: Assets/vendors
ERROR - 2020-01-17 07:39:18 --> 404 Page Not Found: Assets/vendors
ERROR - 2020-01-17 07:39:18 --> 404 Page Not Found: Assets/vendors
ERROR - 2020-01-17 07:39:18 --> 404 Page Not Found: Assets/vendors
ERROR - 2020-01-17 07:39:18 --> 404 Page Not Found: Assets/vendors
ERROR - 2020-01-17 07:39:18 --> 404 Page Not Found: Assets/vendors
ERROR - 2020-01-17 07:39:18 --> 404 Page Not Found: Assets/vendors
ERROR - 2020-01-17 07:39:18 --> 404 Page Not Found: Assets/vendors
ERROR - 2020-01-17 07:39:20 --> 404 Page Not Found: Assets/js
ERROR - 2020-01-17 07:39:51 --> 404 Page Not Found: Assets/js
ERROR - 2020-01-17 07:40:00 --> 404 Page Not Found: Assets/js
ERROR - 2020-01-17 07:40:01 --> 404 Page Not Found: Assets/js
ERROR - 2020-01-17 07:40:29 --> 404 Page Not Found: Assets/js
ERROR - 2020-01-17 07:41:52 --> 404 Page Not Found: Assets/js
ERROR - 2020-01-17 07:42:28 --> 404 Page Not Found: Assets/js
ERROR - 2020-01-17 07:42:38 --> 404 Page Not Found: Assets/js
ERROR - 2020-01-17 07:44:08 --> 404 Page Not Found: Assets/js
ERROR - 2020-01-17 07:49:08 --> 404 Page Not Found: Assets/js
ERROR - 2020-01-17 08:03:27 --> 404 Page Not Found: Assets/js
ERROR - 2020-01-17 08:06:21 --> 404 Page Not Found: Assets/js
ERROR - 2020-01-17 08:06:23 --> 404 Page Not Found: Assets/vendors
ERROR - 2020-01-17 08:06:23 --> 404 Page Not Found: Assets/vendors
ERROR - 2020-01-17 08:06:23 --> 404 Page Not Found: Assets/vendors
ERROR - 2020-01-17 08:06:23 --> 404 Page Not Found: Assets/vendors
ERROR - 2020-01-17 08:06:23 --> 404 Page Not Found: Assets/vendors
ERROR - 2020-01-17 08:06:23 --> 404 Page Not Found: Assets/vendors
ERROR - 2020-01-17 08:06:23 --> 404 Page Not Found: Assets/vendors
ERROR - 2020-01-17 08:06:23 --> 404 Page Not Found: Assets/vendors
ERROR - 2020-01-17 08:06:25 --> 404 Page Not Found: Assets/js
ERROR - 2020-01-17 08:06:39 --> 404 Page Not Found: Assets/js
ERROR - 2020-01-17 08:06:46 --> 404 Page Not Found: Assets/js
ERROR - 2020-01-17 08:06:58 --> 404 Page Not Found: Assets/vendors
ERROR - 2020-01-17 08:06:58 --> 404 Page Not Found: Assets/vendors
ERROR - 2020-01-17 08:06:58 --> 404 Page Not Found: Assets/vendors
ERROR - 2020-01-17 08:06:58 --> 404 Page Not Found: Assets/vendors
ERROR - 2020-01-17 08:06:58 --> 404 Page Not Found: Assets/vendors
ERROR - 2020-01-17 08:06:59 --> 404 Page Not Found: Assets/vendors
ERROR - 2020-01-17 08:06:59 --> 404 Page Not Found: Assets/vendors
ERROR - 2020-01-17 08:06:59 --> 404 Page Not Found: Assets/vendors
ERROR - 2020-01-17 08:08:00 --> 404 Page Not Found: Assets/js
ERROR - 2020-01-17 08:08:17 --> 404 Page Not Found: Assets/js
ERROR - 2020-01-17 08:08:58 --> 404 Page Not Found: Assets/js
ERROR - 2020-01-17 08:08:59 --> 404 Page Not Found: Assets/js
ERROR - 2020-01-17 08:10:21 --> 404 Page Not Found: Assets/js
ERROR - 2020-01-17 08:12:10 --> 404 Page Not Found: Assets/js
ERROR - 2020-01-17 08:13:06 --> 404 Page Not Found: Assets/js
ERROR - 2020-01-17 08:13:27 --> 404 Page Not Found: Assets/js
ERROR - 2020-01-17 08:13:34 --> 404 Page Not Found: Assets/js
ERROR - 2020-01-17 08:14:48 --> 404 Page Not Found: Assets/js
ERROR - 2020-01-17 08:19:48 --> 404 Page Not Found: Assets/js
ERROR - 2020-01-17 08:19:50 --> 404 Page Not Found: Assets/vendors
ERROR - 2020-01-17 08:19:50 --> 404 Page Not Found: Assets/vendors
ERROR - 2020-01-17 08:19:50 --> 404 Page Not Found: Assets/vendors
ERROR - 2020-01-17 08:19:50 --> 404 Page Not Found: Assets/vendors
ERROR - 2020-01-17 08:19:50 --> 404 Page Not Found: Assets/vendors
ERROR - 2020-01-17 08:19:50 --> 404 Page Not Found: Assets/vendors
ERROR - 2020-01-17 08:19:50 --> 404 Page Not Found: Assets/vendors
ERROR - 2020-01-17 08:19:50 --> 404 Page Not Found: Assets/vendors
ERROR - 2020-01-17 08:19:52 --> 404 Page Not Found: Assets/vendors
ERROR - 2020-01-17 08:19:52 --> 404 Page Not Found: Assets/vendors
ERROR - 2020-01-17 08:19:52 --> 404 Page Not Found: Assets/vendors
ERROR - 2020-01-17 08:19:52 --> 404 Page Not Found: Assets/vendors
ERROR - 2020-01-17 08:19:52 --> 404 Page Not Found: Assets/vendors
ERROR - 2020-01-17 08:19:52 --> 404 Page Not Found: Assets/vendors
ERROR - 2020-01-17 08:19:52 --> 404 Page Not Found: Assets/vendors
ERROR - 2020-01-17 08:19:52 --> 404 Page Not Found: Assets/vendors
ERROR - 2020-01-17 08:19:54 --> 404 Page Not Found: Assets/js
ERROR - 2020-01-17 08:19:58 --> 404 Page Not Found: Assets/vendors
ERROR - 2020-01-17 08:19:58 --> 404 Page Not Found: Assets/vendors
ERROR - 2020-01-17 08:19:58 --> 404 Page Not Found: Assets/vendors
ERROR - 2020-01-17 08:19:58 --> 404 Page Not Found: Assets/vendors
ERROR - 2020-01-17 08:19:58 --> 404 Page Not Found: Assets/vendors
ERROR - 2020-01-17 08:19:58 --> 404 Page Not Found: Assets/vendors
ERROR - 2020-01-17 08:19:58 --> 404 Page Not Found: Assets/vendors
ERROR - 2020-01-17 08:19:58 --> 404 Page Not Found: Assets/vendors
ERROR - 2020-01-17 08:20:17 --> 404 Page Not Found: Assets/vendors
ERROR - 2020-01-17 08:20:17 --> 404 Page Not Found: Assets/vendors
ERROR - 2020-01-17 08:20:17 --> 404 Page Not Found: Assets/vendors
ERROR - 2020-01-17 08:20:17 --> 404 Page Not Found: Assets/vendors
ERROR - 2020-01-17 08:20:17 --> 404 Page Not Found: Assets/vendors
ERROR - 2020-01-17 08:20:18 --> 404 Page Not Found: Assets/vendors
ERROR - 2020-01-17 08:20:19 --> 404 Page Not Found: Assets/js
ERROR - 2020-01-17 08:25:11 --> 404 Page Not Found: Assets/js
ERROR - 2020-01-17 08:25:22 --> 404 Page Not Found: Menus/view
ERROR - 2020-01-17 08:25:26 --> 404 Page Not Found: Menus/view
ERROR - 2020-01-17 08:25:31 --> 404 Page Not Found: Menus/view
ERROR - 2020-01-17 08:25:41 --> 404 Page Not Found: Menu/index
ERROR - 2020-01-17 08:26:58 --> 404 Page Not Found: Menu/index
ERROR - 2020-01-17 08:28:53 --> Severity: error --> Exception: syntax error, unexpected '}', expecting ';' D:\htdocs\payment-request\application\controllers\Menus.php 54
ERROR - 2020-01-17 08:29:00 --> Severity: error --> Exception: syntax error, unexpected '}', expecting ';' D:\htdocs\payment-request\application\controllers\Menus.php 54
ERROR - 2020-01-17 08:29:01 --> Severity: error --> Exception: syntax error, unexpected '}', expecting ';' D:\htdocs\payment-request\application\controllers\Menus.php 54
ERROR - 2020-01-17 08:29:02 --> Severity: error --> Exception: syntax error, unexpected '}', expecting ';' D:\htdocs\payment-request\application\controllers\Menus.php 54
ERROR - 2020-01-17 08:30:29 --> Severity: error --> Exception: syntax error, unexpected '}', expecting ';' D:\htdocs\payment-request\application\controllers\Menus.php 58
ERROR - 2020-01-17 08:31:12 --> 404 Page Not Found: Assets/js
ERROR - 2020-01-17 08:34:20 --> 404 Page Not Found: Assets/vendors
ERROR - 2020-01-17 08:34:20 --> 404 Page Not Found: Assets/vendors
ERROR - 2020-01-17 08:34:20 --> 404 Page Not Found: Assets/vendors
ERROR - 2020-01-17 08:34:20 --> 404 Page Not Found: Assets/vendors
ERROR - 2020-01-17 08:34:20 --> 404 Page Not Found: Assets/vendors
ERROR - 2020-01-17 08:34:20 --> 404 Page Not Found: Assets/vendors
ERROR - 2020-01-17 08:34:20 --> 404 Page Not Found: Assets/vendors
ERROR - 2020-01-17 08:34:28 --> 404 Page Not Found: Assets/vendors
ERROR - 2020-01-17 08:34:28 --> 404 Page Not Found: Assets/vendors
ERROR - 2020-01-17 08:34:28 --> 404 Page Not Found: Assets/vendors
ERROR - 2020-01-17 08:34:28 --> 404 Page Not Found: Assets/vendors
ERROR - 2020-01-17 08:34:28 --> 404 Page Not Found: Assets/vendors
ERROR - 2020-01-17 08:34:28 --> 404 Page Not Found: Assets/vendors
ERROR - 2020-01-17 08:34:28 --> 404 Page Not Found: Assets/vendors
ERROR - 2020-01-17 08:34:28 --> 404 Page Not Found: Assets/vendors
ERROR - 2020-01-17 08:34:33 --> 404 Page Not Found: Assets/vendors
ERROR - 2020-01-17 08:34:33 --> 404 Page Not Found: Assets/vendors
ERROR - 2020-01-17 08:34:33 --> 404 Page Not Found: Assets/vendors
ERROR - 2020-01-17 08:34:33 --> 404 Page Not Found: Assets/vendors
ERROR - 2020-01-17 08:34:33 --> 404 Page Not Found: Assets/vendors
ERROR - 2020-01-17 08:41:56 --> 404 Page Not Found: Assets/css
ERROR - 2020-01-17 08:41:56 --> 404 Page Not Found: Assets/js
ERROR - 2020-01-17 08:42:01 --> 404 Page Not Found: Assets/vendors
ERROR - 2020-01-17 08:42:01 --> 404 Page Not Found: Assets/vendors
ERROR - 2020-01-17 08:42:01 --> 404 Page Not Found: Assets/vendors
ERROR - 2020-01-17 08:42:01 --> 404 Page Not Found: Assets/vendors
ERROR - 2020-01-17 08:42:01 --> 404 Page Not Found: Assets/vendors
ERROR - 2020-01-17 08:42:02 --> 404 Page Not Found: Assets/vendors
ERROR - 2020-01-17 08:42:02 --> 404 Page Not Found: Assets/vendors
ERROR - 2020-01-17 08:42:02 --> 404 Page Not Found: Assets/vendors
ERROR - 2020-01-17 08:42:04 --> 404 Page Not Found: Assets/css
ERROR - 2020-01-17 08:42:04 --> 404 Page Not Found: Assets/js
ERROR - 2020-01-17 08:42:24 --> 404 Page Not Found: Assets/css
ERROR - 2020-01-17 08:42:24 --> 404 Page Not Found: Assets/js
ERROR - 2020-01-17 08:42:31 --> 404 Page Not Found: Assets/css
ERROR - 2020-01-17 08:42:31 --> 404 Page Not Found: Assets/js
ERROR - 2020-01-17 08:44:07 --> 404 Page Not Found: Assets/js
ERROR - 2020-01-17 08:44:21 --> 404 Page Not Found: Assets/js
ERROR - 2020-01-17 08:44:25 --> 404 Page Not Found: Assets/js
ERROR - 2020-01-17 08:45:04 --> 404 Page Not Found: Assets/js
ERROR - 2020-01-17 08:47:03 --> 404 Page Not Found: Assets/js
ERROR - 2020-01-17 08:48:44 --> 404 Page Not Found: Assets/js
ERROR - 2020-01-17 08:48:46 --> 404 Page Not Found: Assets/js
ERROR - 2020-01-17 08:48:48 --> 404 Page Not Found: Assets/js
ERROR - 2020-01-17 08:48:49 --> 404 Page Not Found: Assets/js
ERROR - 2020-01-17 08:48:51 --> 404 Page Not Found: Assets/js
ERROR - 2020-01-17 08:49:10 --> 404 Page Not Found: Assets/js
ERROR - 2020-01-17 08:49:11 --> 404 Page Not Found: Assets/js
ERROR - 2020-01-17 08:49:12 --> 404 Page Not Found: Assets/js
ERROR - 2020-01-17 08:49:23 --> 404 Page Not Found: Assets/js
ERROR - 2020-01-17 08:49:24 --> 404 Page Not Found: Assets/js
ERROR - 2020-01-17 08:49:25 --> 404 Page Not Found: Assets/js
ERROR - 2020-01-17 08:49:38 --> 404 Page Not Found: Assets/js
ERROR - 2020-01-17 08:49:39 --> 404 Page Not Found: Assets/js
ERROR - 2020-01-17 08:49:40 --> 404 Page Not Found: Assets/js
ERROR - 2020-01-17 08:49:43 --> 404 Page Not Found: Assets/js
ERROR - 2020-01-17 08:49:44 --> 404 Page Not Found: Assets/js
ERROR - 2020-01-17 08:50:04 --> 404 Page Not Found: Assets/js
ERROR - 2020-01-17 08:50:48 --> 404 Page Not Found: Assets/js
ERROR - 2020-01-17 08:51:08 --> 404 Page Not Found: Assets/js
ERROR - 2020-01-17 09:21:01 --> 404 Page Not Found: Assets/js
ERROR - 2020-01-17 09:21:03 --> 404 Page Not Found: Assets/js
ERROR - 2020-01-17 09:21:04 --> 404 Page Not Found: Assets/js
ERROR - 2020-01-17 09:21:27 --> 404 Page Not Found: Assets/js
ERROR - 2020-01-17 09:21:52 --> 404 Page Not Found: Assets/js
ERROR - 2020-01-17 09:22:08 --> 404 Page Not Found: Assets/js
ERROR - 2020-01-17 09:22:09 --> 404 Page Not Found: Assets/js
ERROR - 2020-01-17 15:23:01 --> Severity: error --> Exception: syntax error, unexpected '?>' D:\htdocs\payment-request\application\views\home_page.php 18
ERROR - 2020-01-17 15:23:17 --> Severity: error --> Exception: syntax error, unexpected '?>' D:\htdocs\payment-request\application\views\home_page.php 18
ERROR - 2020-01-17 15:23:18 --> Severity: error --> Exception: syntax error, unexpected '?>' D:\htdocs\payment-request\application\views\home_page.php 18
ERROR - 2020-01-17 15:23:18 --> Severity: error --> Exception: syntax error, unexpected '?>' D:\htdocs\payment-request\application\views\home_page.php 18
ERROR - 2020-01-17 15:23:19 --> Severity: error --> Exception: syntax error, unexpected '?>' D:\htdocs\payment-request\application\views\home_page.php 18
ERROR - 2020-01-17 09:23:30 --> 404 Page Not Found: Assets/js
ERROR - 2020-01-17 09:23:55 --> 404 Page Not Found: Assets/js
ERROR - 2020-01-17 09:23:59 --> 404 Page Not Found: Menus/master_menu
ERROR - 2020-01-17 09:24:20 --> 404 Page Not Found: Menus/master_menu
ERROR - 2020-01-17 09:24:23 --> 404 Page Not Found: Assets/js
ERROR - 2020-01-17 09:26:07 --> 404 Page Not Found: Assets/js
ERROR - 2020-01-17 09:26:25 --> 404 Page Not Found: Assets/js
ERROR - 2020-01-17 09:26:27 --> 404 Page Not Found: Assets/js
ERROR - 2020-01-17 09:27:11 --> 404 Page Not Found: Assets/js
ERROR - 2020-01-17 09:27:18 --> 404 Page Not Found: Menus/master_menu
ERROR - 2020-01-17 09:29:21 --> 404 Page Not Found: Menus/master_menu
ERROR - 2020-01-17 09:29:26 --> 404 Page Not Found: Menus/master_menu
ERROR - 2020-01-17 09:29:33 --> 404 Page Not Found: Assets/js
ERROR - 2020-01-17 09:29:36 --> 404 Page Not Found: Assets/js
ERROR - 2020-01-17 09:30:01 --> 404 Page Not Found: Assets/js
ERROR - 2020-01-17 09:30:03 --> 404 Page Not Found: Assets/js
ERROR - 2020-01-17 09:30:29 --> 404 Page Not Found: Assets/js
ERROR - 2020-01-17 09:32:03 --> Severity: error --> Exception: syntax error, unexpected 'break' (T_BREAK) D:\htdocs\payment-request\application\controllers\Menus.php 51
ERROR - 2020-01-17 15:44:20 --> Severity: Notice --> Undefined variable: menu_id D:\htdocs\payment-request\application\controllers\Menus.php 19
ERROR - 2020-01-17 09:45:58 --> 404 Page Not Found: Assets/js
ERROR - 2020-01-17 09:46:58 --> 404 Page Not Found: Master_menua/index
ERROR - 2020-01-17 09:47:03 --> 404 Page Not Found: Assets/js
ERROR - 2020-01-17 09:47:10 --> 404 Page Not Found: Assets/js
ERROR - 2020-01-17 09:47:13 --> 404 Page Not Found: Assets/js
ERROR - 2020-01-17 09:47:32 --> 404 Page Not Found: Assets/js
ERROR - 2020-01-17 15:48:02 --> Severity: error --> Exception: Call to undefined function uri_segment() D:\htdocs\payment-request\application\controllers\Menus.php 20
ERROR - 2020-01-17 09:48:49 --> 404 Page Not Found: Assets/js
ERROR - 2020-01-17 09:48:55 --> 404 Page Not Found: Assets/js
ERROR - 2020-01-17 09:50:14 --> 404 Page Not Found: Assets/js
ERROR - 2020-01-17 09:51:09 --> 404 Page Not Found: Assets/js
ERROR - 2020-01-17 09:51:54 --> 404 Page Not Found: Assets/js
ERROR - 2020-01-17 09:53:16 --> 404 Page Not Found: Master_menua/index
ERROR - 2020-01-17 09:53:21 --> 404 Page Not Found: Assets/js
ERROR - 2020-01-17 09:53:23 --> 404 Page Not Found: Assets/js
ERROR - 2020-01-17 09:53:34 --> 404 Page Not Found: Assets/js
ERROR - 2020-01-17 15:53:55 --> Severity: Notice --> Undefined variable: menus D:\htdocs\payment-request\application\views\menu\list_menu.php 15
ERROR - 2020-01-17 15:53:55 --> Severity: Warning --> Invalid argument supplied for foreach() D:\htdocs\payment-request\application\views\menu\list_menu.php 15
ERROR - 2020-01-17 09:53:55 --> 404 Page Not Found: Assets/js
ERROR - 2020-01-17 15:53:56 --> Severity: Notice --> Undefined variable: menus D:\htdocs\payment-request\application\views\menu\list_menu.php 15
ERROR - 2020-01-17 15:53:56 --> Severity: Warning --> Invalid argument supplied for foreach() D:\htdocs\payment-request\application\views\menu\list_menu.php 15
ERROR - 2020-01-17 09:54:07 --> 404 Page Not Found: Assets/js
ERROR - 2020-01-17 09:55:04 --> 404 Page Not Found: Assets/js
ERROR - 2020-01-17 09:55:27 --> 404 Page Not Found: Assets/js
ERROR - 2020-01-17 09:55:39 --> 404 Page Not Found: Assets/js
ERROR - 2020-01-17 09:56:07 --> 404 Page Not Found: Assets/js
ERROR - 2020-01-17 09:56:22 --> 404 Page Not Found: Assets/js
ERROR - 2020-01-17 09:56:24 --> 404 Page Not Found: Assets/js
ERROR - 2020-01-17 09:56:24 --> 404 Page Not Found: Assets/js
ERROR - 2020-01-17 09:56:24 --> 404 Page Not Found: Assets/js
ERROR - 2020-01-17 09:56:43 --> 404 Page Not Found: Assets/js
ERROR - 2020-01-17 09:56:50 --> 404 Page Not Found: Assets/js
ERROR - 2020-01-17 09:56:58 --> 404 Page Not Found: Assets/js
ERROR - 2020-01-17 10:03:06 --> 404 Page Not Found: Assets/js
ERROR - 2020-01-17 10:03:36 --> 404 Page Not Found: Assets/js
ERROR - 2020-01-17 10:03:44 --> 404 Page Not Found: Assets/js
ERROR - 2020-01-17 10:03:46 --> 404 Page Not Found: Assets/js
ERROR - 2020-01-17 10:03:47 --> 404 Page Not Found: Assets/js
ERROR - 2020-01-17 10:03:48 --> 404 Page Not Found: Assets/js
ERROR - 2020-01-17 10:03:48 --> 404 Page Not Found: Assets/js
ERROR - 2020-01-17 10:04:13 --> 404 Page Not Found: Assets/js
ERROR - 2020-01-17 10:06:37 --> 404 Page Not Found: Assets/js
ERROR - 2020-01-17 10:07:14 --> 404 Page Not Found: Assets/js
ERROR - 2020-01-17 10:07:16 --> 404 Page Not Found: Assets/js
ERROR - 2020-01-17 10:07:44 --> 404 Page Not Found: Assets/js
ERROR - 2020-01-17 10:08:09 --> 404 Page Not Found: Assets/js
ERROR - 2020-01-17 10:08:17 --> 404 Page Not Found: Assets/js
ERROR - 2020-01-17 10:08:24 --> 404 Page Not Found: Assets/js
ERROR - 2020-01-17 10:09:04 --> 404 Page Not Found: Assets/js
ERROR - 2020-01-17 10:11:09 --> 404 Page Not Found: Assets/js
ERROR - 2020-01-17 10:11:28 --> 404 Page Not Found: Assets/js
ERROR - 2020-01-17 10:16:50 --> 404 Page Not Found: Css_app/menu.css
ERROR - 2020-01-17 10:16:50 --> 404 Page Not Found: Assets/js
ERROR - 2020-01-17 10:18:54 --> 404 Page Not Found: Css_app/menu.css
ERROR - 2020-01-17 10:18:54 --> 404 Page Not Found: Assets/js
ERROR - 2020-01-17 10:19:16 --> 404 Page Not Found: Css_app/menu.css
ERROR - 2020-01-17 10:19:17 --> 404 Page Not Found: Css_app/menu.css
ERROR - 2020-01-17 10:19:17 --> 404 Page Not Found: Assets/js
ERROR - 2020-01-17 10:19:25 --> 404 Page Not Found: Css_app/menu.css
ERROR - 2020-01-17 10:19:25 --> 404 Page Not Found: Assets/js
ERROR - 2020-01-17 10:19:52 --> 404 Page Not Found: Css_app/menu.css
ERROR - 2020-01-17 10:19:52 --> 404 Page Not Found: Assets/js
ERROR - 2020-01-17 10:20:28 --> 404 Page Not Found: Css_app/menu.css
ERROR - 2020-01-17 10:20:28 --> 404 Page Not Found: Assets/js
ERROR - 2020-01-17 10:20:28 --> 404 Page Not Found: Css_app/menu.css
ERROR - 2020-01-17 10:20:58 --> 404 Page Not Found: Css_app/menu.css
ERROR - 2020-01-17 10:20:58 --> 404 Page Not Found: Assets/js
ERROR - 2020-01-17 10:20:58 --> 404 Page Not Found: Css_app/menu.css
ERROR - 2020-01-17 10:21:12 --> 404 Page Not Found: Css_app/menu.css
ERROR - 2020-01-17 10:21:12 --> 404 Page Not Found: Assets/js
ERROR - 2020-01-17 10:21:12 --> 404 Page Not Found: Css_app/menu.css
ERROR - 2020-01-17 10:21:41 --> 404 Page Not Found: Css_app/menu.css
ERROR - 2020-01-17 10:21:42 --> 404 Page Not Found: Assets/js
ERROR - 2020-01-17 10:21:42 --> 404 Page Not Found: Css_app/menu.css
ERROR - 2020-01-17 10:21:49 --> 404 Page Not Found: Css_app/menu.css
ERROR - 2020-01-17 10:21:49 --> 404 Page Not Found: Assets/js
ERROR - 2020-01-17 10:21:49 --> 404 Page Not Found: Css_app/menu.css
ERROR - 2020-01-17 10:22:03 --> 404 Page Not Found: Css_app/menu.css
ERROR - 2020-01-17 10:22:04 --> 404 Page Not Found: Assets/js
ERROR - 2020-01-17 10:22:04 --> 404 Page Not Found: Css_app/menu.css
ERROR - 2020-01-17 10:22:32 --> 404 Page Not Found: Css_app/menu.css
ERROR - 2020-01-17 10:22:32 --> 404 Page Not Found: Assets/js
ERROR - 2020-01-17 10:22:32 --> 404 Page Not Found: Css_app/menu.css
ERROR - 2020-01-17 10:22:50 --> 404 Page Not Found: Css_app/menu.css
ERROR - 2020-01-17 10:22:50 --> 404 Page Not Found: Assets/js
ERROR - 2020-01-17 10:22:50 --> 404 Page Not Found: Css_app/menu.css
ERROR - 2020-01-17 10:23:29 --> 404 Page Not Found: Css_app/menu.css
ERROR - 2020-01-17 10:23:29 --> 404 Page Not Found: Assets/js
ERROR - 2020-01-17 10:23:29 --> 404 Page Not Found: Css_app/menu.css
ERROR - 2020-01-17 10:23:35 --> 404 Page Not Found: Css_app/menu.css
ERROR - 2020-01-17 10:23:36 --> 404 Page Not Found: Assets/js
ERROR - 2020-01-17 10:23:36 --> 404 Page Not Found: Css_app/menu.css
ERROR - 2020-01-17 10:23:41 --> 404 Page Not Found: Css_app/menu.css
ERROR - 2020-01-17 10:23:41 --> 404 Page Not Found: Assets/js
ERROR - 2020-01-17 10:23:41 --> 404 Page Not Found: Css_app/menu.css
ERROR - 2020-01-17 10:23:51 --> 404 Page Not Found: Css_app/menu.css
ERROR - 2020-01-17 10:23:52 --> 404 Page Not Found: Assets/js
ERROR - 2020-01-17 10:23:52 --> 404 Page Not Found: Css_app/menu.css
ERROR - 2020-01-17 10:23:58 --> 404 Page Not Found: Css_app/menu.css
ERROR - 2020-01-17 10:23:58 --> 404 Page Not Found: Assets/js
ERROR - 2020-01-17 10:23:58 --> 404 Page Not Found: Css_app/menu.css
ERROR - 2020-01-17 10:24:07 --> 404 Page Not Found: Css_app/menu.css
ERROR - 2020-01-17 10:24:07 --> 404 Page Not Found: Assets/js
ERROR - 2020-01-17 10:24:07 --> 404 Page Not Found: Css_app/menu.css
ERROR - 2020-01-17 10:24:17 --> 404 Page Not Found: Css_app/menu.css
ERROR - 2020-01-17 10:24:17 --> 404 Page Not Found: Assets/js
ERROR - 2020-01-17 10:24:17 --> 404 Page Not Found: Css_app/menu.css
ERROR - 2020-01-17 10:26:27 --> 404 Page Not Found: Css_app/menu.css
ERROR - 2020-01-17 10:26:27 --> 404 Page Not Found: Assets/js
ERROR - 2020-01-17 10:26:27 --> 404 Page Not Found: Css_app/menu.css
ERROR - 2020-01-17 10:26:33 --> 404 Page Not Found: Css_app/menu.css
ERROR - 2020-01-17 10:26:44 --> 404 Page Not Found: Css_app/menu.css
ERROR - 2020-01-17 10:26:46 --> 404 Page Not Found: Css_app/menu.css
ERROR - 2020-01-17 10:27:06 --> 404 Page Not Found: Css_app/menu.css
ERROR - 2020-01-17 10:27:06 --> 404 Page Not Found: Assets/js
ERROR - 2020-01-17 10:27:06 --> 404 Page Not Found: Css_app/menu.css
ERROR - 2020-01-17 10:27:09 --> 404 Page Not Found: Css_app/menu.css
ERROR - 2020-01-17 10:29:25 --> 404 Page Not Found: Css_app/menu.css
ERROR - 2020-01-17 10:29:25 --> 404 Page Not Found: Assets/js
ERROR - 2020-01-17 10:29:25 --> 404 Page Not Found: Css_app/menu.css
ERROR - 2020-01-17 10:30:14 --> 404 Page Not Found: Css_app/menu.css
ERROR - 2020-01-17 10:30:14 --> 404 Page Not Found: Assets/js
ERROR - 2020-01-17 10:30:14 --> 404 Page Not Found: Css_app/menu.css
ERROR - 2020-01-17 16:30:14 --> Severity: error --> Exception: Call to undefined method Menus::secure() D:\htdocs\payment-request\application\controllers\Menus.php 57
ERROR - 2020-01-17 10:30:53 --> 404 Page Not Found: Css_app/menu.css
ERROR - 2020-01-17 10:30:53 --> 404 Page Not Found: Assets/js
ERROR - 2020-01-17 10:30:53 --> 404 Page Not Found: Css_app/menu.css
ERROR - 2020-01-17 16:30:53 --> Severity: Notice --> Undefined property: stdClass::$kode_obat D:\htdocs\payment-request\application\controllers\Menus.php 66
ERROR - 2020-01-17 16:30:53 --> Severity: Notice --> Undefined property: stdClass::$kode_obat D:\htdocs\payment-request\application\controllers\Menus.php 66
ERROR - 2020-01-17 16:30:53 --> Severity: Notice --> Undefined property: stdClass::$kode_obat D:\htdocs\payment-request\application\controllers\Menus.php 66
ERROR - 2020-01-17 16:30:53 --> Severity: Notice --> Undefined property: stdClass::$kode_obat D:\htdocs\payment-request\application\controllers\Menus.php 66
ERROR - 2020-01-17 16:30:53 --> Severity: Notice --> Undefined property: stdClass::$kode_obat D:\htdocs\payment-request\application\controllers\Menus.php 66
ERROR - 2020-01-17 16:30:53 --> Severity: Notice --> Undefined property: stdClass::$kode_obat D:\htdocs\payment-request\application\controllers\Menus.php 66
ERROR - 2020-01-17 16:30:53 --> Severity: Notice --> Undefined property: stdClass::$kode_obat D:\htdocs\payment-request\application\controllers\Menus.php 66
ERROR - 2020-01-17 10:31:08 --> 404 Page Not Found: Css_app/menu.css
ERROR - 2020-01-17 10:31:08 --> 404 Page Not Found: Css_app/menu.css
ERROR - 2020-01-17 10:31:08 --> 404 Page Not Found: Assets/js
ERROR - 2020-01-17 10:31:38 --> 404 Page Not Found: Css_app/menu.css
ERROR - 2020-01-17 10:31:39 --> 404 Page Not Found: Assets/js
ERROR - 2020-01-17 10:31:39 --> 404 Page Not Found: Css_app/menu.css
ERROR - 2020-01-17 10:32:04 --> 404 Page Not Found: Css_app/menu.css
ERROR - 2020-01-17 10:32:04 --> 404 Page Not Found: Assets/js
ERROR - 2020-01-17 10:32:04 --> 404 Page Not Found: Css_app/menu.css
ERROR - 2020-01-17 10:32:51 --> 404 Page Not Found: Css_app/menu.css
ERROR - 2020-01-17 10:32:51 --> 404 Page Not Found: Assets/js
ERROR - 2020-01-17 10:32:51 --> 404 Page Not Found: Css_app/menu.css
ERROR - 2020-01-17 10:33:32 --> 404 Page Not Found: Css_app/menu.css
ERROR - 2020-01-17 10:33:32 --> 404 Page Not Found: Assets/js
ERROR - 2020-01-17 10:33:32 --> 404 Page Not Found: Css_app/menu.css
ERROR - 2020-01-17 10:33:52 --> 404 Page Not Found: Css_app/menu.css
ERROR - 2020-01-17 10:33:52 --> 404 Page Not Found: Assets/js
ERROR - 2020-01-17 10:33:52 --> 404 Page Not Found: Css_app/menu.css
ERROR - 2020-01-17 10:34:54 --> 404 Page Not Found: Css_app/menu.css
ERROR - 2020-01-17 10:34:54 --> 404 Page Not Found: Assets/js
ERROR - 2020-01-17 10:34:54 --> 404 Page Not Found: Css_app/menu.css
ERROR - 2020-01-17 10:37:41 --> 404 Page Not Found: Css_app/menu.css
ERROR - 2020-01-17 10:37:41 --> 404 Page Not Found: Assets/js
ERROR - 2020-01-17 10:37:41 --> 404 Page Not Found: Css_app/menu.css
ERROR - 2020-01-17 10:38:22 --> 404 Page Not Found: Css_app/menu.css
ERROR - 2020-01-17 10:38:22 --> 404 Page Not Found: Assets/js
ERROR - 2020-01-17 10:38:22 --> 404 Page Not Found: Css_app/menu.css
ERROR - 2020-01-17 10:38:35 --> 404 Page Not Found: Css_app/menu.css
ERROR - 2020-01-17 10:38:35 --> 404 Page Not Found: Assets/js
ERROR - 2020-01-17 10:38:35 --> 404 Page Not Found: Css_app/menu.css
ERROR - 2020-01-17 10:38:40 --> 404 Page Not Found: Assets/vendors
ERROR - 2020-01-17 10:38:40 --> 404 Page Not Found: Assets/vendors
ERROR - 2020-01-17 10:38:40 --> 404 Page Not Found: Assets/vendors
ERROR - 2020-01-17 10:38:40 --> 404 Page Not Found: Assets/vendors
ERROR - 2020-01-17 10:38:40 --> 404 Page Not Found: Assets/vendors
ERROR - 2020-01-17 10:38:40 --> 404 Page Not Found: Assets/vendors
ERROR - 2020-01-17 10:38:40 --> 404 Page Not Found: Assets/vendors
ERROR - 2020-01-17 10:38:40 --> 404 Page Not Found: Assets/vendors
ERROR - 2020-01-17 10:38:46 --> 404 Page Not Found: Assets/js
ERROR - 2020-01-17 10:38:48 --> 404 Page Not Found: Css_app/menu.css
ERROR - 2020-01-17 10:38:48 --> 404 Page Not Found: Assets/js
ERROR - 2020-01-17 10:38:48 --> 404 Page Not Found: Css_app/menu.css
ERROR - 2020-01-17 10:39:37 --> 404 Page Not Found: Css_app/menu.css
ERROR - 2020-01-17 10:39:37 --> 404 Page Not Found: Assets/js
ERROR - 2020-01-17 10:39:37 --> 404 Page Not Found: Css_app/menu.css
ERROR - 2020-01-17 10:40:05 --> 404 Page Not Found: Css_app/menu.css
ERROR - 2020-01-17 10:40:05 --> 404 Page Not Found: Assets/js
ERROR - 2020-01-17 10:40:05 --> 404 Page Not Found: Css_app/menu.css
ERROR - 2020-01-17 10:40:38 --> 404 Page Not Found: Css_app/menu.css
ERROR - 2020-01-17 10:40:38 --> 404 Page Not Found: Assets/js
ERROR - 2020-01-17 10:40:38 --> 404 Page Not Found: Css_app/menu.css
ERROR - 2020-01-17 10:43:40 --> 404 Page Not Found: Assets/vendors
ERROR - 2020-01-17 10:43:40 --> 404 Page Not Found: Assets/vendors
ERROR - 2020-01-17 10:43:40 --> 404 Page Not Found: Assets/vendors
ERROR - 2020-01-17 10:43:40 --> 404 Page Not Found: Assets/vendors
ERROR - 2020-01-17 10:43:40 --> 404 Page Not Found: Assets/vendors
ERROR - 2020-01-17 10:43:40 --> 404 Page Not Found: Assets/vendors
ERROR - 2020-01-17 10:43:40 --> 404 Page Not Found: Assets/vendors
ERROR - 2020-01-17 10:43:40 --> 404 Page Not Found: Assets/vendors
ERROR - 2020-01-17 10:43:45 --> 404 Page Not Found: Css_app/menu.css
ERROR - 2020-01-17 10:45:23 --> 404 Page Not Found: Css_app/menu.css
ERROR - 2020-01-17 10:45:23 --> 404 Page Not Found: Assets/js
ERROR - 2020-01-17 10:45:23 --> 404 Page Not Found: Css_app/menu.css
ERROR - 2020-01-17 10:48:08 --> 404 Page Not Found: Css_app/menu.css
ERROR - 2020-01-17 10:48:08 --> 404 Page Not Found: Assets/js
ERROR - 2020-01-17 10:48:09 --> 404 Page Not Found: Css_app/menu.css
ERROR - 2020-01-17 10:48:17 --> 404 Page Not Found: Css_app/menu.css
ERROR - 2020-01-17 10:48:18 --> 404 Page Not Found: Assets/js
ERROR - 2020-01-17 10:48:18 --> 404 Page Not Found: Css_app/menu.css
ERROR - 2020-01-17 10:48:47 --> 404 Page Not Found: Css_app/menu.css
ERROR - 2020-01-17 10:48:48 --> 404 Page Not Found: Assets/js
ERROR - 2020-01-17 10:48:48 --> 404 Page Not Found: Css_app/menu.css
ERROR - 2020-01-17 10:48:59 --> 404 Page Not Found: Css_app/menu.css
ERROR - 2020-01-17 10:48:59 --> 404 Page Not Found: Assets/js
ERROR - 2020-01-17 10:48:59 --> 404 Page Not Found: Css_app/menu.css
ERROR - 2020-01-17 10:50:19 --> 404 Page Not Found: Css_app/menu.css
ERROR - 2020-01-17 10:50:20 --> 404 Page Not Found: Assets/js
ERROR - 2020-01-17 10:50:20 --> 404 Page Not Found: Css_app/menu.css
ERROR - 2020-01-17 10:50:46 --> 404 Page Not Found: Css_app/menu.css
ERROR - 2020-01-17 10:50:46 --> 404 Page Not Found: Assets/js
ERROR - 2020-01-17 10:50:46 --> 404 Page Not Found: Css_app/menu.css
ERROR - 2020-01-17 10:52:40 --> 404 Page Not Found: Css_app/menu.css
ERROR - 2020-01-17 10:52:41 --> 404 Page Not Found: Assets/js
ERROR - 2020-01-17 10:52:41 --> 404 Page Not Found: Css_app/menu.css
ERROR - 2020-01-17 10:53:19 --> 404 Page Not Found: Css_app/menu.css
ERROR - 2020-01-17 10:53:20 --> 404 Page Not Found: Assets/js
ERROR - 2020-01-17 10:53:20 --> 404 Page Not Found: Css_app/menu.css
ERROR - 2020-01-17 10:53:34 --> 404 Page Not Found: Css_app/menu.css
ERROR - 2020-01-17 10:53:34 --> 404 Page Not Found: Assets/js
ERROR - 2020-01-17 10:53:34 --> 404 Page Not Found: Css_app/menu.css
ERROR - 2020-01-17 10:53:48 --> 404 Page Not Found: Css_app/menu.css
ERROR - 2020-01-17 10:53:48 --> 404 Page Not Found: Assets/js
ERROR - 2020-01-17 10:53:49 --> 404 Page Not Found: Css_app/menu.css
ERROR - 2020-01-17 10:53:49 --> 404 Page Not Found: Assets/js
ERROR - 2020-01-17 10:53:49 --> 404 Page Not Found: Css_app/menu.css
ERROR - 2020-01-17 10:54:54 --> 404 Page Not Found: Css_app/menu.css
ERROR - 2020-01-17 10:54:54 --> 404 Page Not Found: Assets/js
ERROR - 2020-01-17 10:54:54 --> 404 Page Not Found: Css_app/menu.css
ERROR - 2020-01-17 16:56:56 --> Severity: Notice --> Undefined index: search D:\htdocs\payment-request\application\models\Menu_Model.php 34
ERROR - 2020-01-17 16:56:56 --> Severity: Notice --> Undefined index: length D:\htdocs\payment-request\application\models\Menu_Model.php 68
ERROR - 2020-01-17 16:56:56 --> Severity: Notice --> Undefined index: length D:\htdocs\payment-request\application\models\Menu_Model.php 69
ERROR - 2020-01-17 16:56:56 --> Severity: Notice --> Undefined index: start D:\htdocs\payment-request\application\models\Menu_Model.php 69
ERROR - 2020-01-17 16:56:56 --> Severity: Notice --> Undefined index: start D:\htdocs\payment-request\application\controllers\Menus.php 43
ERROR - 2020-01-17 16:56:56 --> Severity: Notice --> Undefined index: draw D:\htdocs\payment-request\application\controllers\Menus.php 53
ERROR - 2020-01-17 16:56:56 --> Severity: Notice --> Undefined index: search D:\htdocs\payment-request\application\models\Menu_Model.php 34
ERROR - 2020-01-17 10:56:56 --> 404 Page Not Found: Assets/js
ERROR - 2020-01-17 17:02:41 --> Severity: Notice --> Undefined index: search D:\htdocs\payment-request\application\models\Menu_Model.php 34
ERROR - 2020-01-17 17:02:41 --> Severity: Notice --> Undefined index: length D:\htdocs\payment-request\application\models\Menu_Model.php 68
ERROR - 2020-01-17 17:02:41 --> Severity: Notice --> Undefined index: length D:\htdocs\payment-request\application\models\Menu_Model.php 69
ERROR - 2020-01-17 17:02:41 --> Severity: Notice --> Undefined index: start D:\htdocs\payment-request\application\models\Menu_Model.php 69
ERROR - 2020-01-17 17:02:41 --> Severity: Notice --> Undefined index: start D:\htdocs\payment-request\application\controllers\Menus.php 43
ERROR - 2020-01-17 17:02:41 --> Severity: Notice --> Undefined index: draw D:\htdocs\payment-request\application\controllers\Menus.php 53
ERROR - 2020-01-17 17:02:41 --> Severity: Notice --> Undefined index: search D:\htdocs\payment-request\application\models\Menu_Model.php 34
ERROR - 2020-01-17 11:02:41 --> 404 Page Not Found: Assets/js
ERROR - 2020-01-17 17:02:49 --> Severity: Notice --> Undefined index: length D:\htdocs\payment-request\application\models\Menu_Model.php 68
ERROR - 2020-01-17 17:02:49 --> Severity: Notice --> Undefined index: length D:\htdocs\payment-request\application\models\Menu_Model.php 69
ERROR - 2020-01-17 17:02:49 --> Severity: Notice --> Undefined index: start D:\htdocs\payment-request\application\models\Menu_Model.php 69
ERROR - 2020-01-17 17:02:49 --> Severity: Notice --> Undefined index: start D:\htdocs\payment-request\application\controllers\Menus.php 43
ERROR - 2020-01-17 17:02:49 --> Severity: Notice --> Undefined index: draw D:\htdocs\payment-request\application\controllers\Menus.php 53
ERROR - 2020-01-17 11:02:49 --> 404 Page Not Found: Assets/js
ERROR - 2020-01-17 17:03:13 --> Severity: Notice --> Undefined index: search D:\htdocs\payment-request\application\models\Menu_Model.php 34
ERROR - 2020-01-17 17:03:13 --> Severity: Notice --> Undefined index: length D:\htdocs\payment-request\application\models\Menu_Model.php 68
ERROR - 2020-01-17 17:03:13 --> Severity: Notice --> Undefined index: length D:\htdocs\payment-request\application\models\Menu_Model.php 69
ERROR - 2020-01-17 17:03:13 --> Severity: Notice --> Undefined index: start D:\htdocs\payment-request\application\models\Menu_Model.php 69
ERROR - 2020-01-17 17:03:13 --> Severity: Notice --> Undefined index: start D:\htdocs\payment-request\application\controllers\Menus.php 43
ERROR - 2020-01-17 17:03:13 --> Severity: Notice --> Undefined index: draw D:\htdocs\payment-request\application\controllers\Menus.php 52
ERROR - 2020-01-17 17:03:13 --> Severity: Notice --> Undefined index: search D:\htdocs\payment-request\application\models\Menu_Model.php 34
ERROR - 2020-01-17 11:03:13 --> 404 Page Not Found: Assets/js
ERROR - 2020-01-17 17:03:55 --> Severity: Notice --> Undefined index: search D:\htdocs\payment-request\application\models\Menu_Model.php 34
ERROR - 2020-01-17 17:03:55 --> Severity: Notice --> Undefined index: length D:\htdocs\payment-request\application\models\Menu_Model.php 68
ERROR - 2020-01-17 17:03:55 --> Severity: Notice --> Undefined index: length D:\htdocs\payment-request\application\models\Menu_Model.php 69
ERROR - 2020-01-17 17:03:55 --> Severity: Notice --> Undefined index: start D:\htdocs\payment-request\application\models\Menu_Model.php 69
ERROR - 2020-01-17 17:03:55 --> Severity: Notice --> Undefined index: start D:\htdocs\payment-request\application\controllers\Menus.php 43
ERROR - 2020-01-17 17:03:55 --> Severity: Notice --> Undefined index: draw D:\htdocs\payment-request\application\controllers\Menus.php 53
ERROR - 2020-01-17 11:03:56 --> 404 Page Not Found: Assets/js
ERROR - 2020-01-17 17:04:29 --> Severity: Notice --> Undefined index: search D:\htdocs\payment-request\application\models\Menu_Model.php 34
ERROR - 2020-01-17 17:04:29 --> Severity: Notice --> Undefined index: length D:\htdocs\payment-request\application\models\Menu_Model.php 68
ERROR - 2020-01-17 17:04:29 --> Severity: Notice --> Undefined index: length D:\htdocs\payment-request\application\models\Menu_Model.php 69
ERROR - 2020-01-17 17:04:29 --> Severity: Notice --> Undefined index: start D:\htdocs\payment-request\application\models\Menu_Model.php 69
ERROR - 2020-01-17 17:04:29 --> Severity: Notice --> Undefined index: start D:\htdocs\payment-request\application\controllers\Menus.php 43
ERROR - 2020-01-17 17:04:29 --> Severity: Notice --> Undefined index: draw D:\htdocs\payment-request\application\controllers\Menus.php 53
ERROR - 2020-01-17 17:04:29 --> Severity: Notice --> Undefined index: search D:\htdocs\payment-request\application\models\Menu_Model.php 34
ERROR - 2020-01-17 11:04:30 --> 404 Page Not Found: Assets/js
ERROR - 2020-01-17 11:04:32 --> 404 Page Not Found: Css_app/menu.css
ERROR - 2020-01-17 11:04:32 --> 404 Page Not Found: Assets/js
ERROR - 2020-01-17 11:04:32 --> 404 Page Not Found: Css_app/menu.css
ERROR - 2020-01-17 11:04:58 --> 404 Page Not Found: Css_app/menu.css
ERROR - 2020-01-17 11:04:58 --> 404 Page Not Found: Assets/js
ERROR - 2020-01-17 11:04:58 --> 404 Page Not Found: Css_app/menu.css
ERROR - 2020-01-17 11:05:24 --> 404 Page Not Found: Assets/js
ERROR - 2020-01-17 11:06:09 --> 404 Page Not Found: Assets/js
ERROR - 2020-01-17 11:06:57 --> 404 Page Not Found: Assets/js
ERROR - 2020-01-17 11:07:33 --> 404 Page Not Found: Assets/js
ERROR - 2020-01-17 11:12:28 --> 404 Page Not Found: Assets/js
ERROR - 2020-01-17 11:12:30 --> 404 Page Not Found: Assets/js
ERROR - 2020-01-17 11:12:30 --> 404 Page Not Found: Assets/js
ERROR - 2020-01-17 11:13:01 --> 404 Page Not Found: Assets/js
ERROR - 2020-01-17 11:13:10 --> 404 Page Not Found: Assets/js
ERROR - 2020-01-17 11:13:11 --> 404 Page Not Found: Assets/js
ERROR - 2020-01-17 11:13:28 --> 404 Page Not Found: Assets/js
ERROR - 2020-01-17 11:13:32 --> 404 Page Not Found: Assets/js
ERROR - 2020-01-17 11:13:51 --> 404 Page Not Found: Assets/js
ERROR - 2020-01-17 11:14:30 --> 404 Page Not Found: Assets/js
ERROR - 2020-01-17 11:15:06 --> 404 Page Not Found: Assets/js
ERROR - 2020-01-17 11:15:56 --> 404 Page Not Found: Assets/js
ERROR - 2020-01-17 11:16:36 --> 404 Page Not Found: Assets/js
ERROR - 2020-01-17 11:18:21 --> 404 Page Not Found: Assets/js
ERROR - 2020-01-17 11:20:50 --> 404 Page Not Found: Assets/js
ERROR - 2020-01-17 11:23:52 --> 404 Page Not Found: Assets/js
ERROR - 2020-01-17 11:25:36 --> 404 Page Not Found: Assets/js
ERROR - 2020-01-17 11:25:44 --> 404 Page Not Found: Assets/js
ERROR - 2020-01-17 11:26:55 --> 404 Page Not Found: Assets/js
ERROR - 2020-01-17 11:27:42 --> 404 Page Not Found: Assets/js
ERROR - 2020-01-17 11:27:54 --> 404 Page Not Found: Assets/js
ERROR - 2020-01-17 11:29:14 --> 404 Page Not Found: Css_app/menu.css
ERROR - 2020-01-17 11:29:14 --> 404 Page Not Found: Assets/js
ERROR - 2020-01-17 11:29:14 --> 404 Page Not Found: Css_app/menu.css
ERROR - 2020-01-17 11:32:00 --> 404 Page Not Found: Css_app/menu.css
ERROR - 2020-01-17 11:32:00 --> 404 Page Not Found: Assets/js
ERROR - 2020-01-17 11:32:00 --> 404 Page Not Found: Css_app/menu.css
ERROR - 2020-01-17 11:32:14 --> 404 Page Not Found: Css_app/menu.css
ERROR - 2020-01-17 11:32:14 --> 404 Page Not Found: Assets/js
ERROR - 2020-01-17 11:32:14 --> 404 Page Not Found: Css_app/menu.css
ERROR - 2020-01-17 11:32:26 --> 404 Page Not Found: Css_app/menu.css
ERROR - 2020-01-17 11:32:27 --> 404 Page Not Found: Assets/js
ERROR - 2020-01-17 11:32:27 --> 404 Page Not Found: Css_app/menu.css
ERROR - 2020-01-17 11:32:27 --> 404 Page Not Found: Assets/js
ERROR - 2020-01-17 11:32:27 --> 404 Page Not Found: Css_app/menu.css
ERROR - 2020-01-17 11:32:47 --> 404 Page Not Found: Css_app/menu.css
ERROR - 2020-01-17 11:32:47 --> 404 Page Not Found: Assets/js
ERROR - 2020-01-17 11:32:47 --> 404 Page Not Found: Css_app/menu.css
ERROR - 2020-01-17 11:33:43 --> 404 Page Not Found: Css_app/menu.css
ERROR - 2020-01-17 11:33:43 --> 404 Page Not Found: Assets/js
ERROR - 2020-01-17 11:33:43 --> 404 Page Not Found: Css_app/menu.css
ERROR - 2020-01-17 11:33:58 --> 404 Page Not Found: Css_app/menu.css
ERROR - 2020-01-17 11:33:58 --> 404 Page Not Found: Assets/js
ERROR - 2020-01-17 11:33:58 --> 404 Page Not Found: Css_app/menu.css
ERROR - 2020-01-17 11:35:27 --> 404 Page Not Found: Css_app/menu.css
ERROR - 2020-01-17 11:35:27 --> 404 Page Not Found: Assets/js
ERROR - 2020-01-17 11:35:27 --> 404 Page Not Found: Css_app/menu.css
ERROR - 2020-01-17 11:35:37 --> 404 Page Not Found: Css_app/menu.css
ERROR - 2020-01-17 11:35:37 --> 404 Page Not Found: Assets/js
ERROR - 2020-01-17 11:35:37 --> 404 Page Not Found: Css_app/menu.css
ERROR - 2020-01-17 11:48:48 --> 404 Page Not Found: Css_app/menu.css
ERROR - 2020-01-17 11:48:48 --> 404 Page Not Found: Assets/js
ERROR - 2020-01-17 11:48:48 --> 404 Page Not Found: Css_app/menu.css
ERROR - 2020-01-17 11:50:02 --> 404 Page Not Found: Css_app/menu.css
ERROR - 2020-01-17 11:50:02 --> 404 Page Not Found: Assets/js
ERROR - 2020-01-17 11:50:02 --> 404 Page Not Found: Css_app/menu.css
ERROR - 2020-01-17 11:50:17 --> 404 Page Not Found: Css_app/menu.css
ERROR - 2020-01-17 11:50:17 --> 404 Page Not Found: Assets/js
ERROR - 2020-01-17 11:50:17 --> 404 Page Not Found: Css_app/menu.css
ERROR - 2020-01-17 11:50:29 --> 404 Page Not Found: Css_app/menu.css
ERROR - 2020-01-17 11:50:29 --> 404 Page Not Found: Assets/js
ERROR - 2020-01-17 11:50:29 --> 404 Page Not Found: Css_app/menu.css
ERROR - 2020-01-17 11:50:39 --> 404 Page Not Found: Css_app/menu.css
ERROR - 2020-01-17 11:50:39 --> 404 Page Not Found: Assets/js
ERROR - 2020-01-17 11:50:39 --> 404 Page Not Found: Css_app/menu.css
ERROR - 2020-01-17 11:51:26 --> 404 Page Not Found: Css_app/menu.css
ERROR - 2020-01-17 11:51:27 --> 404 Page Not Found: Assets/js
ERROR - 2020-01-17 11:51:27 --> 404 Page Not Found: Css_app/menu.css
ERROR - 2020-01-17 11:51:42 --> 404 Page Not Found: Css_app/menu.css
ERROR - 2020-01-17 11:51:42 --> 404 Page Not Found: Assets/js
ERROR - 2020-01-17 11:51:42 --> 404 Page Not Found: Css_app/menu.css
ERROR - 2020-01-17 11:52:10 --> 404 Page Not Found: Css_app/menu.css
ERROR - 2020-01-17 11:52:10 --> 404 Page Not Found: Assets/js
ERROR - 2020-01-17 11:52:10 --> 404 Page Not Found: Css_app/menu.css
ERROR - 2020-01-17 11:52:18 --> 404 Page Not Found: Css_app/menu.css
ERROR - 2020-01-17 11:52:19 --> 404 Page Not Found: Assets/js
ERROR - 2020-01-17 11:52:19 --> 404 Page Not Found: Css_app/menu.css
ERROR - 2020-01-17 11:54:04 --> 404 Page Not Found: Css_app/menu.css
ERROR - 2020-01-17 11:54:04 --> 404 Page Not Found: Assets/js
ERROR - 2020-01-17 11:54:04 --> 404 Page Not Found: Css_app/menu.css
ERROR - 2020-01-17 11:55:14 --> 404 Page Not Found: Css_app/menu.css
ERROR - 2020-01-17 11:55:14 --> 404 Page Not Found: Assets/js
ERROR - 2020-01-17 11:55:14 --> 404 Page Not Found: Css_app/menu.css
ERROR - 2020-01-17 11:55:38 --> 404 Page Not Found: Css_app/menu.css
ERROR - 2020-01-17 11:55:38 --> 404 Page Not Found: Assets/js
ERROR - 2020-01-17 11:55:38 --> 404 Page Not Found: Css_app/menu.css
ERROR - 2020-01-17 11:55:49 --> 404 Page Not Found: Css_app/menu.css
ERROR - 2020-01-17 11:55:49 --> 404 Page Not Found: Assets/js
ERROR - 2020-01-17 11:55:49 --> 404 Page Not Found: Css_app/menu.css
ERROR - 2020-01-17 11:56:46 --> 404 Page Not Found: Css_app/menu.css
ERROR - 2020-01-17 11:56:46 --> 404 Page Not Found: Assets/js
ERROR - 2020-01-17 11:56:46 --> 404 Page Not Found: Css_app/menu.css
ERROR - 2020-01-17 11:56:52 --> 404 Page Not Found: Css_app/menu.css
ERROR - 2020-01-17 11:56:52 --> 404 Page Not Found: Assets/js
ERROR - 2020-01-17 11:56:53 --> 404 Page Not Found: Css_app/menu.css
ERROR - 2020-01-17 11:58:25 --> 404 Page Not Found: Css_app/menu.css
ERROR - 2020-01-17 11:58:25 --> 404 Page Not Found: Assets/js
ERROR - 2020-01-17 11:58:25 --> 404 Page Not Found: Css_app/menu.css
ERROR - 2020-01-17 11:59:39 --> 404 Page Not Found: Css_app/menu.css
ERROR - 2020-01-17 11:59:39 --> 404 Page Not Found: Assets/js
ERROR - 2020-01-17 11:59:39 --> 404 Page Not Found: Css_app/menu.css
ERROR - 2020-01-17 12:00:22 --> 404 Page Not Found: Css_app/menu.css
ERROR - 2020-01-17 12:00:22 --> 404 Page Not Found: Assets/js
ERROR - 2020-01-17 12:00:23 --> 404 Page Not Found: Css_app/menu.css
ERROR - 2020-01-17 12:00:41 --> 404 Page Not Found: Css_app/menu.css
ERROR - 2020-01-17 12:00:41 --> 404 Page Not Found: Assets/js
ERROR - 2020-01-17 12:00:41 --> 404 Page Not Found: Css_app/menu.css
ERROR - 2020-01-17 12:01:07 --> 404 Page Not Found: Assets/vendors
ERROR - 2020-01-17 12:01:07 --> 404 Page Not Found: Assets/vendors
ERROR - 2020-01-17 12:01:07 --> 404 Page Not Found: Assets/vendors
ERROR - 2020-01-17 12:01:07 --> 404 Page Not Found: Assets/vendors
ERROR - 2020-01-17 12:01:07 --> 404 Page Not Found: Assets/vendors
ERROR - 2020-01-17 12:01:07 --> 404 Page Not Found: Assets/vendors
ERROR - 2020-01-17 12:01:07 --> 404 Page Not Found: Assets/vendors
ERROR - 2020-01-17 12:01:07 --> 404 Page Not Found: Assets/vendors
ERROR - 2020-01-17 12:01:11 --> 404 Page Not Found: Assets/js
ERROR - 2020-01-17 12:01:20 --> 404 Page Not Found: Css_app/menu.css
ERROR - 2020-01-17 12:01:20 --> 404 Page Not Found: Assets/js
ERROR - 2020-01-17 12:01:20 --> 404 Page Not Found: Css_app/menu.css
ERROR - 2020-01-17 12:02:08 --> 404 Page Not Found: Css_app/menu.css
ERROR - 2020-01-17 12:02:08 --> 404 Page Not Found: Assets/js
ERROR - 2020-01-17 12:02:08 --> 404 Page Not Found: Css_app/menu.css
ERROR - 2020-01-17 12:02:53 --> 404 Page Not Found: Css_app/menu.css
ERROR - 2020-01-17 12:02:54 --> 404 Page Not Found: Assets/js
ERROR - 2020-01-17 12:02:54 --> 404 Page Not Found: Css_app/menu.css
ERROR - 2020-01-17 12:04:23 --> 404 Page Not Found: Css_app/menu.css
ERROR - 2020-01-17 12:04:23 --> 404 Page Not Found: Assets/js
ERROR - 2020-01-17 12:04:23 --> 404 Page Not Found: Css_app/menu.css
ERROR - 2020-01-17 12:04:32 --> 404 Page Not Found: Css_app/menu.css
ERROR - 2020-01-17 12:04:32 --> 404 Page Not Found: Assets/js
ERROR - 2020-01-17 12:04:32 --> 404 Page Not Found: Css_app/menu.css
ERROR - 2020-01-17 12:05:12 --> 404 Page Not Found: Css_app/menu.css
ERROR - 2020-01-17 12:05:12 --> 404 Page Not Found: Assets/js
ERROR - 2020-01-17 12:05:12 --> 404 Page Not Found: Css_app/menu.css
ERROR - 2020-01-17 12:05:41 --> 404 Page Not Found: Css_app/menu.css
ERROR - 2020-01-17 12:05:41 --> 404 Page Not Found: Assets/js
ERROR - 2020-01-17 12:05:41 --> 404 Page Not Found: Css_app/menu.css
ERROR - 2020-01-17 12:06:15 --> 404 Page Not Found: Css_app/menu.css
ERROR - 2020-01-17 12:06:16 --> 404 Page Not Found: Assets/js
ERROR - 2020-01-17 12:06:16 --> 404 Page Not Found: Css_app/menu.css
ERROR - 2020-01-17 12:07:22 --> 404 Page Not Found: Css_app/menu.css
ERROR - 2020-01-17 12:07:22 --> 404 Page Not Found: Assets/js
ERROR - 2020-01-17 12:07:22 --> 404 Page Not Found: Css_app/menu.css
ERROR - 2020-01-17 12:07:43 --> 404 Page Not Found: Css_app/menu.css
ERROR - 2020-01-17 12:07:43 --> 404 Page Not Found: Assets/js
ERROR - 2020-01-17 12:07:43 --> 404 Page Not Found: Css_app/menu.css
ERROR - 2020-01-17 12:07:45 --> 404 Page Not Found: Css_app/menu.css
ERROR - 2020-01-17 12:07:45 --> 404 Page Not Found: Assets/js
ERROR - 2020-01-17 12:07:45 --> 404 Page Not Found: Css_app/menu.css
ERROR - 2020-01-17 12:08:56 --> 404 Page Not Found: Css_app/menu.css
ERROR - 2020-01-17 12:08:56 --> 404 Page Not Found: Assets/js
ERROR - 2020-01-17 12:08:56 --> 404 Page Not Found: Css_app/menu.css
ERROR - 2020-01-17 12:09:17 --> 404 Page Not Found: Css_app/menu.css
ERROR - 2020-01-17 12:09:17 --> 404 Page Not Found: Assets/js
ERROR - 2020-01-17 12:09:17 --> 404 Page Not Found: Css_app/menu.css
ERROR - 2020-01-17 12:09:34 --> 404 Page Not Found: Css_app/menu.css
ERROR - 2020-01-17 12:09:34 --> 404 Page Not Found: Assets/js
ERROR - 2020-01-17 12:09:34 --> 404 Page Not Found: Css_app/menu.css
ERROR - 2020-01-17 12:10:35 --> 404 Page Not Found: Css_app/menu.css
ERROR - 2020-01-17 12:10:35 --> 404 Page Not Found: Assets/js
ERROR - 2020-01-17 12:10:35 --> 404 Page Not Found: Css_app/menu.css
ERROR - 2020-01-17 12:11:47 --> 404 Page Not Found: Assets/vendors
ERROR - 2020-01-17 12:11:47 --> 404 Page Not Found: Assets/vendors
ERROR - 2020-01-17 12:11:47 --> 404 Page Not Found: Assets/vendors
ERROR - 2020-01-17 12:11:47 --> 404 Page Not Found: Assets/vendors
ERROR - 2020-01-17 12:11:47 --> 404 Page Not Found: Assets/vendors
ERROR - 2020-01-17 12:11:47 --> 404 Page Not Found: Assets/vendors
ERROR - 2020-01-17 12:11:47 --> 404 Page Not Found: Assets/vendors
ERROR - 2020-01-17 12:11:47 --> 404 Page Not Found: Assets/vendors
ERROR - 2020-01-17 12:11:52 --> 404 Page Not Found: Assets/js
ERROR - 2020-01-17 12:11:54 --> 404 Page Not Found: Css_app/menu.css
ERROR - 2020-01-17 12:11:54 --> 404 Page Not Found: Css_app/menu.css
ERROR - 2020-01-17 12:11:54 --> 404 Page Not Found: Assets/js
ERROR - 2020-01-17 12:12:54 --> 404 Page Not Found: Css_app/menu.css
ERROR - 2020-01-17 12:12:54 --> 404 Page Not Found: Assets/js
ERROR - 2020-01-17 12:12:54 --> 404 Page Not Found: Css_app/menu.css
ERROR - 2020-01-17 12:13:46 --> 404 Page Not Found: Css_app/menu.css
ERROR - 2020-01-17 12:13:46 --> 404 Page Not Found: Assets/js
ERROR - 2020-01-17 12:13:46 --> 404 Page Not Found: Css_app/menu.css
ERROR - 2020-01-17 12:14:19 --> 404 Page Not Found: Css_app/menu.css
ERROR - 2020-01-17 12:14:19 --> 404 Page Not Found: Assets/js
ERROR - 2020-01-17 12:14:20 --> 404 Page Not Found: Css_app/menu.css
ERROR - 2020-01-17 12:14:50 --> 404 Page Not Found: Css_app/menu.css
ERROR - 2020-01-17 12:14:50 --> 404 Page Not Found: Assets/js
ERROR - 2020-01-17 12:14:50 --> 404 Page Not Found: Css_app/menu.css
ERROR - 2020-01-17 12:14:56 --> 404 Page Not Found: Css_app/menu.css
ERROR - 2020-01-17 12:14:56 --> 404 Page Not Found: Assets/js
ERROR - 2020-01-17 12:14:56 --> 404 Page Not Found: Css_app/menu.css
ERROR - 2020-01-17 12:15:20 --> 404 Page Not Found: Css_app/menu.css
ERROR - 2020-01-17 12:15:20 --> 404 Page Not Found: Assets/js
ERROR - 2020-01-17 12:15:20 --> 404 Page Not Found: Css_app/menu.css
ERROR - 2020-01-17 12:15:26 --> 404 Page Not Found: Css_app/menu.css
ERROR - 2020-01-17 12:15:27 --> 404 Page Not Found: Assets/js
ERROR - 2020-01-17 12:15:27 --> 404 Page Not Found: Css_app/menu.css
ERROR - 2020-01-17 12:15:42 --> 404 Page Not Found: Css_app/menu.css
ERROR - 2020-01-17 12:15:42 --> 404 Page Not Found: Assets/js
ERROR - 2020-01-17 12:15:42 --> 404 Page Not Found: Css_app/menu.css
ERROR - 2020-01-17 12:15:48 --> 404 Page Not Found: Css_app/menu.css
ERROR - 2020-01-17 12:15:48 --> 404 Page Not Found: Assets/js
ERROR - 2020-01-17 12:15:48 --> 404 Page Not Found: Css_app/menu.css
ERROR - 2020-01-17 12:17:47 --> 404 Page Not Found: Assets/js
ERROR - 2020-01-17 12:17:49 --> 404 Page Not Found: Assets/js
ERROR - 2020-01-17 12:18:28 --> 404 Page Not Found: Assets/js
ERROR - 2020-01-17 12:18:54 --> 404 Page Not Found: Assets/js
ERROR - 2020-01-17 12:19:05 --> 404 Page Not Found: Assets/js
ERROR - 2020-01-17 12:19:39 --> 404 Page Not Found: Assets/js
ERROR - 2020-01-17 12:19:59 --> 404 Page Not Found: Assets/js
ERROR - 2020-01-17 12:20:10 --> 404 Page Not Found: Assets/js
ERROR - 2020-01-17 12:20:22 --> 404 Page Not Found: Assets/js
ERROR - 2020-01-17 12:20:26 --> 404 Page Not Found: Assets/js
ERROR - 2020-01-17 12:20:30 --> 404 Page Not Found: Assets/js
ERROR - 2020-01-17 12:20:40 --> 404 Page Not Found: Assets/js
ERROR - 2020-01-17 12:21:11 --> 404 Page Not Found: Assets/js
ERROR - 2020-01-17 12:21:38 --> 404 Page Not Found: Assets/js
ERROR - 2020-01-17 12:22:10 --> 404 Page Not Found: Assets/js
ERROR - 2020-01-17 12:22:23 --> 404 Page Not Found: Assets/js
ERROR - 2020-01-17 12:23:42 --> 404 Page Not Found: Assets/js
ERROR - 2020-01-17 12:23:49 --> 404 Page Not Found: Assets/js
ERROR - 2020-01-17 12:23:51 --> 404 Page Not Found: Assets/js
ERROR - 2020-01-17 12:24:19 --> 404 Page Not Found: Assets/js
ERROR - 2020-01-17 12:24:22 --> 404 Page Not Found: Assets/js
ERROR - 2020-01-17 12:25:53 --> 404 Page Not Found: Assets/js
ERROR - 2020-01-17 12:26:08 --> 404 Page Not Found: Assets/js
ERROR - 2020-01-17 12:27:56 --> 404 Page Not Found: Assets/js
ERROR - 2020-01-17 12:27:58 --> 404 Page Not Found: Assets/js
ERROR - 2020-01-17 12:28:57 --> 404 Page Not Found: Assets/js
ERROR - 2020-01-17 12:30:02 --> 404 Page Not Found: Assets/js
ERROR - 2020-01-17 12:30:03 --> 404 Page Not Found: Assets/js
ERROR - 2020-01-17 12:30:42 --> 404 Page Not Found: Assets/js
ERROR - 2020-01-17 12:30:44 --> 404 Page Not Found: Assets/js
